{

    "metadata" :
    {
        "formatVersion" : 3.1,
        "sourceFile"    : "5__Maison_Este_be.obj",
        "generatedBy"   : "OBJConverter",
        "vertices"      : 10,
        "faces"         : 7,
        "normals"       : 7,
        "colors"        : 0,
        "uvs"           : 28,
        "materials"     : 1
    },

    "scale" : 1.000000,

    "materials": [	{
	"DbgColor" : 15658734,
	"DbgIndex" : 0,
	"DbgName" : "FrontColor",
	"colorAmbient" : [0.0, 0.0, 0.0],
	"colorDiffuse" : [1.0, 1.0, 1.0],
	"colorSpecular" : [0.33, 0.33, 0.33]
	}],

    "vertices": [214.473000,98.640000,-75.744700,214.473000,51.030000,0.000000,214.473000,0.000000,-0.000000,214.473000,0.000000,-151.489000,214.473000,51.030000,-151.489000,-0.000000,98.640000,-75.744700,-0.000000,51.030000,0.000000,0.000000,0.000000,-0.000000,-0.000000,51.030000,-151.489000,0.000000,0.000000,-151.489000],

    "morphTargets": [],

    "morphColors": [],

    "normals": [1,1.0608e-14,9.7596e-15,-5.2127e-15,0.84664,0.53216,-1,-5.2197e-15,-4.8798e-15,-9.9208e-15,-4.1848e-14,1,0,-1,-0,5.3856e-17,-2.2635e-16,-1,1.6067e-16,0.84664,-0.53216],

    "colors": [],

    "uvs": [[2982.1,3883.5,-8.5437e-11,2009.1,8.2408e-11,-8.957e-11,5964.1,-8.957e-11,5964.1,2009.1,-3.8931e-11,4591.4,-6.7928e-11,1069.2,8443.8,1069.2,8443.8,4591.4,0,0,3.058e-13,2009.1,-2982.1,3883.5,-5964.1,2009.1,-5964.1,1.5191e-25,8443.8,-3.5056e-24,8443.8,2009.1,-6.7928e-11,2009.1,0,5964.1,-8443.8,5964.1,-8443.8,0,-8443.8,1.35e-12,3.212e-13,1.35e-12,1.0041e-11,2009.1,-8443.8,2009.1,-8443.8,-458.11,-8443.8,-3980.3,1.1521e-11,-3980.3,1.0621e-11,-458.11]],

    "faces": [43,0,1,2,3,0,0,1,2,3,0,0,0,0,43,5,6,1,0,0,5,6,7,8,1,1,1,1,43,7,6,5,8,0,9,10,11,12,2,2,2,2,43,7,2,1,6,0,9,14,15,16,3,3,3,3,43,9,3,2,7,0,17,18,19,9,4,4,4,4,43,3,9,8,4,0,20,21,22,23,5,5,5,5,43,0,4,8,5,0,24,25,26,27,6,6,6,6]

}
