<?xml version="1.0" encoding="UTF-8" standalone="no" ?>
<COLLADA xmlns="http://www.collada.org/2005/11/COLLADASchema" version="1.4.1">
    <asset>
        <contributor>
            <authoring_tool>Google SketchUp 8.0.14345</authoring_tool>
        </contributor>
        <created>2013-11-10T05:28:06Z</created>
        <modified>2013-11-10T05:28:06Z</modified>
        <unit meter="0.0254000" name="inch" />
        <up_axis>Z_UP</up_axis>
    </asset>
    <library_visual_scenes>
        <visual_scene id="ID1">
            <node name="SketchUp">
                <node id="ID2" name="group_0">
                    <matrix>1.0000000 0.0000000 0.0000000 -6077.7307134 0.0000000 1.0000000 0.0000000 -3093.0850441 0.0000000 0.0000000 1.0000000 0.0000000 0.0000000 0.0000000 0.0000000 1.0000000</matrix>
                    <instance_geometry url="#ID3">
                        <bind_material>
                            <technique_common>
                                <instance_material symbol="Material2" target="#ID5">
                                    <bind_vertex_input semantic="UVSET0" input_semantic="TEXCOORD" input_set="0" />
                                </instance_material>
                            </technique_common>
                        </bind_material>
                    </instance_geometry>
                    <instance_geometry url="#ID11">
                        <bind_material>
                            <technique_common>
                                <instance_material symbol="Material2" target="#ID5">
                                    <bind_vertex_input semantic="UVSET0" input_semantic="TEXCOORD" input_set="0" />
                                </instance_material>
                            </technique_common>
                        </bind_material>
                    </instance_geometry>
                </node>
            </node>
        </visual_scene>
    </library_visual_scenes>
    <library_geometries>
        <geometry id="ID3">
            <mesh>
                <source id="ID6">
                    <float_array id="ID9" count="60">12153.7248399 241.9039417 4987.2311367 241.9039417 241.9039417 0.0000000 12153.7248399 241.9039417 0.0000000 241.9039417 241.9039417 4987.2311367 12153.7248399 5228.4290224 0.0000000 241.9039417 241.9039417 0.0000000 241.9039417 5228.4290224 0.0000000 12153.7248399 241.9039417 0.0000000 12153.7248399 5228.4290224 0.0000000 12153.7248399 241.9039417 4987.2311367 12153.7248399 241.9039417 0.0000000 12153.7248399 5228.4290224 4987.2311367 241.9039417 5228.4290224 4987.2311367 241.9039417 241.9039417 0.0000000 241.9039417 241.9039417 4987.2311367 241.9039417 5228.4290224 0.0000000 241.9039417 5228.4290224 4987.2311367 12153.7248399 5228.4290224 0.0000000 241.9039417 5228.4290224 0.0000000 12153.7248399 5228.4290224 4987.2311367</float_array>
                    <technique_common>
                        <accessor count="20" source="#ID9" stride="3">
                            <param name="X" type="float" />
                            <param name="Y" type="float" />
                            <param name="Z" type="float" />
                        </accessor>
                    </technique_common>
                </source>
                <source id="ID7">
                    <float_array id="ID10" count="60">-0.0000000 -1.0000000 -0.0000000 -0.0000000 -1.0000000 -0.0000000 -0.0000000 -1.0000000 -0.0000000 -0.0000000 -1.0000000 -0.0000000 0.0000000 0.0000000 -1.0000000 0.0000000 0.0000000 -1.0000000 0.0000000 0.0000000 -1.0000000 0.0000000 0.0000000 -1.0000000 1.0000000 0.0000000 0.0000000 1.0000000 0.0000000 0.0000000 1.0000000 0.0000000 0.0000000 1.0000000 0.0000000 0.0000000 -1.0000000 0.0000000 0.0000000 -1.0000000 0.0000000 0.0000000 -1.0000000 0.0000000 0.0000000 -1.0000000 0.0000000 0.0000000 0.0000000 1.0000000 0.0000000 0.0000000 1.0000000 0.0000000 0.0000000 1.0000000 0.0000000 0.0000000 1.0000000 0.0000000</float_array>
                    <technique_common>
                        <accessor count="20" source="#ID10" stride="3">
                            <param name="X" type="float" />
                            <param name="Y" type="float" />
                            <param name="Z" type="float" />
                        </accessor>
                    </technique_common>
                </source>
                <vertices id="ID8">
                    <input semantic="POSITION" source="#ID6" />
                    <input semantic="NORMAL" source="#ID7" />
                </vertices>
                <triangles count="10" material="Material2">
                    <input offset="0" semantic="VERTEX" source="#ID8" />
                    <p>0 1 2 1 0 3 4 5 6 5 4 7 8 9 10 9 8 11 12 13 14 13 12 15 16 17 18 17 16 19</p>
                </triangles>
            </mesh>
        </geometry>
        <geometry id="ID11">
            <mesh>
                <source id="ID12">
                    <float_array id="ID15" count="84">0.0000000 5470.3329641 4987.2311367 241.9039417 5228.4290224 4987.2311367 0.0000000 0.0000000 4987.2311367 12395.6287816 5470.3329641 4987.2311367 12153.7248399 5228.4290224 4987.2311367 12153.7248399 241.9039417 4987.2311367 241.9039417 241.9039417 4987.2311367 12395.6287816 0.0000000 4987.2311367 1353.9410980 4116.3918662 7748.0546516 12395.6287816 5470.3329641 4987.2311367 0.0000000 5470.3329641 4987.2311367 11041.6876837 4116.3918662 7748.0546516 12395.6287816 5470.3329641 4987.2311367 11041.6876837 1353.9410980 7748.0546516 12395.6287816 0.0000000 4987.2311367 11041.6876837 4116.3918662 7748.0546516 11041.6876837 1353.9410980 7748.0546516 0.0000000 0.0000000 4987.2311367 12395.6287816 0.0000000 4987.2311367 1353.9410980 1353.9410980 7748.0546516 1353.9410980 1353.9410980 7748.0546516 0.0000000 5470.3329641 4987.2311367 0.0000000 0.0000000 4987.2311367 1353.9410980 4116.3918662 7748.0546516 11041.6876837 1353.9410980 7748.0546516 1353.9410980 4116.3918662 7748.0546516 1353.9410980 1353.9410980 7748.0546516 11041.6876837 4116.3918662 7748.0546516</float_array>
                    <technique_common>
                        <accessor count="28" source="#ID15" stride="3">
                            <param name="X" type="float" />
                            <param name="Y" type="float" />
                            <param name="Z" type="float" />
                        </accessor>
                    </technique_common>
                </source>
                <source id="ID13">
                    <float_array id="ID16" count="84">-0.0000000 -0.0000000 -1.0000000 -0.0000000 -0.0000000 -1.0000000 -0.0000000 -0.0000000 -1.0000000 -0.0000000 -0.0000000 -1.0000000 -0.0000000 -0.0000000 -1.0000000 -0.0000000 -0.0000000 -1.0000000 -0.0000000 -0.0000000 -1.0000000 -0.0000000 -0.0000000 -1.0000000 0.0000000 0.8978441 0.4403135 0.0000000 0.8978441 0.4403135 0.0000000 0.8978441 0.4403135 0.0000000 0.8978441 0.4403135 0.8978441 0.0000000 0.4403135 0.8978441 0.0000000 0.4403135 0.8978441 0.0000000 0.4403135 0.8978441 0.0000000 0.4403135 0.0000000 -0.8978441 0.4403135 0.0000000 -0.8978441 0.4403135 0.0000000 -0.8978441 0.4403135 0.0000000 -0.8978441 0.4403135 -0.8978441 0.0000000 0.4403135 -0.8978441 0.0000000 0.4403135 -0.8978441 0.0000000 0.4403135 -0.8978441 0.0000000 0.4403135 0.0000000 0.0000000 1.0000000 0.0000000 0.0000000 1.0000000 0.0000000 0.0000000 1.0000000 0.0000000 0.0000000 1.0000000</float_array>
                    <technique_common>
                        <accessor count="28" source="#ID16" stride="3">
                            <param name="X" type="float" />
                            <param name="Y" type="float" />
                            <param name="Z" type="float" />
                        </accessor>
                    </technique_common>
                </source>
                <vertices id="ID14">
                    <input semantic="POSITION" source="#ID12" />
                    <input semantic="NORMAL" source="#ID13" />
                </vertices>
                <triangles count="18" material="Material2">
                    <input offset="0" semantic="VERTEX" source="#ID14" />
                    <p>0 1 2 1 0 3 1 3 4 4 3 5 2 6 7 6 2 1 7 6 5 7 5 3 8 9 10 9 8 11 12 13 14 13 12 15 16 17 18 17 16 19 20 21 22 21 20 23 24 25 26 25 24 27</p>
                </triangles>
            </mesh>
        </geometry>
    </library_geometries>
    <library_materials>
        <material id="ID5" name="material">
            <instance_effect url="#ID4" />
        </material>
    </library_materials>
    <library_effects>
        <effect id="ID4">
            <profile_COMMON>
                <technique sid="COMMON">
                    <lambert>
                        <diffuse>
                            <color>1.0000000 1.0000000 1.0000000 1.0000000</color>
                        </diffuse>
                    </lambert>
                </technique>
            </profile_COMMON>
        </effect>
    </library_effects>
    <scene>
        <instance_visual_scene url="#ID1" />
    </scene>
</COLLADA>
