<?xml version="1.0" encoding="UTF-8" standalone="no" ?>
<COLLADA xmlns="http://www.collada.org/2005/11/COLLADASchema" version="1.4.1">
    <asset>
        <contributor>
            <authoring_tool>Google SketchUp 8.0.14345</authoring_tool>
        </contributor>
        <created>2013-11-10T05:29:49Z</created>
        <modified>2013-11-10T05:29:49Z</modified>
        <unit meter="0.0254000" name="inch" />
        <up_axis>Z_UP</up_axis>
    </asset>
    <library_visual_scenes>
        <visual_scene id="ID1">
            <node name="SketchUp">
                <node id="ID2" name="group_0">
                    <matrix>1.0000000 0.0000000 0.0000000 -5241.6123315 0.0000000 1.0000000 0.0000000 -3569.2913386 0.0000000 0.0000000 1.0000000 0.0000000 0.0000000 0.0000000 0.0000000 1.0000000</matrix>
                    <instance_geometry url="#ID3">
                        <bind_material>
                            <technique_common>
                                <instance_material symbol="Material2" target="#ID5">
                                    <bind_vertex_input semantic="UVSET0" input_semantic="TEXCOORD" input_set="0" />
                                </instance_material>
                            </technique_common>
                        </bind_material>
                    </instance_geometry>
                    <instance_geometry url="#ID11">
                        <bind_material>
                            <technique_common>
                                <instance_material symbol="Material2" target="#ID12">
                                    <bind_vertex_input semantic="UVSET0" input_semantic="TEXCOORD" input_set="0" />
                                </instance_material>
                            </technique_common>
                        </bind_material>
                    </instance_geometry>
                    <instance_geometry url="#ID17">
                        <bind_material>
                            <technique_common>
                                <instance_material symbol="Material2" target="#ID12">
                                    <bind_vertex_input semantic="UVSET0" input_semantic="TEXCOORD" input_set="0" />
                                </instance_material>
                            </technique_common>
                        </bind_material>
                    </instance_geometry>
                </node>
            </node>
        </visual_scene>
    </library_visual_scenes>
    <library_geometries>
        <geometry id="ID3">
            <mesh>
                <source id="ID6">
                    <float_array id="ID9" count="2787">10640.7535670 3801.7411205 1497.8730464 0.0000000 3664.3484583 1554.7829504 0.0000000 3801.7411205 1497.8730464 10640.7535670 3664.3484583 1554.7829504 0.0000000 0.0000000 2009.0551181 0.0000000 3232.0748207 1497.8730464 0.0000000 0.0000000 0.0000000 0.0000000 3369.4674828 1554.7829504 0.0000000 3516.9079706 1574.1938589 0.0000000 6963.6988311 2009.0551181 0.0000000 70.1171100 0.0000000 0.0000000 70.1929380 0.0000000 0.0000000 3114.0930669 1407.3424627 0.0000000 3023.5624832 1289.3607090 0.0000000 2966.6525792 1151.9680468 0.0000000 2947.2416708 1004.5275591 0.0000000 3664.3484583 1554.7829504 0.0000000 3801.7411205 1497.8730464 0.0000000 3919.7228742 1407.3424627 0.0000000 4010.2534579 1289.3607090 0.0000000 4067.1633619 1151.9680468 0.0000000 4086.5742704 1004.5275591 0.0000000 4086.5742704 0.0000000 0.0000000 6963.6230031 0.0000000 0.0000000 6963.6988311 0.0000000 0.0000000 2947.2416708 0.0000000 10640.7535670 3919.7228742 1407.3424627 0.0000000 3919.7228742 1407.3424627 10640.7535670 6963.6230031 0.0000000 10640.7535670 4086.5742704 1004.5275591 10640.7535670 4086.5742704 0.0000000 10640.7535670 70.1171100 0.0000000 10640.7535670 0.0000000 2009.0551181 10640.7535670 0.0000000 0.0000000 10640.7535670 3232.0748207 1497.8730464 10640.7535670 3369.4674828 1554.7829504 10640.7535670 3516.9079706 1574.1938589 10640.7535670 6963.6988311 2009.0551181 10640.7535670 70.1929380 0.0000000 10640.7535670 3114.0930669 1407.3424627 10640.7535670 3023.5624832 1289.3607090 10640.7535670 2966.6525792 1151.9680468 10640.7535670 2947.2416708 1004.5275591 10640.7535670 2947.2416708 0.0000000 10640.7535670 3664.3484583 1554.7829504 10640.7535670 3801.7411205 1497.8730464 10640.7535670 3919.7228742 1407.3424627 10640.7535670 4010.2534579 1289.3607090 10640.7535670 4067.1633619 1151.9680468 10640.7535670 6963.6988311 0.0000000 0.0000000 3516.9079706 1574.1938589 10640.7535670 3516.9079706 1574.1938589 10640.7535670 4086.5742704 0.0000000 9566.5764470 4086.5742704 966.9291339 9566.5764470 4086.5742704 0.0000000 10640.7535670 4086.5742704 1004.5275591 7724.0743487 4086.5742704 966.9291339 7437.4425888 4086.5742704 966.9291339 5594.9404905 4086.5742704 966.9291339 5308.3087305 4086.5742704 966.9291339 3465.8066322 4086.5742704 966.9291339 3179.1748722 4086.5742704 966.9291339 1336.6727739 4086.5742704 966.9291339 0.0000000 4086.5742704 1004.5275591 0.0000000 4086.5742704 0.0000000 1336.6727739 4086.5742704 0.0000000 3179.1748722 4086.5742704 0.0000000 3465.8066322 4086.5742704 0.0000000 5308.3087305 4086.5742704 0.0000000 5594.9404905 4086.5742704 0.0000000 7437.4425888 4086.5742704 0.0000000 7724.0743487 4086.5742704 0.0000000 10640.7535670 4086.5742704 1004.5275591 0.0000000 4067.1633619 1151.9680468 0.0000000 4086.5742704 1004.5275591 10640.7535670 4067.1633619 1151.9680468 0.0000000 4010.2534579 1289.3607090 10640.7535670 4010.2534579 1289.3607090 0.0000000 3369.4674828 1554.7829504 10640.7535670 3369.4674828 1554.7829504 0.0000000 3232.0748207 1497.8730464 10640.7535670 3232.0748207 1497.8730464 0.0000000 3114.0930669 1407.3424627 10640.7535670 3114.0930669 1407.3424627 10640.7535670 3023.5624832 1289.3607090 0.0000000 3023.5624832 1289.3607090 10640.7535670 2966.6525792 1151.9680468 0.0000000 2966.6525792 1151.9680468 10640.7535670 2947.2416708 1004.5275591 0.0000000 2947.2416708 1004.5275591 0.0000000 2947.2416708 0.0000000 1336.6727739 2947.2416708 966.9291339 1336.6727739 2947.2416708 0.0000000 0.0000000 2947.2416708 1004.5275591 3179.1748722 2947.2416708 966.9291339 3465.8066322 2947.2416708 966.9291339 5308.3087305 2947.2416708 966.9291339 5594.9404905 2947.2416708 966.9291339 7437.4425888 2947.2416708 966.9291339 7724.0743487 2947.2416708 966.9291339 9566.5764470 2947.2416708 966.9291339 10640.7535670 2947.2416708 0.0000000 9566.5764470 2947.2416708 0.0000000 10640.7535670 2947.2416708 1004.5275591 7724.0743487 2947.2416708 0.0000000 7437.4425888 2947.2416708 0.0000000 5594.9404905 2947.2416708 0.0000000 5308.3087305 2947.2416708 0.0000000 3465.8066322 2947.2416708 0.0000000 3179.1748722 2947.2416708 0.0000000 0.0000000 2947.2416708 0.0000000 910.1362934 2406.6349337 0.0000000 0.0000000 70.1929380 0.0000000 1336.6727739 2947.2416708 0.0000000 910.1362934 2406.5591057 0.0000000 1336.6727739 2947.1658428 0.0000000 1336.6727739 2406.6349337 0.0000000 910.1362934 684.9902215 0.0000000 910.1362934 684.9143935 0.0000000 9566.5764470 2947.2416708 0.0000000 9566.5764470 2406.6349337 0.0000000 9566.5764470 2947.1658428 0.0000000 10640.7535670 2947.2416708 0.0000000 10090.7017958 2406.6349337 0.0000000 10090.7017958 684.9902215 0.0000000 10640.7535670 70.1929380 0.0000000 10090.7017958 684.9143935 0.0000000 10090.7017958 2406.5591057 0.0000000 0.0000000 70.1929380 0.0000000 10640.7535670 70.1171100 0.0000000 0.0000000 70.1171100 0.0000000 10640.7535670 70.1929380 0.0000000 10640.7535670 70.1171100 0.0000000 0.0000000 0.0000000 0.0000000 0.0000000 70.1171100 0.0000000 10640.7535670 0.0000000 0.0000000 10640.7535670 0.0000000 0.0000000 0.0000000 0.0000000 2009.0551181 0.0000000 0.0000000 0.0000000 10640.7535670 0.0000000 2009.0551181 10640.7535670 0.0000000 2009.0551181 0.0000000 6963.6988311 2009.0551181 0.0000000 0.0000000 2009.0551181 10640.7535670 6963.6988311 2009.0551181 0.0000000 6963.6988311 2009.0551181 10640.7535670 6963.6988311 0.0000000 0.0000000 6963.6988311 0.0000000 10640.7535670 6963.6988311 2009.0551181 10640.7535670 6963.6988311 0.0000000 0.0000000 6963.6230031 0.0000000 0.0000000 6963.6988311 0.0000000 10640.7535670 6963.6230031 0.0000000 910.1362934 6348.8257196 0.0000000 910.1362934 4627.2568354 0.0000000 910.1362934 6348.9015476 0.0000000 1336.6727739 4627.1810075 0.0000000 1336.6727739 4086.6500983 0.0000000 910.1362934 4627.1810075 0.0000000 0.0000000 4086.5742704 0.0000000 1336.6727739 4086.5742704 0.0000000 0.0000000 6963.6230031 0.0000000 10640.7535670 6963.6230031 0.0000000 10090.7017958 6348.9015476 0.0000000 10090.7017958 6348.8257196 0.0000000 10090.7017958 4627.1810075 0.0000000 10640.7535670 4086.5742704 0.0000000 9566.5764470 4627.1810075 0.0000000 9566.5764470 4086.5742704 0.0000000 9566.5764470 4086.6500983 0.0000000 10090.7017958 4627.2568354 0.0000000 5594.9404905 4627.1810075 966.9291339 5594.9404905 4086.5742704 966.9291339 5594.9404905 4086.6500983 966.9291339 7437.4425888 4627.1810075 966.9291339 7437.4425888 4086.6500983 966.9291339 7437.4425888 4086.5742704 966.9291339 7437.4425888 4086.6500983 0.0000000 7437.4425888 4086.5742704 966.9291339 7437.4425888 4086.5742704 0.0000000 7437.4425888 4086.6500983 966.9291339 7724.0743487 4086.6500983 0.0000000 7437.4425888 4086.5742704 0.0000000 7437.4425888 4086.6500983 0.0000000 7724.0743487 4086.5742704 0.0000000 7724.0743487 4086.6500983 966.9291339 7724.0743487 4086.5742704 0.0000000 7724.0743487 4086.5742704 966.9291339 7724.0743487 4086.6500983 0.0000000 7724.0743487 4627.1810075 966.9291339 7724.0743487 4086.5742704 966.9291339 7724.0743487 4086.6500983 966.9291339 9566.5764470 4627.1810075 966.9291339 9566.5764470 4086.6500983 966.9291339 9566.5764470 4086.5742704 966.9291339 9566.5764470 4086.6500983 0.0000000 9566.5764470 4086.5742704 966.9291339 9566.5764470 4086.5742704 0.0000000 9566.5764470 4086.6500983 966.9291339 1336.6727739 4086.6500983 966.9291339 1336.6727739 4086.5742704 0.0000000 1336.6727739 4086.5742704 966.9291339 1336.6727739 4086.6500983 0.0000000 1336.6727739 4627.1810075 966.9291339 1336.6727739 4086.5742704 966.9291339 1336.6727739 4086.6500983 966.9291339 3179.1748722 4627.1810075 966.9291339 3179.1748722 4086.6500983 966.9291339 3179.1748722 4086.5742704 966.9291339 3179.1748722 4086.6500983 0.0000000 3179.1748722 4086.5742704 966.9291339 3179.1748722 4086.5742704 0.0000000 3179.1748722 4086.6500983 966.9291339 3465.8066322 4086.6500983 0.0000000 3179.1748722 4086.5742704 0.0000000 3179.1748722 4086.6500983 0.0000000 3465.8066322 4086.5742704 0.0000000 3465.8066322 4086.6500983 966.9291339 3465.8066322 4086.5742704 0.0000000 3465.8066322 4086.5742704 966.9291339 3465.8066322 4086.6500983 0.0000000 3465.8066322 4627.1810075 966.9291339 3465.8066322 4086.5742704 966.9291339 3465.8066322 4086.6500983 966.9291339 5308.3087305 4627.1810075 966.9291339 5308.3087305 4086.6500983 966.9291339 5308.3087305 4086.5742704 966.9291339 5308.3087305 4086.6500983 0.0000000 5308.3087305 4086.5742704 966.9291339 5308.3087305 4086.5742704 0.0000000 5308.3087305 4086.6500983 966.9291339 5594.9404905 4086.6500983 0.0000000 5308.3087305 4086.5742704 0.0000000 5308.3087305 4086.6500983 0.0000000 5594.9404905 4086.5742704 0.0000000 5594.9404905 4086.6500983 966.9291339 5594.9404905 4086.5742704 0.0000000 5594.9404905 4086.5742704 966.9291339 5594.9404905 4086.6500983 0.0000000 3179.1748722 2947.2416708 0.0000000 3179.1748722 2947.1658428 966.9291339 3179.1748722 2947.1658428 0.0000000 3179.1748722 2947.2416708 966.9291339 1336.6727739 2947.2416708 966.9291339 1336.6727739 2406.6349337 966.9291339 1336.6727739 2947.1658428 966.9291339 3179.1748722 2947.2416708 966.9291339 3179.1748722 2947.1658428 966.9291339 3179.1748722 2406.6349337 966.9291339 1336.6727739 2947.2416708 966.9291339 1336.6727739 2947.1658428 0.0000000 1336.6727739 2947.1658428 966.9291339 1336.6727739 2947.2416708 0.0000000 9566.5764470 2947.2416708 0.0000000 9566.5764470 2947.1658428 966.9291339 9566.5764470 2947.1658428 0.0000000 9566.5764470 2947.2416708 966.9291339 7724.0743487 2947.2416708 966.9291339 7724.0743487 2406.6349337 966.9291339 7724.0743487 2947.1658428 966.9291339 9566.5764470 2947.2416708 966.9291339 9566.5764470 2947.1658428 966.9291339 9566.5764470 2406.6349337 966.9291339 7724.0743487 2947.2416708 966.9291339 7724.0743487 2947.1658428 0.0000000 7724.0743487 2947.1658428 966.9291339 7724.0743487 2947.2416708 0.0000000 7437.4425888 2947.2416708 0.0000000 7724.0743487 2947.1658428 0.0000000 7437.4425888 2947.1658428 0.0000000 7724.0743487 2947.2416708 0.0000000 7437.4425888 2947.2416708 0.0000000 7437.4425888 2947.1658428 966.9291339 7437.4425888 2947.1658428 0.0000000 7437.4425888 2947.2416708 966.9291339 5594.9404905 2947.2416708 966.9291339 5594.9404905 2406.6349337 966.9291339 5594.9404905 2947.1658428 966.9291339 7437.4425888 2947.2416708 966.9291339 7437.4425888 2947.1658428 966.9291339 7437.4425888 2406.6349337 966.9291339 5594.9404905 2947.2416708 966.9291339 5594.9404905 2947.1658428 0.0000000 5594.9404905 2947.1658428 966.9291339 5594.9404905 2947.2416708 0.0000000 5308.3087305 2947.2416708 0.0000000 5594.9404905 2947.1658428 0.0000000 5308.3087305 2947.1658428 0.0000000 5594.9404905 2947.2416708 0.0000000 5308.3087305 2947.2416708 0.0000000 5308.3087305 2947.1658428 966.9291339 5308.3087305 2947.1658428 0.0000000 5308.3087305 2947.2416708 966.9291339 3465.8066322 2947.2416708 966.9291339 3465.8066322 2406.6349337 966.9291339 3465.8066322 2947.1658428 966.9291339 5308.3087305 2947.2416708 966.9291339 5308.3087305 2947.1658428 966.9291339 5308.3087305 2406.6349337 966.9291339 3465.8066322 2947.2416708 966.9291339 3465.8066322 2947.1658428 0.0000000 3465.8066322 2947.1658428 966.9291339 3465.8066322 2947.2416708 0.0000000 3179.1748722 2947.2416708 0.0000000 3465.8066322 2947.1658428 0.0000000 3179.1748722 2947.1658428 0.0000000 3465.8066322 2947.2416708 0.0000000 1336.6727739 2947.1658428 0.0000000 1336.6727739 2406.6349337 966.9291339 1336.6727739 2406.6349337 0.0000000 1336.6727739 2947.1658428 966.9291339 910.1362934 2406.6349337 0.0000000 1336.6727739 2406.6349337 966.9291339 1336.6727739 2406.6349337 0.0000000 910.1362934 2406.6349337 966.9291339 910.1362934 2406.6349337 0.0000000 1336.6727739 2406.5591057 0.0000000 910.1362934 2406.5591057 0.0000000 1336.6727739 2406.6349337 0.0000000 910.1362934 2406.6349337 966.9291339 910.1362934 2406.5591057 0.0000000 910.1362934 2406.5591057 966.9291339 910.1362934 2406.6349337 0.0000000 910.1362934 2406.5591057 0.0000000 910.1362934 684.9902215 966.9291339 910.1362934 684.9902215 0.0000000 910.1362934 761.5133489 1140.3357911 910.1362934 872.5094438 1293.9766865 910.1362934 1013.0998009 1421.0987118 910.1362934 1177.1049333 1516.1143650 910.1362934 1357.3161847 1574.8473428 910.1362934 1545.7746636 1594.7121085 910.1362934 1734.2331424 1574.8473428 910.1362934 1914.4443939 1516.1143650 910.1362934 2078.4495263 1421.0987118 910.1362934 2219.0398834 1293.9766865 910.1362934 2330.0359783 1140.3357911 910.1362934 2406.5591057 966.9291339 910.1362934 684.9902215 966.9291339 910.1362934 684.9143935 0.0000000 910.1362934 684.9143935 966.9291339 910.1362934 684.9902215 0.0000000 10090.7017958 684.9143935 0.0000000 910.1362934 684.9143935 966.9291339 910.1362934 684.9143935 0.0000000 10090.7017958 684.9143935 966.9291339 10090.7017958 684.9902215 0.0000000 10090.7017958 684.9143935 966.9291339 10090.7017958 684.9143935 0.0000000 10090.7017958 684.9902215 966.9291339 10090.7017958 761.4375209 1140.3357911 10090.7017958 761.5133489 1140.3357911 10090.7017958 872.4336158 1293.9766865 10090.7017958 872.5094438 1293.9766865 10090.7017958 1013.0239729 1421.0987118 10090.7017958 1013.0998009 1421.0987118 10090.7017958 1177.0291054 1516.1143650 10090.7017958 1177.1049333 1516.1143650 10090.7017958 1357.2403568 1574.8473428 10090.7017958 1357.3161847 1574.8473428 10090.7017958 1545.7367496 1594.7161049 10090.7017958 1545.7746636 1594.7121085 10090.7017958 761.5133489 1140.3357911 10090.7017958 684.9902215 0.0000000 10090.7017958 684.9902215 966.9291339 10090.7017958 2406.5591057 0.0000000 10090.7017958 872.5094438 1293.9766865 10090.7017958 1013.0998009 1421.0987118 10090.7017958 1177.1049333 1516.1143650 10090.7017958 1357.3161847 1574.8473428 10090.7017958 1545.7746636 1594.7121085 10090.7017958 1734.2331424 1574.8473428 10090.7017958 1914.4443939 1516.1143650 10090.7017958 2078.4495263 1421.0987118 10090.7017958 2219.0398834 1293.9766865 10090.7017958 2330.0359783 1140.3357911 10090.7017958 2406.5591057 966.9291339 10090.7017958 2406.6349337 0.0000000 10090.7017958 2406.5591057 966.9291339 10090.7017958 2406.5591057 0.0000000 10090.7017958 1734.2331424 1574.8473428 10090.7017958 1545.8125776 1594.7161049 10090.7017958 1545.7746636 1594.7121085 10090.7017958 1734.3089704 1574.8473428 10090.7017958 1914.4443939 1516.1143650 10090.7017958 1914.5202218 1516.1143650 10090.7017958 2078.4495263 1421.0987118 10090.7017958 2078.5253542 1421.0987118 10090.7017958 2219.0398834 1293.9766865 10090.7017958 2219.1157113 1293.9766865 10090.7017958 2330.0359783 1140.3357911 10090.7017958 2330.1118062 1140.3357911 10090.7017958 2406.6349337 966.9291339 9566.5764470 2406.6349337 0.0000000 10090.7017958 2406.5591057 0.0000000 9566.5764470 2406.5591057 0.0000000 10090.7017958 2406.6349337 0.0000000 9566.5764470 2406.6349337 966.9291339 10090.7017958 2406.6349337 0.0000000 9566.5764470 2406.6349337 0.0000000 9915.8274978 2406.6349337 966.9291339 10090.7017958 2406.6349337 966.9291339 9566.5764470 2947.1658428 966.9291339 9566.5764470 2406.6349337 0.0000000 9566.5764470 2406.6349337 966.9291339 9566.5764470 2947.1658428 0.0000000 910.1362934 6348.8257196 0.0000000 910.1362934 4627.2568354 966.9291339 910.1362934 4627.2568354 0.0000000 910.1362934 4703.7799628 1140.3357911 910.1362934 4814.7760577 1293.9766865 910.1362934 4955.3664148 1421.0987118 910.1362934 5119.3715473 1516.1143650 910.1362934 5299.5827987 1574.8473428 910.1362934 5488.0412775 1594.7121085 910.1362934 5676.4997564 1574.8473428 910.1362934 5856.7110078 1516.1143650 910.1362934 6020.7161402 1421.0987118 910.1362934 6161.3064973 1293.9766865 910.1362934 6272.3025922 1140.3357911 910.1362934 6348.8257196 966.9291339 910.1362934 4627.2568354 966.9291339 910.1362934 4627.1810075 0.0000000 910.1362934 4627.1810075 966.9291339 910.1362934 4627.2568354 0.0000000 1336.6727739 4627.2568354 0.0000000 910.1362934 4627.1810075 0.0000000 910.1362934 4627.2568354 0.0000000 1336.6727739 4627.1810075 0.0000000 1336.6727739 4627.1810075 966.9291339 910.1362934 4627.1810075 0.0000000 1336.6727739 4627.1810075 0.0000000 910.1362934 4627.1810075 966.9291339 1336.6727739 4627.1810075 0.0000000 1336.6727739 4086.6500983 966.9291339 1336.6727739 4086.6500983 0.0000000 1336.6727739 4627.1810075 966.9291339 9566.5764470 4627.1810075 966.9291339 9566.5764470 4086.6500983 0.0000000 9566.5764470 4086.6500983 966.9291339 9566.5764470 4627.1810075 0.0000000 10090.7017958 4627.2568354 0.0000000 9566.5764470 4627.1810075 0.0000000 9566.5764470 4627.2568354 0.0000000 10090.7017958 4627.1810075 0.0000000 10090.7017958 4627.1810075 966.9291339 9915.8274978 4627.1810075 966.9291339 10090.7017958 4627.1810075 0.0000000 9566.5764470 4627.1810075 966.9291339 9566.5764470 4627.1810075 0.0000000 10090.7017958 4627.2568354 0.0000000 10090.7017958 4627.1810075 966.9291339 10090.7017958 4627.1810075 0.0000000 10090.7017958 4627.2568354 966.9291339 10090.7017958 4703.7041349 1140.3357911 10090.7017958 4703.7799628 1140.3357911 10090.7017958 4814.7002298 1293.9766865 10090.7017958 4814.7760577 1293.9766865 10090.7017958 4955.2905869 1421.0987118 10090.7017958 4955.3664148 1421.0987118 10090.7017958 5119.2957193 1516.1143650 10090.7017958 5119.3715473 1516.1143650 10090.7017958 5299.5069707 1574.8473428 10090.7017958 5299.5827987 1574.8473428 10090.7017958 5488.0033635 1594.7161049 10090.7017958 5488.0412775 1594.7121085 10090.7017958 4703.7799628 1140.3357911 10090.7017958 4627.2568354 0.0000000 10090.7017958 4627.2568354 966.9291339 10090.7017958 6348.8257196 0.0000000 10090.7017958 4814.7760577 1293.9766865 10090.7017958 4955.3664148 1421.0987118 10090.7017958 5119.3715473 1516.1143650 10090.7017958 5299.5827987 1574.8473428 10090.7017958 5488.0412775 1594.7121085 10090.7017958 5676.4997564 1574.8473428 10090.7017958 5856.7110078 1516.1143650 10090.7017958 6020.7161402 1421.0987118 10090.7017958 6161.3064973 1293.9766865 10090.7017958 6272.3025922 1140.3357911 10090.7017958 6348.8257196 966.9291339 10090.7017958 6348.9015476 0.0000000 10090.7017958 6348.8257196 966.9291339 10090.7017958 6348.8257196 0.0000000 10090.7017958 5676.4997564 1574.8473428 10090.7017958 5488.0791915 1594.7161049 10090.7017958 5488.0412775 1594.7121085 10090.7017958 5676.5755843 1574.8473428 10090.7017958 5856.7110078 1516.1143650 10090.7017958 5856.7868358 1516.1143650 10090.7017958 6020.7161402 1421.0987118 10090.7017958 6020.7919682 1421.0987118 10090.7017958 6161.3064973 1293.9766865 10090.7017958 6161.3823253 1293.9766865 10090.7017958 6272.3025922 1140.3357911 10090.7017958 6272.3784202 1140.3357911 10090.7017958 6348.9015476 966.9291339 10090.7017958 6348.9015476 0.0000000 910.1362934 6348.8257196 0.0000000 910.1362934 6348.9015476 0.0000000 10090.7017958 6348.8257196 0.0000000 910.1362934 6348.9015476 966.9291339 10090.7017958 6348.9015476 0.0000000 910.1362934 6348.9015476 0.0000000 10090.7017958 6348.9015476 966.9291339 910.1362934 6348.9015476 966.9291339 910.1362934 6348.8257196 0.0000000 910.1362934 6348.8257196 966.9291339 910.1362934 6348.9015476 0.0000000 5594.9404905 4627.1810075 0.0000000 5594.9404905 4086.6500983 966.9291339 5594.9404905 4086.6500983 0.0000000 5594.9404905 4627.1810075 966.9291339 10090.7017958 4627.1810075 966.9291339 9566.5764470 4627.1810075 966.9291339 9915.8274978 4627.1810075 966.9291339 10090.7017958 4703.7041349 1140.3357911 7724.0743487 4627.1810075 966.9291339 7437.4425888 4627.1810075 966.9291339 5594.9404905 4627.1810075 966.9291339 5308.3087305 4627.1810075 966.9291339 3465.8066322 4627.1810075 966.9291339 3179.1748722 4627.1810075 966.9291339 1336.6727739 4627.1810075 966.9291339 910.1362934 4627.1810075 966.9291339 910.1362934 4703.7041349 1140.3357911 7437.4425888 4627.1810075 966.9291339 7437.4425888 4086.6500983 0.0000000 7437.4425888 4086.6500983 966.9291339 7437.4425888 4627.1810075 0.0000000 7437.4425888 4627.1810075 0.0000000 7724.0743487 4086.6500983 0.0000000 7437.4425888 4086.6500983 0.0000000 7724.0743487 4627.1810075 0.0000000 7724.0743487 4627.1810075 0.0000000 7724.0743487 4086.6500983 966.9291339 7724.0743487 4086.6500983 0.0000000 7724.0743487 4627.1810075 966.9291339 3179.1748722 4627.1810075 966.9291339 3179.1748722 4086.6500983 0.0000000 3179.1748722 4086.6500983 966.9291339 3179.1748722 4627.1810075 0.0000000 3179.1748722 4627.1810075 0.0000000 3465.8066322 4086.6500983 0.0000000 3179.1748722 4086.6500983 0.0000000 3465.8066322 4627.1810075 0.0000000 3465.8066322 4627.1810075 0.0000000 3465.8066322 4086.6500983 966.9291339 3465.8066322 4086.6500983 0.0000000 3465.8066322 4627.1810075 966.9291339 5308.3087305 4627.1810075 966.9291339 5308.3087305 4086.6500983 0.0000000 5308.3087305 4086.6500983 966.9291339 5308.3087305 4627.1810075 0.0000000 5308.3087305 4627.1810075 0.0000000 5594.9404905 4086.6500983 0.0000000 5308.3087305 4086.6500983 0.0000000 5594.9404905 4627.1810075 0.0000000 3179.1748722 2947.1658428 966.9291339 3179.1748722 2406.6349337 0.0000000 3179.1748722 2406.6349337 966.9291339 3179.1748722 2947.1658428 0.0000000 7724.0743487 2947.1658428 0.0000000 7724.0743487 2406.6349337 966.9291339 7724.0743487 2406.6349337 0.0000000 7724.0743487 2947.1658428 966.9291339 7724.0743487 2947.1658428 0.0000000 7437.4425888 2406.6349337 0.0000000 7437.4425888 2947.1658428 0.0000000 7724.0743487 2406.6349337 0.0000000 7437.4425888 2947.1658428 966.9291339 7437.4425888 2406.6349337 0.0000000 7437.4425888 2406.6349337 966.9291339 7437.4425888 2947.1658428 0.0000000 5594.9404905 2947.1658428 0.0000000 5594.9404905 2406.6349337 966.9291339 5594.9404905 2406.6349337 0.0000000 5594.9404905 2947.1658428 966.9291339 5594.9404905 2947.1658428 0.0000000 5308.3087305 2406.6349337 0.0000000 5308.3087305 2947.1658428 0.0000000 5594.9404905 2406.6349337 0.0000000 5308.3087305 2947.1658428 966.9291339 5308.3087305 2406.6349337 0.0000000 5308.3087305 2406.6349337 966.9291339 5308.3087305 2947.1658428 0.0000000 3465.8066322 2947.1658428 0.0000000 3465.8066322 2406.6349337 966.9291339 3465.8066322 2406.6349337 0.0000000 3465.8066322 2947.1658428 966.9291339 3465.8066322 2947.1658428 0.0000000 3179.1748722 2406.6349337 0.0000000 3179.1748722 2947.1658428 0.0000000 3465.8066322 2406.6349337 0.0000000 1336.6727739 2406.6349337 966.9291339 1336.6727739 2406.5591057 0.0000000 1336.6727739 2406.5591057 966.9291339 1336.6727739 2406.6349337 0.0000000 1336.6727739 2406.5591057 966.9291339 910.1362934 2406.5591057 0.0000000 1336.6727739 2406.5591057 0.0000000 910.1362934 2406.5591057 966.9291339 910.1362934 1545.8125776 1594.7161049 910.1362934 1734.2331424 1574.8473428 910.1362934 1545.7746636 1594.7121085 910.1362934 1734.3089704 1574.8473428 910.1362934 1914.4443939 1516.1143650 910.1362934 1914.5202218 1516.1143650 910.1362934 2078.4495263 1421.0987118 910.1362934 2078.5253542 1421.0987118 910.1362934 2219.0398834 1293.9766865 910.1362934 2219.1157113 1293.9766865 910.1362934 2330.0359783 1140.3357911 910.1362934 2330.1118062 1140.3357911 910.1362934 2406.5591057 966.9291339 910.1362934 2406.6349337 966.9291339 10090.7017958 2406.5591057 966.9291339 9566.5764470 2406.5591057 966.9291339 9915.8274978 2406.5591057 966.9291339 10090.7017958 2330.0359783 1140.3357911 7724.0743487 2406.5591057 966.9291339 7437.4425888 2406.5591057 966.9291339 5594.9404905 2406.5591057 966.9291339 5308.3087305 2406.5591057 966.9291339 3465.8066322 2406.5591057 966.9291339 3179.1748722 2406.5591057 966.9291339 1336.6727739 2406.5591057 966.9291339 910.1362934 2406.5591057 966.9291339 910.1362934 2330.0359783 1140.3357911 10090.7017958 2219.0398834 1293.9766865 910.1362934 2219.0398834 1293.9766865 910.1362934 2078.4495263 1421.0987118 10090.7017958 2078.4495263 1421.0987118 910.1362934 1914.4443939 1516.1143650 10090.7017958 1914.4443939 1516.1143650 910.1362934 1734.2331424 1574.8473428 10090.7017958 1734.2331424 1574.8473428 910.1362934 761.4375209 1140.3357911 910.1362934 684.9902215 966.9291339 910.1362934 684.9143935 966.9291339 910.1362934 761.5133489 1140.3357911 910.1362934 872.4336158 1293.9766865 910.1362934 872.5094438 1293.9766865 910.1362934 1013.0239729 1421.0987118 910.1362934 1013.0998009 1421.0987118 910.1362934 1177.0291054 1516.1143650 910.1362934 1177.1049333 1516.1143650 910.1362934 1357.2403568 1574.8473428 910.1362934 1357.3161847 1574.8473428 910.1362934 1545.7367496 1594.7161049 910.1362934 1545.7746636 1594.7121085 910.1362934 684.9902215 966.9291339 10090.7017958 684.9902215 0.0000000 910.1362934 684.9902215 0.0000000 10090.7017958 684.9902215 966.9291339 910.1362934 761.4375209 1140.3357911 10090.7017958 684.9143935 966.9291339 910.1362934 684.9143935 966.9291339 10090.7017958 761.4375209 1140.3357911 10090.7017958 1545.7367496 1594.7161049 910.1362934 1357.2403568 1574.8473428 910.1362934 1545.7367496 1594.7161049 10090.7017958 1357.2403568 1574.8473428 910.1362934 1177.0291054 1516.1143650 10090.7017958 1177.0291054 1516.1143650 910.1362934 1013.0239729 1421.0987118 10090.7017958 1013.0239729 1421.0987118 910.1362934 872.4336158 1293.9766865 10090.7017958 872.4336158 1293.9766865 10090.7017958 2406.5591057 966.9291339 9915.8274978 2406.5591057 966.9291339 10090.7017958 2406.5591057 0.0000000 9566.5764470 2406.5591057 966.9291339 9566.5764470 2406.5591057 0.0000000 9566.5764470 2406.6349337 0.0000000 9566.5764470 2406.5591057 966.9291339 9566.5764470 2406.5591057 0.0000000 9566.5764470 2406.6349337 966.9291339 10090.7017958 6272.3025922 1140.3357911 910.1362934 6348.8257196 966.9291339 10090.7017958 6348.8257196 966.9291339 910.1362934 6272.3025922 1140.3357911 910.1362934 5488.0791915 1594.7161049 910.1362934 5676.4997564 1574.8473428 910.1362934 5488.0412775 1594.7121085 910.1362934 5676.5755843 1574.8473428 910.1362934 5856.7110078 1516.1143650 910.1362934 5856.7868358 1516.1143650 910.1362934 6020.7161402 1421.0987118 910.1362934 6020.7919682 1421.0987118 910.1362934 6161.3064973 1293.9766865 910.1362934 6161.3823253 1293.9766865 910.1362934 6272.3025922 1140.3357911 910.1362934 6272.3784202 1140.3357911 910.1362934 6348.8257196 966.9291339 910.1362934 6348.9015476 966.9291339 10090.7017958 6161.3064973 1293.9766865 910.1362934 6161.3064973 1293.9766865 910.1362934 6020.7161402 1421.0987118 10090.7017958 6020.7161402 1421.0987118 910.1362934 5856.7110078 1516.1143650 10090.7017958 5856.7110078 1516.1143650 910.1362934 5676.4997564 1574.8473428 10090.7017958 5676.4997564 1574.8473428 910.1362934 4703.7041349 1140.3357911 910.1362934 4627.2568354 966.9291339 910.1362934 4627.1810075 966.9291339 910.1362934 4703.7799628 1140.3357911 910.1362934 4814.7002298 1293.9766865 910.1362934 4814.7760577 1293.9766865 910.1362934 4955.2905869 1421.0987118 910.1362934 4955.3664148 1421.0987118 910.1362934 5119.2957193 1516.1143650 910.1362934 5119.3715473 1516.1143650 910.1362934 5299.5069707 1574.8473428 910.1362934 5299.5827987 1574.8473428 910.1362934 5488.0033635 1594.7161049 910.1362934 5488.0412775 1594.7121085 10090.7017958 5488.0791915 1594.7161049 910.1362934 5488.0412775 1594.7121085 910.1362934 5488.0791915 1594.7161049 10090.7017958 5299.5827987 1574.8473428 910.1362934 5299.5827987 1574.8473428 10090.7017958 5488.0412775 1594.7121085 910.1362934 5119.3715473 1516.1143650 10090.7017958 5119.3715473 1516.1143650 910.1362934 4955.3664148 1421.0987118 10090.7017958 4955.3664148 1421.0987118 910.1362934 4814.7760577 1293.9766865 10090.7017958 4814.7760577 1293.9766865 10090.7017958 4703.7799628 1140.3357911 910.1362934 4703.7799628 1140.3357911 1336.6727739 4627.2568354 966.9291339 910.1362934 4627.2568354 966.9291339 3179.1748722 4627.2568354 966.9291339 3465.8066322 4627.2568354 966.9291339 5308.3087305 4627.2568354 966.9291339 5594.9404905 4627.2568354 966.9291339 7437.4425888 4627.2568354 966.9291339 7724.0743487 4627.2568354 966.9291339 9566.5764470 4627.2568354 966.9291339 10090.7017958 4627.2568354 966.9291339 9915.8274978 4627.2568354 966.9291339 910.1362934 4627.2568354 0.0000000 1336.6727739 4627.2568354 966.9291339 1336.6727739 4627.2568354 0.0000000 910.1362934 4627.2568354 966.9291339 10090.7017958 6348.8257196 0.0000000 910.1362934 6348.8257196 966.9291339 910.1362934 6348.8257196 0.0000000 10090.7017958 6348.8257196 966.9291339 1336.6727739 4627.2568354 966.9291339 1336.6727739 4627.1810075 0.0000000 1336.6727739 4627.1810075 966.9291339 1336.6727739 4627.2568354 0.0000000 9566.5764470 4627.2568354 0.0000000 9566.5764470 4627.1810075 966.9291339 9566.5764470 4627.1810075 0.0000000 9566.5764470 4627.2568354 966.9291339 9566.5764470 4627.2568354 966.9291339 10090.7017958 4627.2568354 0.0000000 9566.5764470 4627.2568354 0.0000000 9915.8274978 4627.2568354 966.9291339 10090.7017958 4627.2568354 966.9291339 10090.7017958 5299.5069707 1574.8473428 910.1362934 5488.0033635 1594.7161049 910.1362934 5299.5069707 1574.8473428 10090.7017958 5488.0033635 1594.7161049 10090.7017958 5119.2957193 1516.1143650 910.1362934 5119.2957193 1516.1143650 10090.7017958 4955.2905869 1421.0987118 910.1362934 4955.2905869 1421.0987118 10090.7017958 4814.7002298 1293.9766865 910.1362934 4814.7002298 1293.9766865 10090.7017958 6272.3784202 1140.3357911 910.1362934 6348.9015476 966.9291339 10090.7017958 6348.9015476 966.9291339 910.1362934 6272.3784202 1140.3357911 10090.7017958 6161.3823253 1293.9766865 910.1362934 6161.3823253 1293.9766865 910.1362934 6020.7919682 1421.0987118 10090.7017958 6020.7919682 1421.0987118 910.1362934 5856.7868358 1516.1143650 10090.7017958 5856.7868358 1516.1143650 910.1362934 5676.5755843 1574.8473428 10090.7017958 5676.5755843 1574.8473428 5594.9404905 4627.1810075 966.9291339 5308.3087305 4627.1810075 0.0000000 5594.9404905 4627.1810075 0.0000000 5308.3087305 4627.1810075 966.9291339 5594.9404905 4627.2568354 966.9291339 5594.9404905 4627.1810075 0.0000000 5594.9404905 4627.1810075 966.9291339 5594.9404905 4627.2568354 0.0000000 3465.8066322 4627.1810075 966.9291339 3179.1748722 4627.1810075 0.0000000 3465.8066322 4627.1810075 0.0000000 3179.1748722 4627.1810075 966.9291339 3179.1748722 4627.1810075 966.9291339 3465.8066322 4627.2568354 966.9291339 3179.1748722 4627.2568354 966.9291339 3465.8066322 4627.1810075 966.9291339 5308.3087305 4627.1810075 966.9291339 5594.9404905 4627.2568354 966.9291339 5308.3087305 4627.2568354 966.9291339 5594.9404905 4627.1810075 966.9291339 7724.0743487 4627.1810075 966.9291339 7437.4425888 4627.1810075 0.0000000 7724.0743487 4627.1810075 0.0000000 7437.4425888 4627.1810075 966.9291339 7437.4425888 4627.1810075 966.9291339 7724.0743487 4627.2568354 966.9291339 7437.4425888 4627.2568354 966.9291339 7724.0743487 4627.1810075 966.9291339 7437.4425888 4627.2568354 0.0000000 7437.4425888 4627.1810075 966.9291339 7437.4425888 4627.1810075 0.0000000 7437.4425888 4627.2568354 966.9291339 7724.0743487 4627.2568354 0.0000000 7437.4425888 4627.1810075 0.0000000 7437.4425888 4627.2568354 0.0000000 7724.0743487 4627.1810075 0.0000000 7724.0743487 4627.2568354 966.9291339 7724.0743487 4627.1810075 0.0000000 7724.0743487 4627.1810075 966.9291339 7724.0743487 4627.2568354 0.0000000 3179.1748722 4627.2568354 0.0000000 3179.1748722 4627.1810075 966.9291339 3179.1748722 4627.1810075 0.0000000 3179.1748722 4627.2568354 966.9291339 3465.8066322 4627.2568354 0.0000000 3179.1748722 4627.1810075 0.0000000 3179.1748722 4627.2568354 0.0000000 3465.8066322 4627.1810075 0.0000000 3465.8066322 4627.2568354 966.9291339 3465.8066322 4627.1810075 0.0000000 3465.8066322 4627.1810075 966.9291339 3465.8066322 4627.2568354 0.0000000 5308.3087305 4627.2568354 0.0000000 5308.3087305 4627.1810075 966.9291339 5308.3087305 4627.1810075 0.0000000 5308.3087305 4627.2568354 966.9291339 5594.9404905 4627.2568354 0.0000000 5308.3087305 4627.1810075 0.0000000 5308.3087305 4627.2568354 0.0000000 5594.9404905 4627.1810075 0.0000000 3179.1748722 2406.6349337 0.0000000 3465.8066322 2406.6349337 966.9291339 3465.8066322 2406.6349337 0.0000000 3179.1748722 2406.6349337 966.9291339 3179.1748722 2406.6349337 0.0000000 3179.1748722 2406.5591057 966.9291339 3179.1748722 2406.5591057 0.0000000 3179.1748722 2406.6349337 966.9291339 7437.4425888 2406.6349337 0.0000000 7724.0743487 2406.6349337 966.9291339 7724.0743487 2406.6349337 0.0000000 7437.4425888 2406.6349337 966.9291339 7724.0743487 2406.6349337 966.9291339 7724.0743487 2406.5591057 0.0000000 7724.0743487 2406.5591057 966.9291339 7724.0743487 2406.6349337 0.0000000 7437.4425888 2406.6349337 0.0000000 7724.0743487 2406.5591057 0.0000000 7437.4425888 2406.5591057 0.0000000 7724.0743487 2406.6349337 0.0000000 7437.4425888 2406.6349337 0.0000000 7437.4425888 2406.5591057 966.9291339 7437.4425888 2406.5591057 0.0000000 7437.4425888 2406.6349337 966.9291339 5594.9404905 2406.6349337 966.9291339 5594.9404905 2406.5591057 0.0000000 5594.9404905 2406.5591057 966.9291339 5594.9404905 2406.6349337 0.0000000 5308.3087305 2406.6349337 0.0000000 5594.9404905 2406.6349337 966.9291339 5594.9404905 2406.6349337 0.0000000 5308.3087305 2406.6349337 966.9291339 5308.3087305 2406.6349337 0.0000000 5594.9404905 2406.5591057 0.0000000 5308.3087305 2406.5591057 0.0000000 5594.9404905 2406.6349337 0.0000000 5308.3087305 2406.6349337 0.0000000 5308.3087305 2406.5591057 966.9291339 5308.3087305 2406.5591057 0.0000000 5308.3087305 2406.6349337 966.9291339 3465.8066322 2406.6349337 966.9291339 3465.8066322 2406.5591057 0.0000000 3465.8066322 2406.5591057 966.9291339 3465.8066322 2406.6349337 0.0000000 3179.1748722 2406.6349337 0.0000000 3465.8066322 2406.5591057 0.0000000 3179.1748722 2406.5591057 0.0000000 3465.8066322 2406.6349337 0.0000000 3465.8066322 2406.5591057 966.9291339 3179.1748722 2406.6349337 966.9291339 3179.1748722 2406.5591057 966.9291339 3465.8066322 2406.6349337 966.9291339 3465.8066322 2406.5591057 966.9291339 3179.1748722 2406.5591057 0.0000000 3465.8066322 2406.5591057 0.0000000 3179.1748722 2406.5591057 966.9291339 5594.9404905 2406.5591057 966.9291339 5308.3087305 2406.6349337 966.9291339 5308.3087305 2406.5591057 966.9291339 5594.9404905 2406.6349337 966.9291339 5594.9404905 2406.5591057 966.9291339 5308.3087305 2406.5591057 0.0000000 5594.9404905 2406.5591057 0.0000000 5308.3087305 2406.5591057 966.9291339 7724.0743487 2406.5591057 966.9291339 7437.4425888 2406.6349337 966.9291339 7437.4425888 2406.5591057 966.9291339 7724.0743487 2406.6349337 966.9291339 7724.0743487 2406.5591057 966.9291339 7437.4425888 2406.5591057 0.0000000 7724.0743487 2406.5591057 0.0000000 7437.4425888 2406.5591057 966.9291339 7437.4425888 4627.2568354 0.0000000 7724.0743487 4627.2568354 966.9291339 7724.0743487 4627.2568354 0.0000000 7437.4425888 4627.2568354 966.9291339 5308.3087305 4627.2568354 0.0000000 5594.9404905 4627.2568354 966.9291339 5594.9404905 4627.2568354 0.0000000 5308.3087305 4627.2568354 966.9291339 3179.1748722 4627.2568354 0.0000000 3465.8066322 4627.2568354 966.9291339 3465.8066322 4627.2568354 0.0000000 3179.1748722 4627.2568354 966.9291339</float_array>
                    <technique_common>
                        <accessor count="929" source="#ID9" stride="3">
                            <param name="X" type="float" />
                            <param name="Y" type="float" />
                            <param name="Z" type="float" />
                        </accessor>
                    </technique_common>
                </source>
                <source id="ID7">
                    <float_array id="ID10" count="2787">0.0000000 -0.5000000 -0.8660254 0.0000000 -0.2588190 -0.9659258 0.0000000 -0.5000000 -0.8660254 0.0000000 -0.2588190 -0.9659258 -1.0000000 0.0000000 -0.0000000 -1.0000000 0.0000000 -0.0000000 -1.0000000 0.0000000 -0.0000000 -1.0000000 0.0000000 -0.0000000 -1.0000000 0.0000000 -0.0000000 -1.0000000 0.0000000 -0.0000000 -1.0000000 0.0000000 -0.0000000 -1.0000000 0.0000000 -0.0000000 -1.0000000 0.0000000 -0.0000000 -1.0000000 0.0000000 -0.0000000 -1.0000000 0.0000000 -0.0000000 -1.0000000 0.0000000 -0.0000000 -1.0000000 0.0000000 -0.0000000 -1.0000000 0.0000000 -0.0000000 -1.0000000 0.0000000 -0.0000000 -1.0000000 0.0000000 -0.0000000 -1.0000000 0.0000000 -0.0000000 -1.0000000 0.0000000 -0.0000000 -1.0000000 0.0000000 -0.0000000 -1.0000000 0.0000000 -0.0000000 -1.0000000 0.0000000 -0.0000000 -1.0000000 0.0000000 -0.0000000 0.0000000 -0.7071068 -0.7071068 0.0000000 -0.7071068 -0.7071068 1.0000000 -0.0000000 0.0000000 1.0000000 -0.0000000 0.0000000 1.0000000 -0.0000000 0.0000000 1.0000000 -0.0000000 0.0000000 1.0000000 -0.0000000 0.0000000 1.0000000 -0.0000000 0.0000000 1.0000000 -0.0000000 0.0000000 1.0000000 -0.0000000 0.0000000 1.0000000 -0.0000000 0.0000000 1.0000000 -0.0000000 0.0000000 1.0000000 -0.0000000 0.0000000 1.0000000 -0.0000000 0.0000000 1.0000000 -0.0000000 0.0000000 1.0000000 -0.0000000 0.0000000 1.0000000 -0.0000000 0.0000000 1.0000000 -0.0000000 0.0000000 1.0000000 -0.0000000 0.0000000 1.0000000 -0.0000000 0.0000000 1.0000000 -0.0000000 0.0000000 1.0000000 -0.0000000 0.0000000 1.0000000 -0.0000000 0.0000000 1.0000000 -0.0000000 0.0000000 0.0000000 -0.0000000 -1.0000000 0.0000000 -0.0000000 -1.0000000 -0.0000000 -1.0000000 0.0000000 -0.0000000 -1.0000000 0.0000000 -0.0000000 -1.0000000 0.0000000 -0.0000000 -1.0000000 0.0000000 -0.0000000 -1.0000000 0.0000000 -0.0000000 -1.0000000 0.0000000 -0.0000000 -1.0000000 0.0000000 -0.0000000 -1.0000000 0.0000000 -0.0000000 -1.0000000 0.0000000 -0.0000000 -1.0000000 0.0000000 -0.0000000 -1.0000000 0.0000000 -0.0000000 -1.0000000 0.0000000 -0.0000000 -1.0000000 0.0000000 -0.0000000 -1.0000000 0.0000000 -0.0000000 -1.0000000 0.0000000 -0.0000000 -1.0000000 0.0000000 -0.0000000 -1.0000000 0.0000000 -0.0000000 -1.0000000 0.0000000 -0.0000000 -1.0000000 0.0000000 -0.0000000 -1.0000000 0.0000000 -0.0000000 -0.9914449 -0.1305262 0.0000000 -0.9659258 -0.2588190 -0.0000000 -0.9914449 -0.1305262 0.0000000 -0.9659258 -0.2588190 0.0000000 -0.8660254 -0.5000000 0.0000000 -0.8660254 -0.5000000 0.0000000 0.2588190 -0.9659258 0.0000000 0.2588190 -0.9659258 0.0000000 0.5000000 -0.8660254 0.0000000 0.5000000 -0.8660254 0.0000000 0.7071068 -0.7071068 0.0000000 0.7071068 -0.7071068 0.0000000 0.8660254 -0.5000000 0.0000000 0.8660254 -0.5000000 0.0000000 0.9659258 -0.2588190 0.0000000 0.9659258 -0.2588190 0.0000000 0.9914449 -0.1305262 0.0000000 0.9914449 -0.1305262 0.0000000 1.0000000 0.0000000 0.0000000 1.0000000 0.0000000 0.0000000 1.0000000 0.0000000 0.0000000 1.0000000 0.0000000 0.0000000 1.0000000 0.0000000 0.0000000 1.0000000 0.0000000 0.0000000 1.0000000 0.0000000 0.0000000 1.0000000 0.0000000 0.0000000 1.0000000 0.0000000 0.0000000 1.0000000 0.0000000 0.0000000 1.0000000 0.0000000 0.0000000 1.0000000 0.0000000 0.0000000 1.0000000 0.0000000 0.0000000 1.0000000 0.0000000 0.0000000 1.0000000 0.0000000 0.0000000 1.0000000 0.0000000 0.0000000 1.0000000 0.0000000 0.0000000 1.0000000 0.0000000 0.0000000 1.0000000 0.0000000 0.0000000 1.0000000 0.0000000 -0.0000000 0.0000000 -1.0000000 -0.0000000 0.0000000 -1.0000000 -0.0000000 0.0000000 -1.0000000 -0.0000000 0.0000000 -1.0000000 -0.0000000 0.0000000 -1.0000000 -0.0000000 0.0000000 -1.0000000 -0.0000000 0.0000000 -1.0000000 -0.0000000 0.0000000 -1.0000000 -0.0000000 0.0000000 -1.0000000 -0.0000000 0.0000000 -1.0000000 -0.0000000 0.0000000 -1.0000000 -0.0000000 0.0000000 -1.0000000 -0.0000000 0.0000000 -1.0000000 -0.0000000 0.0000000 -1.0000000 -0.0000000 0.0000000 -1.0000000 -0.0000000 0.0000000 -1.0000000 -0.0000000 0.0000000 -1.0000000 -0.0000000 0.0000000 -1.0000000 0.0000000 -0.0000000 -1.0000000 0.0000000 -0.0000000 -1.0000000 0.0000000 -0.0000000 -1.0000000 0.0000000 -0.0000000 -1.0000000 0.0000000 -0.0000000 -1.0000000 0.0000000 -0.0000000 -1.0000000 0.0000000 -0.0000000 -1.0000000 0.0000000 -0.0000000 -1.0000000 0.0000000 -1.0000000 0.0000000 0.0000000 -1.0000000 0.0000000 0.0000000 -1.0000000 0.0000000 0.0000000 -1.0000000 0.0000000 0.0000000 0.0000000 1.0000000 0.0000000 0.0000000 1.0000000 0.0000000 0.0000000 1.0000000 0.0000000 0.0000000 1.0000000 0.0000000 1.0000000 0.0000000 0.0000000 1.0000000 0.0000000 0.0000000 1.0000000 0.0000000 0.0000000 1.0000000 0.0000000 0.0000000 0.0000000 -1.0000000 0.0000000 0.0000000 -1.0000000 0.0000000 0.0000000 -1.0000000 0.0000000 0.0000000 -1.0000000 0.0000000 0.0000000 -1.0000000 0.0000000 0.0000000 -1.0000000 0.0000000 0.0000000 -1.0000000 0.0000000 0.0000000 -1.0000000 0.0000000 0.0000000 -1.0000000 0.0000000 0.0000000 -1.0000000 0.0000000 0.0000000 -1.0000000 0.0000000 0.0000000 -1.0000000 0.0000000 0.0000000 -1.0000000 0.0000000 0.0000000 -1.0000000 0.0000000 0.0000000 -1.0000000 0.0000000 0.0000000 -1.0000000 0.0000000 0.0000000 -1.0000000 0.0000000 0.0000000 -1.0000000 0.0000000 0.0000000 -1.0000000 0.0000000 0.0000000 -1.0000000 0.0000000 0.0000000 -1.0000000 0.0000000 0.0000000 -1.0000000 -0.0000000 -0.0000000 -1.0000000 -0.0000000 -0.0000000 -1.0000000 -0.0000000 -0.0000000 -1.0000000 -0.0000000 -0.0000000 -1.0000000 -0.0000000 -0.0000000 -1.0000000 -0.0000000 -0.0000000 -1.0000000 1.0000000 0.0000000 0.0000000 1.0000000 0.0000000 0.0000000 1.0000000 0.0000000 0.0000000 1.0000000 0.0000000 0.0000000 -0.0000000 0.0000000 -1.0000000 -0.0000000 0.0000000 -1.0000000 -0.0000000 0.0000000 -1.0000000 -0.0000000 0.0000000 -1.0000000 -1.0000000 -0.0000000 0.0000000 -1.0000000 -0.0000000 0.0000000 -1.0000000 -0.0000000 0.0000000 -1.0000000 -0.0000000 0.0000000 -0.0000000 -0.0000000 -1.0000000 -0.0000000 -0.0000000 -1.0000000 -0.0000000 -0.0000000 -1.0000000 -0.0000000 -0.0000000 -1.0000000 -0.0000000 -0.0000000 -1.0000000 -0.0000000 -0.0000000 -1.0000000 1.0000000 0.0000000 0.0000000 1.0000000 0.0000000 0.0000000 1.0000000 0.0000000 0.0000000 1.0000000 0.0000000 0.0000000 -1.0000000 -0.0000000 0.0000000 -1.0000000 -0.0000000 0.0000000 -1.0000000 -0.0000000 0.0000000 -1.0000000 -0.0000000 0.0000000 -0.0000000 -0.0000000 -1.0000000 -0.0000000 -0.0000000 -1.0000000 -0.0000000 -0.0000000 -1.0000000 -0.0000000 -0.0000000 -1.0000000 -0.0000000 -0.0000000 -1.0000000 -0.0000000 -0.0000000 -1.0000000 1.0000000 0.0000000 0.0000000 1.0000000 0.0000000 0.0000000 1.0000000 0.0000000 0.0000000 1.0000000 0.0000000 0.0000000 -0.0000000 0.0000000 -1.0000000 -0.0000000 0.0000000 -1.0000000 -0.0000000 0.0000000 -1.0000000 -0.0000000 0.0000000 -1.0000000 -1.0000000 -0.0000000 0.0000000 -1.0000000 -0.0000000 0.0000000 -1.0000000 -0.0000000 0.0000000 -1.0000000 -0.0000000 0.0000000 -0.0000000 -0.0000000 -1.0000000 -0.0000000 -0.0000000 -1.0000000 -0.0000000 -0.0000000 -1.0000000 -0.0000000 -0.0000000 -1.0000000 -0.0000000 -0.0000000 -1.0000000 -0.0000000 -0.0000000 -1.0000000 1.0000000 0.0000000 0.0000000 1.0000000 0.0000000 0.0000000 1.0000000 0.0000000 0.0000000 1.0000000 0.0000000 0.0000000 -0.0000000 0.0000000 -1.0000000 -0.0000000 0.0000000 -1.0000000 -0.0000000 0.0000000 -1.0000000 -0.0000000 0.0000000 -1.0000000 -1.0000000 -0.0000000 0.0000000 -1.0000000 -0.0000000 0.0000000 -1.0000000 -0.0000000 0.0000000 -1.0000000 -0.0000000 0.0000000 1.0000000 -0.0000000 0.0000000 1.0000000 -0.0000000 0.0000000 1.0000000 -0.0000000 0.0000000 1.0000000 -0.0000000 0.0000000 -0.0000000 -0.0000000 -1.0000000 -0.0000000 -0.0000000 -1.0000000 -0.0000000 -0.0000000 -1.0000000 -0.0000000 -0.0000000 -1.0000000 -0.0000000 -0.0000000 -1.0000000 -0.0000000 -0.0000000 -1.0000000 -1.0000000 0.0000000 0.0000000 -1.0000000 0.0000000 0.0000000 -1.0000000 0.0000000 0.0000000 -1.0000000 0.0000000 0.0000000 1.0000000 -0.0000000 0.0000000 1.0000000 -0.0000000 0.0000000 1.0000000 -0.0000000 0.0000000 1.0000000 -0.0000000 0.0000000 -0.0000000 -0.0000000 -1.0000000 -0.0000000 -0.0000000 -1.0000000 -0.0000000 -0.0000000 -1.0000000 -0.0000000 -0.0000000 -1.0000000 -0.0000000 -0.0000000 -1.0000000 -0.0000000 -0.0000000 -1.0000000 -1.0000000 0.0000000 0.0000000 -1.0000000 0.0000000 0.0000000 -1.0000000 0.0000000 0.0000000 -1.0000000 0.0000000 0.0000000 -0.0000000 -0.0000000 -1.0000000 -0.0000000 -0.0000000 -1.0000000 -0.0000000 -0.0000000 -1.0000000 -0.0000000 -0.0000000 -1.0000000 1.0000000 -0.0000000 0.0000000 1.0000000 -0.0000000 0.0000000 1.0000000 -0.0000000 0.0000000 1.0000000 -0.0000000 0.0000000 -0.0000000 -0.0000000 -1.0000000 -0.0000000 -0.0000000 -1.0000000 -0.0000000 -0.0000000 -1.0000000 -0.0000000 -0.0000000 -1.0000000 -0.0000000 -0.0000000 -1.0000000 -0.0000000 -0.0000000 -1.0000000 -1.0000000 0.0000000 0.0000000 -1.0000000 0.0000000 0.0000000 -1.0000000 0.0000000 0.0000000 -1.0000000 0.0000000 0.0000000 -0.0000000 -0.0000000 -1.0000000 -0.0000000 -0.0000000 -1.0000000 -0.0000000 -0.0000000 -1.0000000 -0.0000000 -0.0000000 -1.0000000 1.0000000 -0.0000000 0.0000000 1.0000000 -0.0000000 0.0000000 1.0000000 -0.0000000 0.0000000 1.0000000 -0.0000000 0.0000000 -0.0000000 -0.0000000 -1.0000000 -0.0000000 -0.0000000 -1.0000000 -0.0000000 -0.0000000 -1.0000000 -0.0000000 -0.0000000 -1.0000000 -0.0000000 -0.0000000 -1.0000000 -0.0000000 -0.0000000 -1.0000000 -1.0000000 0.0000000 0.0000000 -1.0000000 0.0000000 0.0000000 -1.0000000 0.0000000 0.0000000 -1.0000000 0.0000000 0.0000000 -0.0000000 -0.0000000 -1.0000000 -0.0000000 -0.0000000 -1.0000000 -0.0000000 -0.0000000 -1.0000000 -0.0000000 -0.0000000 -1.0000000 1.0000000 0.0000000 0.0000000 1.0000000 0.0000000 0.0000000 1.0000000 0.0000000 0.0000000 1.0000000 0.0000000 0.0000000 0.0000000 1.0000000 0.0000000 0.0000000 1.0000000 0.0000000 0.0000000 1.0000000 0.0000000 0.0000000 1.0000000 0.0000000 -0.0000000 -0.0000000 -1.0000000 -0.0000000 -0.0000000 -1.0000000 -0.0000000 -0.0000000 -1.0000000 -0.0000000 -0.0000000 -1.0000000 -1.0000000 0.0000000 0.0000000 -1.0000000 0.0000000 0.0000000 -1.0000000 0.0000000 0.0000000 -1.0000000 0.0000000 0.0000000 1.0000000 0.0000000 -0.0000000 1.0000000 0.0000000 -0.0000000 1.0000000 0.0000000 -0.0000000 1.0000000 0.0000000 -0.0000000 1.0000000 0.0000000 -0.0000000 1.0000000 0.0000000 -0.0000000 1.0000000 0.0000000 -0.0000000 1.0000000 0.0000000 -0.0000000 1.0000000 0.0000000 -0.0000000 1.0000000 0.0000000 -0.0000000 1.0000000 0.0000000 -0.0000000 1.0000000 0.0000000 -0.0000000 1.0000000 0.0000000 -0.0000000 1.0000000 0.0000000 -0.0000000 1.0000000 0.0000000 -0.0000000 -1.0000000 0.0000000 0.0000000 -1.0000000 0.0000000 0.0000000 -1.0000000 0.0000000 0.0000000 -1.0000000 0.0000000 0.0000000 0.0000000 -1.0000000 0.0000000 0.0000000 -1.0000000 0.0000000 0.0000000 -1.0000000 0.0000000 0.0000000 -1.0000000 0.0000000 1.0000000 0.0000000 -0.0000000 1.0000000 0.0000000 -0.0000000 1.0000000 0.0000000 -0.0000000 1.0000000 0.0000000 -0.0000000 1.0000000 0.0000000 -0.0000000 1.0000000 0.0000000 -0.0000000 1.0000000 0.0000000 -0.0000000 1.0000000 0.0000000 -0.0000000 1.0000000 0.0000000 -0.0000000 1.0000000 0.0000000 -0.0000000 1.0000000 0.0000000 -0.0000000 1.0000000 0.0000000 -0.0000000 1.0000000 0.0000000 -0.0000000 1.0000000 0.0000000 -0.0000000 1.0000000 0.0000000 -0.0000000 1.0000000 0.0000000 -0.0000000 -1.0000000 -0.0000000 -0.0000000 -1.0000000 -0.0000000 -0.0000000 -1.0000000 -0.0000000 -0.0000000 -1.0000000 -0.0000000 -0.0000000 -1.0000000 -0.0000000 -0.0000000 -1.0000000 -0.0000000 -0.0000000 -1.0000000 -0.0000000 -0.0000000 -1.0000000 -0.0000000 -0.0000000 -1.0000000 -0.0000000 -0.0000000 -1.0000000 -0.0000000 -0.0000000 -1.0000000 -0.0000000 -0.0000000 -1.0000000 -0.0000000 -0.0000000 -1.0000000 -0.0000000 -0.0000000 -1.0000000 -0.0000000 -0.0000000 -1.0000000 -0.0000000 -0.0000000 1.0000000 -0.0000000 -0.0000000 1.0000000 -0.0000000 -0.0000000 1.0000000 -0.0000000 -0.0000000 1.0000000 -0.0000000 -0.0000000 1.0000000 -0.0000000 -0.0000000 1.0000000 -0.0000000 -0.0000000 1.0000000 -0.0000000 -0.0000000 1.0000000 -0.0000000 -0.0000000 1.0000000 -0.0000000 -0.0000000 1.0000000 -0.0000000 -0.0000000 1.0000000 -0.0000000 -0.0000000 1.0000000 -0.0000000 -0.0000000 1.0000000 -0.0000000 -0.0000000 1.0000000 -0.0000000 -0.0000000 1.0000000 -0.0000000 -0.0000000 1.0000000 -0.0000000 -0.0000000 0.0000000 -0.0000000 -1.0000000 0.0000000 -0.0000000 -1.0000000 0.0000000 -0.0000000 -1.0000000 0.0000000 -0.0000000 -1.0000000 0.0000000 1.0000000 0.0000000 0.0000000 1.0000000 0.0000000 0.0000000 1.0000000 0.0000000 0.0000000 1.0000000 0.0000000 0.0000000 1.0000000 0.0000000 -1.0000000 -0.0000000 -0.0000000 -1.0000000 -0.0000000 -0.0000000 -1.0000000 -0.0000000 -0.0000000 -1.0000000 -0.0000000 -0.0000000 1.0000000 -0.0000000 -0.0000000 1.0000000 -0.0000000 -0.0000000 1.0000000 -0.0000000 -0.0000000 1.0000000 -0.0000000 -0.0000000 1.0000000 -0.0000000 -0.0000000 1.0000000 -0.0000000 -0.0000000 1.0000000 -0.0000000 -0.0000000 1.0000000 -0.0000000 -0.0000000 1.0000000 -0.0000000 -0.0000000 1.0000000 -0.0000000 -0.0000000 1.0000000 -0.0000000 -0.0000000 1.0000000 -0.0000000 -0.0000000 1.0000000 -0.0000000 -0.0000000 1.0000000 -0.0000000 -0.0000000 1.0000000 -0.0000000 -0.0000000 -1.0000000 -0.0000000 0.0000000 -1.0000000 -0.0000000 0.0000000 -1.0000000 -0.0000000 0.0000000 -1.0000000 -0.0000000 0.0000000 -0.0000000 0.0000000 -1.0000000 -0.0000000 0.0000000 -1.0000000 -0.0000000 0.0000000 -1.0000000 -0.0000000 0.0000000 -1.0000000 0.0000000 -1.0000000 0.0000000 0.0000000 -1.0000000 0.0000000 0.0000000 -1.0000000 0.0000000 0.0000000 -1.0000000 0.0000000 1.0000000 -0.0000000 0.0000000 1.0000000 -0.0000000 0.0000000 1.0000000 -0.0000000 0.0000000 1.0000000 -0.0000000 0.0000000 -1.0000000 0.0000000 0.0000000 -1.0000000 0.0000000 0.0000000 -1.0000000 0.0000000 0.0000000 -1.0000000 0.0000000 0.0000000 0.0000000 0.0000000 -1.0000000 0.0000000 0.0000000 -1.0000000 0.0000000 0.0000000 -1.0000000 0.0000000 0.0000000 -1.0000000 0.0000000 -1.0000000 0.0000000 0.0000000 -1.0000000 0.0000000 0.0000000 -1.0000000 0.0000000 0.0000000 -1.0000000 0.0000000 0.0000000 -1.0000000 0.0000000 1.0000000 0.0000000 -0.0000000 1.0000000 0.0000000 -0.0000000 1.0000000 0.0000000 -0.0000000 1.0000000 0.0000000 -0.0000000 1.0000000 0.0000000 -0.0000000 1.0000000 0.0000000 -0.0000000 1.0000000 0.0000000 -0.0000000 1.0000000 0.0000000 -0.0000000 1.0000000 0.0000000 -0.0000000 1.0000000 0.0000000 -0.0000000 1.0000000 0.0000000 -0.0000000 1.0000000 0.0000000 -0.0000000 1.0000000 0.0000000 -0.0000000 1.0000000 0.0000000 -0.0000000 1.0000000 0.0000000 -0.0000000 1.0000000 0.0000000 -0.0000000 -1.0000000 0.0000000 -0.0000000 -1.0000000 0.0000000 -0.0000000 -1.0000000 0.0000000 -0.0000000 -1.0000000 0.0000000 -0.0000000 -1.0000000 0.0000000 -0.0000000 -1.0000000 0.0000000 -0.0000000 -1.0000000 0.0000000 -0.0000000 -1.0000000 0.0000000 -0.0000000 -1.0000000 0.0000000 -0.0000000 -1.0000000 0.0000000 -0.0000000 -1.0000000 0.0000000 -0.0000000 -1.0000000 0.0000000 -0.0000000 -1.0000000 0.0000000 -0.0000000 -1.0000000 0.0000000 -0.0000000 -1.0000000 0.0000000 -0.0000000 1.0000000 -0.0000000 -0.0000000 1.0000000 -0.0000000 -0.0000000 1.0000000 -0.0000000 -0.0000000 1.0000000 -0.0000000 -0.0000000 1.0000000 -0.0000000 -0.0000000 1.0000000 -0.0000000 -0.0000000 1.0000000 -0.0000000 -0.0000000 1.0000000 -0.0000000 -0.0000000 1.0000000 -0.0000000 -0.0000000 1.0000000 -0.0000000 -0.0000000 1.0000000 -0.0000000 -0.0000000 1.0000000 -0.0000000 -0.0000000 1.0000000 -0.0000000 -0.0000000 1.0000000 -0.0000000 -0.0000000 1.0000000 -0.0000000 -0.0000000 1.0000000 -0.0000000 -0.0000000 0.0000000 0.0000000 -1.0000000 0.0000000 0.0000000 -1.0000000 0.0000000 0.0000000 -1.0000000 0.0000000 0.0000000 -1.0000000 0.0000000 1.0000000 0.0000000 0.0000000 1.0000000 0.0000000 0.0000000 1.0000000 0.0000000 0.0000000 1.0000000 0.0000000 -1.0000000 -0.0000000 0.0000000 -1.0000000 -0.0000000 0.0000000 -1.0000000 -0.0000000 0.0000000 -1.0000000 -0.0000000 0.0000000 1.0000000 -0.0000000 0.0000000 1.0000000 -0.0000000 0.0000000 1.0000000 -0.0000000 0.0000000 1.0000000 -0.0000000 0.0000000 0.0000000 -0.9148785 0.4037294 0.0000000 -0.9148785 0.4037294 0.0000000 -0.9148785 0.4037294 0.0000000 -0.8675167 0.4974080 0.0000000 -0.9148785 0.4037294 0.0000000 -0.9148785 0.4037294 0.0000000 -0.9148785 0.4037294 0.0000000 -0.9148785 0.4037294 0.0000000 -0.9148785 0.4037294 0.0000000 -0.9148785 0.4037294 0.0000000 -0.9148785 0.4037294 0.0000000 -0.9148785 0.4037294 0.0000000 -0.8675167 0.4974080 -1.0000000 0.0000000 0.0000000 -1.0000000 0.0000000 0.0000000 -1.0000000 0.0000000 0.0000000 -1.0000000 0.0000000 0.0000000 -0.0000000 -0.0000000 -1.0000000 -0.0000000 -0.0000000 -1.0000000 -0.0000000 -0.0000000 -1.0000000 -0.0000000 -0.0000000 -1.0000000 1.0000000 -0.0000000 0.0000000 1.0000000 -0.0000000 0.0000000 1.0000000 -0.0000000 0.0000000 1.0000000 -0.0000000 0.0000000 -1.0000000 0.0000000 0.0000000 -1.0000000 0.0000000 0.0000000 -1.0000000 0.0000000 0.0000000 -1.0000000 0.0000000 0.0000000 -0.0000000 -0.0000000 -1.0000000 -0.0000000 -0.0000000 -1.0000000 -0.0000000 -0.0000000 -1.0000000 -0.0000000 -0.0000000 -1.0000000 1.0000000 -0.0000000 0.0000000 1.0000000 -0.0000000 0.0000000 1.0000000 -0.0000000 0.0000000 1.0000000 -0.0000000 0.0000000 -1.0000000 0.0000000 0.0000000 -1.0000000 0.0000000 0.0000000 -1.0000000 0.0000000 0.0000000 -1.0000000 0.0000000 0.0000000 -0.0000000 -0.0000000 -1.0000000 -0.0000000 -0.0000000 -1.0000000 -0.0000000 -0.0000000 -1.0000000 -0.0000000 -0.0000000 -1.0000000 -1.0000000 -0.0000000 -0.0000000 -1.0000000 -0.0000000 -0.0000000 -1.0000000 -0.0000000 -0.0000000 -1.0000000 -0.0000000 -0.0000000 1.0000000 0.0000000 0.0000000 1.0000000 0.0000000 0.0000000 1.0000000 0.0000000 0.0000000 1.0000000 0.0000000 0.0000000 -0.0000000 0.0000000 -1.0000000 -0.0000000 0.0000000 -1.0000000 -0.0000000 0.0000000 -1.0000000 -0.0000000 0.0000000 -1.0000000 -1.0000000 -0.0000000 -0.0000000 -1.0000000 -0.0000000 -0.0000000 -1.0000000 -0.0000000 -0.0000000 -1.0000000 -0.0000000 -0.0000000 1.0000000 0.0000000 0.0000000 1.0000000 0.0000000 0.0000000 1.0000000 0.0000000 0.0000000 1.0000000 0.0000000 0.0000000 -0.0000000 0.0000000 -1.0000000 -0.0000000 0.0000000 -1.0000000 -0.0000000 0.0000000 -1.0000000 -0.0000000 0.0000000 -1.0000000 -1.0000000 -0.0000000 -0.0000000 -1.0000000 -0.0000000 -0.0000000 -1.0000000 -0.0000000 -0.0000000 -1.0000000 -0.0000000 -0.0000000 1.0000000 0.0000000 0.0000000 1.0000000 0.0000000 0.0000000 1.0000000 0.0000000 0.0000000 1.0000000 0.0000000 0.0000000 -0.0000000 0.0000000 -1.0000000 -0.0000000 0.0000000 -1.0000000 -0.0000000 0.0000000 -1.0000000 -0.0000000 0.0000000 -1.0000000 -1.0000000 0.0000000 0.0000000 -1.0000000 0.0000000 0.0000000 -1.0000000 0.0000000 0.0000000 -1.0000000 0.0000000 0.0000000 -0.0000000 -1.0000000 -0.0000000 -0.0000000 -1.0000000 -0.0000000 -0.0000000 -1.0000000 -0.0000000 -0.0000000 -1.0000000 -0.0000000 -1.0000000 -0.0000000 -0.0000000 -1.0000000 -0.0000000 -0.0000000 -1.0000000 -0.0000000 -0.0000000 -1.0000000 -0.0000000 -0.0000000 -1.0000000 -0.0000000 -0.0000000 -1.0000000 -0.0000000 -0.0000000 -1.0000000 -0.0000000 -0.0000000 -1.0000000 -0.0000000 -0.0000000 -1.0000000 -0.0000000 -0.0000000 -1.0000000 -0.0000000 -0.0000000 -1.0000000 -0.0000000 -0.0000000 -1.0000000 -0.0000000 -0.0000000 -1.0000000 -0.0000000 -0.0000000 -1.0000000 -0.0000000 -0.0000000 -0.0000000 -0.9148785 -0.4037294 -0.0000000 -0.9148785 -0.4037294 -0.0000000 -0.9148785 -0.4037294 -0.0000000 -0.8675167 -0.4974080 -0.0000000 -0.9148785 -0.4037294 -0.0000000 -0.9148785 -0.4037294 -0.0000000 -0.9148785 -0.4037294 -0.0000000 -0.9148785 -0.4037294 -0.0000000 -0.9148785 -0.4037294 -0.0000000 -0.9148785 -0.4037294 -0.0000000 -0.9148785 -0.4037294 -0.0000000 -0.9148785 -0.4037294 -0.0000000 -0.8675167 -0.4974080 0.0000000 -0.7447435 -0.6673508 0.0000000 -0.7447435 -0.6673508 0.0000000 -0.5892359 -0.8079611 0.0000000 -0.5892359 -0.8079611 -0.0000000 -0.4078291 -0.9130583 -0.0000000 -0.4078291 -0.9130583 -0.0000000 -0.3098701 -0.9507789 -0.0000000 -0.3098701 -0.9507789 -1.0000000 0.0000000 -0.0000000 -1.0000000 0.0000000 -0.0000000 -1.0000000 0.0000000 -0.0000000 -1.0000000 0.0000000 -0.0000000 -1.0000000 0.0000000 -0.0000000 -1.0000000 0.0000000 -0.0000000 -1.0000000 0.0000000 -0.0000000 -1.0000000 0.0000000 -0.0000000 -1.0000000 0.0000000 -0.0000000 -1.0000000 0.0000000 -0.0000000 -1.0000000 0.0000000 -0.0000000 -1.0000000 0.0000000 -0.0000000 -1.0000000 0.0000000 -0.0000000 -1.0000000 0.0000000 -0.0000000 0.0000000 1.0000000 0.0000000 0.0000000 1.0000000 0.0000000 0.0000000 1.0000000 0.0000000 0.0000000 1.0000000 0.0000000 0.0000000 0.8675167 -0.4974080 0.0000000 0.9148785 -0.4037294 0.0000000 0.9148785 -0.4037294 0.0000000 0.8675167 -0.4974080 -0.0000000 0.1048259 -0.9944906 -0.0000000 0.2084967 -0.9780231 -0.0000000 0.1048259 -0.9944906 -0.0000000 0.2084967 -0.9780231 -0.0000000 0.4078291 -0.9130583 -0.0000000 0.4078291 -0.9130583 -0.0000000 0.5892359 -0.8079611 -0.0000000 0.5892359 -0.8079611 0.0000000 0.7447435 -0.6673508 0.0000000 0.7447435 -0.6673508 -0.0000000 -1.0000000 -0.0000000 -0.0000000 -1.0000000 -0.0000000 -0.0000000 -1.0000000 -0.0000000 -0.0000000 -1.0000000 -0.0000000 -0.0000000 -1.0000000 -0.0000000 1.0000000 -0.0000000 0.0000000 1.0000000 -0.0000000 0.0000000 1.0000000 -0.0000000 0.0000000 1.0000000 -0.0000000 0.0000000 -0.0000000 -0.8675167 -0.4974080 -0.0000000 -0.9148785 -0.4037294 -0.0000000 -0.9148785 -0.4037294 -0.0000000 -0.8675167 -0.4974080 -1.0000000 -0.0000000 -0.0000000 -1.0000000 -0.0000000 -0.0000000 -1.0000000 -0.0000000 -0.0000000 -1.0000000 -0.0000000 -0.0000000 -1.0000000 -0.0000000 -0.0000000 -1.0000000 -0.0000000 -0.0000000 -1.0000000 -0.0000000 -0.0000000 -1.0000000 -0.0000000 -0.0000000 -1.0000000 -0.0000000 -0.0000000 -1.0000000 -0.0000000 -0.0000000 -1.0000000 -0.0000000 -0.0000000 -1.0000000 -0.0000000 -0.0000000 -1.0000000 -0.0000000 -0.0000000 -1.0000000 -0.0000000 -0.0000000 0.0000000 -0.7447435 -0.6673508 0.0000000 -0.7447435 -0.6673508 0.0000000 -0.5892359 -0.8079611 0.0000000 -0.5892359 -0.8079611 0.0000000 -0.4078291 -0.9130583 0.0000000 -0.4078291 -0.9130583 0.0000000 -0.3098701 -0.9507789 0.0000000 -0.3098701 -0.9507789 -1.0000000 0.0000000 -0.0000000 -1.0000000 0.0000000 -0.0000000 -1.0000000 0.0000000 -0.0000000 -1.0000000 0.0000000 -0.0000000 -1.0000000 0.0000000 -0.0000000 -1.0000000 0.0000000 -0.0000000 -1.0000000 0.0000000 -0.0000000 -1.0000000 0.0000000 -0.0000000 -1.0000000 0.0000000 -0.0000000 -1.0000000 0.0000000 -0.0000000 -1.0000000 0.0000000 -0.0000000 -1.0000000 0.0000000 -0.0000000 -1.0000000 0.0000000 -0.0000000 -1.0000000 0.0000000 -0.0000000 -0.0000000 0.0000000 -1.0000000 -0.0000000 0.1048259 -0.9944906 -0.0000000 -0.0000000 -1.0000000 -0.0000000 0.2084967 -0.9780231 -0.0000000 0.2084967 -0.9780231 -0.0000000 0.1048259 -0.9944906 0.0000000 0.4078291 -0.9130583 0.0000000 0.4078291 -0.9130583 -0.0000000 0.5892359 -0.8079611 -0.0000000 0.5892359 -0.8079611 -0.0000000 0.7447435 -0.6673508 -0.0000000 0.7447435 -0.6673508 -0.0000000 0.8675167 -0.4974080 -0.0000000 0.8675167 -0.4974080 -0.0000000 0.9148785 -0.4037294 -0.0000000 0.9148785 -0.4037294 -0.0000000 0.9148785 -0.4037294 -0.0000000 0.9148785 -0.4037294 -0.0000000 0.9148785 -0.4037294 -0.0000000 0.9148785 -0.4037294 -0.0000000 0.9148785 -0.4037294 -0.0000000 0.9148785 -0.4037294 -0.0000000 0.9148785 -0.4037294 -0.0000000 0.9148785 -0.4037294 -0.0000000 0.9148785 -0.4037294 0.0000000 1.0000000 0.0000000 0.0000000 1.0000000 0.0000000 0.0000000 1.0000000 0.0000000 0.0000000 1.0000000 0.0000000 -0.0000000 -1.0000000 -0.0000000 -0.0000000 -1.0000000 -0.0000000 -0.0000000 -1.0000000 -0.0000000 -0.0000000 -1.0000000 -0.0000000 -1.0000000 -0.0000000 0.0000000 -1.0000000 -0.0000000 0.0000000 -1.0000000 -0.0000000 0.0000000 -1.0000000 -0.0000000 0.0000000 1.0000000 0.0000000 0.0000000 1.0000000 0.0000000 0.0000000 1.0000000 0.0000000 0.0000000 1.0000000 0.0000000 0.0000000 0.0000000 1.0000000 0.0000000 0.0000000 1.0000000 0.0000000 0.0000000 1.0000000 0.0000000 0.0000000 1.0000000 0.0000000 0.0000000 1.0000000 0.0000000 -0.0000000 -0.2084967 0.9780231 -0.0000000 -0.1048259 0.9944906 -0.0000000 -0.2084967 0.9780231 -0.0000000 -0.1048259 0.9944906 0.0000000 -0.4078291 0.9130583 0.0000000 -0.4078291 0.9130583 -0.0000000 -0.5892359 0.8079611 -0.0000000 -0.5892359 0.8079611 -0.0000000 -0.7447435 0.6673508 -0.0000000 -0.7447435 0.6673508 0.0000000 -0.8675167 -0.4974080 0.0000000 -0.9148785 -0.4037294 0.0000000 -0.9148785 -0.4037294 0.0000000 -0.8675167 -0.4974080 -0.0000000 -0.7447435 -0.6673508 -0.0000000 -0.7447435 -0.6673508 -0.0000000 -0.5892359 -0.8079611 -0.0000000 -0.5892359 -0.8079611 -0.0000000 -0.4078291 -0.9130583 -0.0000000 -0.4078291 -0.9130583 -0.0000000 -0.2084967 -0.9780231 -0.0000000 -0.2084967 -0.9780231 0.0000000 -1.0000000 0.0000000 0.0000000 -1.0000000 0.0000000 0.0000000 -1.0000000 0.0000000 0.0000000 -1.0000000 0.0000000 -1.0000000 -0.0000000 0.0000000 -1.0000000 -0.0000000 0.0000000 -1.0000000 -0.0000000 0.0000000 -1.0000000 -0.0000000 0.0000000 0.0000000 -1.0000000 0.0000000 0.0000000 -1.0000000 0.0000000 0.0000000 -1.0000000 0.0000000 0.0000000 -1.0000000 0.0000000 0.0000000 0.0000000 1.0000000 0.0000000 0.0000000 1.0000000 0.0000000 0.0000000 1.0000000 0.0000000 0.0000000 1.0000000 0.0000000 0.0000000 1.0000000 0.0000000 0.0000000 1.0000000 0.0000000 0.0000000 1.0000000 0.0000000 0.0000000 1.0000000 0.0000000 -1.0000000 0.0000000 0.0000000 -1.0000000 0.0000000 0.0000000 -1.0000000 0.0000000 0.0000000 -1.0000000 0.0000000 0.0000000 0.0000000 1.0000000 0.0000000 0.0000000 1.0000000 0.0000000 0.0000000 1.0000000 0.0000000 0.0000000 1.0000000 1.0000000 0.0000000 0.0000000 1.0000000 0.0000000 0.0000000 1.0000000 0.0000000 0.0000000 1.0000000 0.0000000 0.0000000 -0.0000000 0.0000000 -1.0000000 -0.0000000 0.0000000 -1.0000000 -0.0000000 0.0000000 -1.0000000 -0.0000000 0.0000000 -1.0000000 -1.0000000 -0.0000000 0.0000000 -1.0000000 -0.0000000 0.0000000 -1.0000000 -0.0000000 0.0000000 -1.0000000 -0.0000000 0.0000000 1.0000000 0.0000000 0.0000000 1.0000000 0.0000000 0.0000000 1.0000000 0.0000000 0.0000000 1.0000000 0.0000000 0.0000000 -0.0000000 0.0000000 -1.0000000 -0.0000000 0.0000000 -1.0000000 -0.0000000 0.0000000 -1.0000000 -0.0000000 0.0000000 -1.0000000 -1.0000000 -0.0000000 0.0000000 -1.0000000 -0.0000000 0.0000000 -1.0000000 -0.0000000 0.0000000 -1.0000000 -0.0000000 0.0000000 1.0000000 0.0000000 0.0000000 1.0000000 0.0000000 0.0000000 1.0000000 0.0000000 0.0000000 1.0000000 0.0000000 0.0000000 -0.0000000 0.0000000 -1.0000000 -0.0000000 0.0000000 -1.0000000 -0.0000000 0.0000000 -1.0000000 -0.0000000 0.0000000 -1.0000000 0.0000000 1.0000000 0.0000000 0.0000000 1.0000000 0.0000000 0.0000000 1.0000000 0.0000000 0.0000000 1.0000000 0.0000000 1.0000000 -0.0000000 0.0000000 1.0000000 -0.0000000 0.0000000 1.0000000 -0.0000000 0.0000000 1.0000000 -0.0000000 0.0000000 0.0000000 1.0000000 0.0000000 0.0000000 1.0000000 0.0000000 0.0000000 1.0000000 0.0000000 0.0000000 1.0000000 0.0000000 -1.0000000 0.0000000 0.0000000 -1.0000000 0.0000000 0.0000000 -1.0000000 0.0000000 0.0000000 -1.0000000 0.0000000 0.0000000 -0.0000000 -0.0000000 -1.0000000 -0.0000000 -0.0000000 -1.0000000 -0.0000000 -0.0000000 -1.0000000 -0.0000000 -0.0000000 -1.0000000 1.0000000 -0.0000000 0.0000000 1.0000000 -0.0000000 0.0000000 1.0000000 -0.0000000 0.0000000 1.0000000 -0.0000000 0.0000000 -1.0000000 0.0000000 0.0000000 -1.0000000 0.0000000 0.0000000 -1.0000000 0.0000000 0.0000000 -1.0000000 0.0000000 0.0000000 0.0000000 1.0000000 0.0000000 0.0000000 1.0000000 0.0000000 0.0000000 1.0000000 0.0000000 0.0000000 1.0000000 0.0000000 -0.0000000 -0.0000000 -1.0000000 -0.0000000 -0.0000000 -1.0000000 -0.0000000 -0.0000000 -1.0000000 -0.0000000 -0.0000000 -1.0000000 1.0000000 -0.0000000 0.0000000 1.0000000 -0.0000000 0.0000000 1.0000000 -0.0000000 0.0000000 1.0000000 -0.0000000 0.0000000 -1.0000000 0.0000000 0.0000000 -1.0000000 0.0000000 0.0000000 -1.0000000 0.0000000 0.0000000 -1.0000000 0.0000000 0.0000000 -0.0000000 -0.0000000 -1.0000000 -0.0000000 -0.0000000 -1.0000000 -0.0000000 -0.0000000 -1.0000000 -0.0000000 -0.0000000 -1.0000000 0.0000000 0.0000000 1.0000000 0.0000000 0.0000000 1.0000000 0.0000000 0.0000000 1.0000000 0.0000000 0.0000000 1.0000000 -0.0000000 -1.0000000 -0.0000000 -0.0000000 -1.0000000 -0.0000000 -0.0000000 -1.0000000 -0.0000000 -0.0000000 -1.0000000 -0.0000000 0.0000000 0.0000000 1.0000000 0.0000000 0.0000000 1.0000000 0.0000000 0.0000000 1.0000000 0.0000000 0.0000000 1.0000000 -0.0000000 -1.0000000 -0.0000000 -0.0000000 -1.0000000 -0.0000000 -0.0000000 -1.0000000 -0.0000000 -0.0000000 -1.0000000 -0.0000000 0.0000000 0.0000000 1.0000000 0.0000000 0.0000000 1.0000000 0.0000000 0.0000000 1.0000000 0.0000000 0.0000000 1.0000000 -0.0000000 -1.0000000 -0.0000000 -0.0000000 -1.0000000 -0.0000000 -0.0000000 -1.0000000 -0.0000000 -0.0000000 -1.0000000 -0.0000000 0.0000000 1.0000000 0.0000000 0.0000000 1.0000000 0.0000000 0.0000000 1.0000000 0.0000000 0.0000000 1.0000000 0.0000000 0.0000000 1.0000000 0.0000000 0.0000000 1.0000000 0.0000000 0.0000000 1.0000000 0.0000000 0.0000000 1.0000000 0.0000000 0.0000000 1.0000000 0.0000000 0.0000000 1.0000000 0.0000000 0.0000000 1.0000000 0.0000000 0.0000000 1.0000000 0.0000000</float_array>
                    <technique_common>
                        <accessor count="929" source="#ID10" stride="3">
                            <param name="X" type="float" />
                            <param name="Y" type="float" />
                            <param name="Z" type="float" />
                        </accessor>
                    </technique_common>
                </source>
                <vertices id="ID8">
                    <input semantic="POSITION" source="#ID6" />
                    <input semantic="NORMAL" source="#ID7" />
                </vertices>
                <triangles count="643" material="Material2">
                    <input offset="0" semantic="VERTEX" source="#ID8" />
                    <p>0 1 2 1 0 3 4 5 6 5 4 7 7 4 8 8 4 9 6 5 10 10 5 11 11 5 12 11 12 13 11 13 14 11 14 15 8 9 16 16 9 17 17 9 18 18 9 19 19 9 20 20 9 21 21 9 22 22 9 23 23 9 24 25 11 15 26 2 27 2 26 0 28 29 30 31 32 33 32 31 34 32 34 35 32 35 36 32 36 37 34 31 38 34 38 39 39 38 40 40 38 41 41 38 42 42 38 43 37 36 44 37 44 45 37 45 46 37 46 47 37 47 48 37 48 29 37 29 28 37 28 49 3 50 1 50 3 51 52 53 54 53 52 55 53 55 56 56 55 57 57 55 58 58 55 59 59 55 60 60 55 61 61 55 62 62 55 63 62 64 65 64 62 63 60 66 67 66 60 61 58 68 69 68 58 59 56 70 71 70 56 57 72 73 74 73 72 75 75 76 73 76 75 77 77 27 76 27 77 26 51 78 50 78 51 79 79 80 78 80 79 81 81 82 80 82 81 83 82 84 85 84 82 83 85 86 87 86 85 84 87 88 89 88 87 86 90 91 92 91 90 93 91 93 94 94 93 95 95 93 96 96 93 97 97 93 98 98 93 99 99 93 100 100 101 102 101 100 103 103 100 93 98 104 105 104 98 99 96 106 107 106 96 97 94 108 109 108 94 95 110 111 112 111 110 113 112 111 114 111 113 115 116 111 115 117 118 114 119 120 121 120 119 122 120 122 123 123 122 124 112 118 125 118 112 114 125 118 126 125 126 124 125 124 122 124 127 123 128 129 130 129 128 131 132 133 134 133 132 135 136 137 138 137 136 139 140 141 142 141 140 143 144 145 146 145 144 147 148 149 150 149 148 151 152 153 154 155 156 157 158 157 159 157 158 160 157 160 153 153 160 154 159 157 156 161 154 160 154 161 162 162 161 163 163 161 164 164 161 165 166 167 168 167 166 164 167 164 165 164 169 163 170 171 172 171 170 173 171 173 174 175 171 174 176 177 178 177 176 179 180 181 182 181 180 183 184 185 186 185 184 187 188 189 190 189 188 191 189 191 192 193 189 192 194 195 196 195 194 197 198 199 200 199 198 201 202 203 204 203 202 205 203 205 206 207 203 206 208 209 210 209 208 211 212 213 214 213 212 215 216 217 218 217 216 219 220 221 222 221 220 223 221 223 224 225 221 224 226 227 228 227 226 229 230 231 232 231 230 233 234 235 236 235 234 237 238 239 240 239 238 241 242 243 244 243 242 245 243 245 246 247 243 246 248 249 250 249 248 251 252 253 254 253 252 255 256 257 258 257 256 259 257 259 260 261 257 260 262 263 264 263 262 265 266 267 268 267 266 269 270 271 272 271 270 273 274 275 276 275 274 277 275 277 278 279 275 278 280 281 282 281 280 283 284 285 286 285 284 287 288 289 290 289 288 291 292 293 294 293 292 295 293 295 296 297 293 296 298 299 300 299 298 301 302 303 304 303 302 305 306 307 308 307 306 309 310 311 312 311 310 313 314 315 316 315 314 317 318 319 320 319 318 321 322 323 324 323 322 325 325 322 326 326 322 327 327 322 328 328 322 329 329 322 330 330 322 331 331 322 332 332 322 333 333 322 334 334 322 335 335 322 336 337 338 339 338 337 340 341 342 343 342 341 344 345 346 347 346 345 348 346 348 349 349 348 350 349 350 351 351 350 352 351 352 353 353 352 354 353 354 355 355 354 356 355 356 357 357 356 358 357 358 359 359 358 360 361 362 363 362 361 364 364 361 365 364 365 366 364 366 367 364 367 368 364 368 369 364 369 370 364 370 371 364 371 372 364 372 373 364 373 374 364 374 375 376 377 378 379 380 381 380 379 382 382 379 383 382 383 384 384 383 385 384 385 386 386 385 387 386 387 388 388 387 389 388 389 390 390 389 377 390 377 391 391 377 376 392 393 394 393 392 395 396 397 398 397 396 399 400 397 399 401 402 403 402 401 404 405 406 407 406 405 408 408 405 409 409 405 410 410 405 411 411 405 412 412 405 413 413 405 414 414 405 415 415 405 416 416 405 417 417 405 418 418 405 419 420 421 422 421 420 423 424 425 426 425 424 427 428 429 430 429 428 431 432 433 434 433 432 435 436 437 438 437 436 439 440 441 442 441 440 443 444 445 446 446 447 448 447 446 445 449 450 451 450 449 452 450 452 453 453 452 454 453 454 455 455 454 456 455 456 457 457 456 458 457 458 459 459 458 460 459 460 461 461 460 462 461 462 463 463 462 464 465 466 467 466 465 468 468 465 469 468 469 470 468 470 471 468 471 472 468 472 473 468 473 474 468 474 475 468 475 476 468 476 477 468 477 478 468 478 479 480 481 482 483 484 485 484 483 486 486 483 487 486 487 488 488 487 489 488 489 490 490 489 491 490 491 492 492 491 493 492 493 494 494 493 481 494 481 495 495 481 480 496 497 498 497 496 499 500 501 502 501 500 503 504 505 506 505 504 507 508 509 510 509 508 511 512 513 514 513 512 515 513 515 516 516 515 517 517 515 518 518 515 519 519 515 520 520 515 521 521 515 522 522 515 523 523 515 524 525 526 527 526 525 528 529 530 531 530 529 532 533 534 535 534 533 536 537 538 539 538 537 540 541 542 543 542 541 544 545 546 547 546 545 548 549 550 551 550 549 552 553 554 555 554 553 556 557 558 559 558 557 560 561 562 563 562 561 564 565 566 567 566 565 568 569 570 571 570 569 572 573 574 575 574 573 576 577 578 579 578 577 580 581 582 583 582 581 584 585 586 587 586 585 588 589 590 591 590 589 592 593 594 595 594 593 596 597 598 599 598 597 600 601 602 603 602 601 604 602 604 605 605 604 606 605 606 607 607 606 608 607 608 609 609 608 610 609 610 611 611 610 612 611 612 613 613 612 614 615 616 617 616 615 618 616 618 619 619 618 620 620 618 621 621 618 622 622 618 623 623 618 624 624 618 625 625 618 626 626 618 627 628 627 618 627 628 629 628 630 629 630 628 631 631 632 630 632 631 633 633 634 632 634 633 635 636 637 638 637 636 639 639 636 640 639 640 641 641 640 642 641 642 643 643 642 644 643 644 645 645 644 646 645 646 647 647 646 648 647 648 649 650 651 652 651 650 653 654 655 656 655 654 657 658 659 660 659 658 661 661 662 659 662 661 663 663 664 662 664 663 665 665 666 664 666 665 667 666 657 654 657 666 667 668 669 670 670 671 672 671 670 669 673 674 675 674 673 676 677 678 679 678 677 680 681 682 683 682 681 684 682 684 685 685 684 686 685 686 687 687 686 688 687 688 689 689 688 690 689 690 691 691 690 692 691 692 693 693 692 694 695 680 677 680 695 696 695 697 696 697 695 698 698 699 697 699 698 700 700 701 699 701 700 702 703 704 705 704 703 706 706 703 707 706 707 708 708 707 709 708 709 710 710 709 711 710 711 712 712 711 713 712 713 714 714 713 715 714 715 716 717 718 719 718 720 721 720 718 717 720 717 722 720 723 721 723 720 724 724 725 723 725 724 726 726 727 725 727 726 728 727 729 730 729 727 728 730 731 732 731 730 733 733 730 734 734 730 735 735 730 736 736 730 737 737 730 738 738 730 739 739 730 740 740 730 729 740 741 739 742 743 744 743 742 745 746 747 748 747 746 749 750 751 752 751 750 753 754 755 756 755 754 757 758 759 760 759 758 761 762 759 761 763 764 765 764 763 766 767 765 768 765 767 763 769 768 770 768 769 767 771 770 772 770 771 769 771 524 515 524 771 772 773 774 775 774 773 776 777 776 773 776 777 778 777 779 778 779 777 780 780 781 779 781 780 782 782 783 781 783 782 784 784 719 783 719 784 717 785 786 787 786 785 788 789 790 791 790 789 792 793 794 795 794 793 796 797 798 799 798 797 800 801 802 803 802 801 804 805 806 807 806 805 808 809 810 811 810 809 812 813 814 815 814 813 816 817 818 819 818 817 820 821 822 823 822 821 824 825 826 827 826 825 828 829 830 831 830 829 832 833 834 835 834 833 836 837 838 839 838 837 840 841 842 843 842 841 844 845 846 847 846 845 848 849 850 851 850 849 852 853 854 855 854 853 856 857 858 859 858 857 860 861 862 863 862 861 864 865 866 867 866 865 868 869 870 871 870 869 872 873 874 875 874 873 876 877 878 879 878 877 880 881 882 883 882 881 884 885 886 887 886 885 888 889 890 891 890 889 892 893 894 895 894 893 896 897 898 899 898 897 900 901 902 903 902 901 904 905 906 907 906 905 908 909 910 911 910 909 912 913 914 915 914 913 916 917 918 919 918 917 920 921 922 923 922 921 924 925 926 927 926 925 928</p>
                </triangles>
            </mesh>
        </geometry>
        <geometry id="ID11">
            <mesh>
                <source id="ID14">
                    <float_array id="ID16" count="6">10640.7535670 2947.2416708 0.0000000 10640.7535670 4086.5742704 0.0000000</float_array>
                    <technique_common>
                        <accessor count="2" source="#ID16" stride="3">
                            <param name="X" type="float" />
                            <param name="Y" type="float" />
                            <param name="Z" type="float" />
                        </accessor>
                    </technique_common>
                </source>
                <vertices id="ID15">
                    <input semantic="POSITION" source="#ID14" />
                </vertices>
                <lines count="1" material="Material2">
                    <input offset="0" semantic="VERTEX" source="#ID15" />
                    <p>1 0</p>
                </lines>
            </mesh>
        </geometry>
        <geometry id="ID17">
            <mesh>
                <source id="ID18">
                    <float_array id="ID20" count="6">0.0000000 4086.5742704 0.0000000 0.0000000 2947.2416708 0.0000000</float_array>
                    <technique_common>
                        <accessor count="2" source="#ID20" stride="3">
                            <param name="X" type="float" />
                            <param name="Y" type="float" />
                            <param name="Z" type="float" />
                        </accessor>
                    </technique_common>
                </source>
                <vertices id="ID19">
                    <input semantic="POSITION" source="#ID18" />
                </vertices>
                <lines count="1" material="Material2">
                    <input offset="0" semantic="VERTEX" source="#ID19" />
                    <p>1 0</p>
                </lines>
            </mesh>
        </geometry>
    </library_geometries>
    <library_materials>
        <material id="ID5" name="material">
            <instance_effect url="#ID4" />
        </material>
        <material id="ID12" name="edge_color000255">
            <instance_effect url="#ID13" />
        </material>
    </library_materials>
    <library_effects>
        <effect id="ID4">
            <profile_COMMON>
                <technique sid="COMMON">
                    <lambert>
                        <diffuse>
                            <color>1.0000000 1.0000000 1.0000000 1.0000000</color>
                        </diffuse>
                    </lambert>
                </technique>
            </profile_COMMON>
        </effect>
        <effect id="ID13">
            <profile_COMMON>
                <technique sid="COMMON">
                    <constant>
                        <transparent opaque="A_ONE">
                            <color>0.0000000 0.0000000 0.0000000 1.0000000</color>
                        </transparent>
                        <transparency>
                            <float>1.0000000</float>
                        </transparency>
                    </constant>
                </technique>
            </profile_COMMON>
        </effect>
    </library_effects>
    <scene>
        <instance_visual_scene url="#ID1" />
    </scene>
</COLLADA>
