# Alias OBJ Model File
# Exported from SketchUp, (c) 2000-2006 Google, Inc.
# File units = meters

mtllib 7__Voutes.mtl

g Mesh1 Group1 Model

usemtl FrontColor
v 0 39.4915 -93.0745
vt 0 -2790.43
vn 0 -0.965926 0.258819
v 0 38.046 -96.5642
vt 0 -2939.14
vn 0 -0.866025 0.5
v 270.275 38.046 -96.5642
vt 10640.8 -2939.14
v 270.275 39.4915 -93.0745
vt 10640.8 -2790.43
f 1/1/1 2/2/2 3/3/2 4/4/1 

v 0 51.03 -103.799
vt -4086.57 2009.06
vn -1 0 -0
v 0 25.515 -103.799
vt -4086.57 1004.53
v 0 29.26 -103.306
vt -4067.16 1151.97
v 0 32.7498 -101.86
vt -4010.25 1289.36
v 0 35.7465 -99.561
vt -3919.72 1407.34
vt -3801.74 1497.87
vt -3664.35 1554.78
v 0 39.9845 -89.3295
vt -3516.91 1574.19
v 0 39.4915 -85.5845
vt -3369.47 1554.78
v 0 38.046 -82.0947
vt -3232.07 1497.87
v 0 35.7465 -79.098
vt -3114.09 1407.34
v 0 32.7498 -76.7985
vt -3023.56 1289.36
v 0 29.26 -75.353
vt -2966.65 1151.97
v 0 25.515 -74.8599
vt -2947.24 1004.53
v 0 51.03 -74.8599
vt -2947.24 2009.06
f 5/5/3 6/6/3 7/7/3 8/8/3 9/9/3 2/10/3 1/11/3 10/12/3 11/13/3 12/14/3 13/15/3 14/16/3 15/17/3 16/18/3 17/19/3 

v 2.95695e-12 0 -176.876
vt -6963.62 9.67202e-26
vn -1 -1.7399e-15 -2.47005e-14
v 0 9.01658e-17 -103.799
vt -4086.57 3.54984e-15
v 1.47847e-12 51.03 -176.878
vt -6963.7 2009.06
v 1.47847e-12 7.77799e-17 -176.878
vt -6963.7 3.0622e-15
f 18/20/4 19/21/4 6/6/4 5/5/4 20/22/4 21/23/4 

v 23.1175 7.44535e-17 -161.26
vt -910.136 6348.83
vn 1.77999e-16 -1 -2.62306e-16
v 23.1175 1.53897e-16 -117.532
vt -910.136 4627.26
v 23.1175 7.61167e-17 -117.53
vt -910.136 4627.18
v 33.9515 7.43291e-17 -117.53
vt -1336.67 4627.18
v 33.9515 1.5556e-16 -103.801
vt -1336.67 4086.65
v 33.9515 7.77799e-17 -103.799
vt -1336.67 4086.57
vt -6.31867e-31 4086.57
vt -1.16415e-10 6963.62
v 270.275 1.64465e-13 -176.876
vt -10640.8 6963.62
v 270.275 1.64517e-13 -103.799
vt -10640.8 4086.57
v 242.991 7.77799e-17 -103.799
vt -9566.58 4086.57
v 242.991 1.5556e-16 -103.801
vt -9566.58 4086.65
v 242.991 7.69387e-17 -117.53
vt -9566.58 4627.18
v 256.304 7.94424e-17 -117.53
vt -10090.7 4627.18
v 256.304 1.57222e-16 -117.532
vt -10090.7 4627.26
v 256.304 7.77792e-17 -161.26
vt -10090.7 6348.83
v 256.304 1.55559e-16 -161.262
vt -10090.7 6348.9
v 23.1175 1.52233e-16 -161.262
vt -910.136 6348.9
f 22/24/5 23/25/5 24/26/5 25/27/5 26/28/5 27/29/5 19/30/5 18/31/5 28/32/5 29/33/5 30/34/5 31/35/5 32/36/5 33/37/5 34/38/5 35/39/5 36/40/5 37/41/5 

v 23.1175 24.56 -161.26
vt 6348.83 966.929
vn 1 -3.38485e-15 4.1339e-14
v 23.1175 28.9645 -159.316
vt 6272.3 1140.34
v 23.1175 32.867 -156.497
vt 6161.31 1293.98
v 23.1175 36.0959 -152.926
vt 6020.72 1421.1
v 23.1175 38.5093 -148.76
vt 5856.71 1516.11
v 23.1175 40.0011 -144.183
vt 5676.5 1574.85
v 23.1175 40.5057 -139.396
vt 5488.04 1594.71
v 23.1175 40.0011 -134.609
vt 5299.58 1574.85
v 23.1175 38.5093 -130.032
vt 5119.37 1516.11
v 23.1175 36.0959 -125.866
vt 4955.37 1421.1
v 23.1175 32.867 -122.295
vt 4814.78 1293.98
v 23.1175 28.9645 -119.476
vt 4703.78 1140.34
v 23.1175 24.56 -117.532
vt 4627.26 966.929
vt 4627.26 3.08674e-12
vt 6348.83 3.08361e-12
f 38/42/6 39/43/6 40/44/6 41/45/6 42/46/6 43/47/6 44/48/6 45/49/6 46/50/6 47/51/6 48/52/6 49/53/6 50/54/6 23/55/6 22/56/6 

vt 910.136 -1489.04
vn -3.18743e-32 -0.497408 0.867517
vt 910.136 -1678.58
vn -6.33975e-32 -0.403729 0.914878
v 256.304 24.56 -161.26
vt 10090.7 -1678.58
v 256.304 28.9645 -159.316
vt 10090.7 -1489.04
f 39/57/7 38/58/8 51/59/8 52/60/7 

vt -5488.04 1594.71
vn -1 -1.07194e-16 8.60075e-17
v 23.1175 40.5058 -139.397
vt -5488.08 1594.72
v 23.1175 40.0011 -144.185
vt -5676.58 1574.85
v 23.1175 38.5093 -148.762
vt -5856.79 1516.11
v 23.1175 36.0959 -152.928
vt -6020.79 1421.1
v 23.1175 32.867 -156.499
vt -6161.38 1293.98
v 23.1175 28.9645 -159.318
vt -6272.38 1140.34
v 23.1175 24.56 -161.262
vt -6348.9 966.929
vt -6348.83 966.929
vt -6272.3 1140.34
vt -6161.31 1293.98
vt -6020.72 1421.1
vt -5856.71 1516.11
vt -5676.5 1574.85
f 44/61/9 53/62/9 54/63/9 55/64/9 56/65/9 57/66/9 58/67/9 59/68/9 38/69/9 39/70/9 40/71/9 41/72/9 42/73/9 43/74/9 

vt -910.136 5624.97
vn -7.14987e-21 -0.994491 -0.104826
vt -910.136 5625.01
vn -4.67587e-20 -1 -8.93099e-16
v 256.304 40.5058 -139.397
vt -10090.7 5625.01
v 256.304 40.5057 -139.396
vt -10090.7 5624.97
v 256.304 40.0011 -134.609
vt -10090.7 5435.47
vn -3.59474e-21 -0.978023 -0.208497
vt -910.136 5435.47
f 44/75/10 53/76/11 60/77/11 61/78/10 62/79/12 45/80/12 

vt 910.136 -5290.68
vt 910.136 -5480.22
vn -4.3164e-20 -0.978023 0.208497
v 256.304 40.0011 -144.185
vt 10090.7 -5480.22
vt 10090.7 -5290.68
f 53/81/11 54/82/13 63/83/13 60/84/11 

vt 910.136 -4909.17
vt 910.136 -5098.71
vn -7.50638e-32 -0.913058 0.407829
v 256.304 38.5093 -148.762
vt 10090.7 -5098.71
vt 10090.7 -4909.17
f 54/85/13 55/86/14 64/87/14 63/88/13 

vt 910.136 -4307.72
vt 910.136 -4497.26
vn -2.57551e-19 -0.807961 0.589236
v 256.304 36.0959 -152.928
vt 10090.7 -4497.26
vt 10090.7 -4307.72
f 55/89/14 56/90/15 65/91/15 64/92/14 

vt 910.136 -3512.77
vt 910.136 -3702.31
vn -2.57551e-19 -0.667351 0.744743
v 256.304 32.867 -156.499
vt 10090.7 -3702.31
vt 10090.7 -3512.77
f 56/93/15 57/94/16 66/95/16 65/96/15 

vt 910.136 -2559.25
vt 910.136 -2748.79
vn 3.18743e-32 -0.497408 0.867517
v 256.304 28.9645 -159.318
vt 10090.7 -2748.79
vt 10090.7 -2559.25
f 57/97/16 58/98/17 67/99/17 66/100/16 

vt 910.136 -1489.07
vt 910.136 -1678.62
vn 6.33975e-32 -0.403729 0.914878
v 256.304 24.56 -161.262
vt 10090.7 -1678.62
vt 10090.7 -1489.07
f 58/101/17 59/102/18 68/103/18 67/104/17 

vt -910.136 5.99344e-15
vn 0 0 -1
vt -910.136 966.929
vt -10090.7 966.929
vt -10090.7 6.12437e-15
f 37/105/19 59/106/19 68/107/19 36/108/19 

vt -6348.83 966.929
vn -1 0 7.67628e-10
vt -6348.9 966.929
vt -6348.9 5.99344e-15
vt -6348.83 2.93124e-15
f 38/109/20 59/110/20 37/111/20 22/112/20 

vn 1.42617e-20 -1 -4.03835e-14
f 36/40/21 35/39/21 22/24/21 37/41/21 

vt 6348.83 7.17708e-11
vn 1 -7.11227e-15 2.97743e-14
vt 6348.9 7.17739e-11
vt 6348.9 966.929
vt 6272.38 1140.34
vt 6161.38 1293.98
vt 6020.79 1421.1
vt 5856.79 1516.11
vt 5676.58 1574.85
vt 5488.08 1594.72
vt 5488.04 1594.71
v 256.304 40.0011 -144.183
vt 5676.5 1574.85
v 256.304 38.5093 -148.76
vt 5856.71 1516.11
v 256.304 36.0959 -152.926
vt 6020.72 1421.1
v 256.304 32.867 -156.497
vt 6161.31 1293.98
vt 6272.3 1140.34
vt 6348.83 966.929
f 35/113/22 36/114/22 68/115/22 67/116/22 66/117/22 65/118/22 64/119/22 63/120/22 60/121/22 61/122/22 69/123/22 70/124/22 71/125/22 72/126/22 52/127/22 51/128/22 

vt -6348.83 -3.17269e-11
vn -1 -3.14448e-15 -4.12524e-14
vt -4627.26 -3.17238e-11
v 256.304 24.56 -117.532
vt -4627.26 966.929
v 256.304 28.9645 -119.476
vt -4703.78 1140.34
v 256.304 32.867 -122.295
vt -4814.78 1293.98
v 256.304 36.0959 -125.866
vt -4955.37 1421.1
v 256.304 38.5093 -130.032
vt -5119.37 1516.11
vt -5299.58 1574.85
vt -5488.04 1594.71
vt -5676.5 1574.85
vt -5856.71 1516.11
vt -6020.72 1421.1
vt -6161.31 1293.98
vt -6272.3 1140.34
vt -6348.83 966.929
f 35/129/23 34/130/23 73/131/23 74/132/23 75/133/23 76/134/23 77/135/23 62/136/23 61/137/23 69/138/23 70/139/23 71/140/23 72/141/23 52/142/23 51/143/23 

vt 5488.04 1594.71
vn 1 -1.06543e-17 -2.40147e-17
v 256.304 40.5058 -139.395
vt 5488 1594.72
v 256.304 40.0011 -134.607
vt 5299.51 1574.85
v 256.304 38.5093 -130.03
vt 5119.3 1516.11
v 256.304 36.0959 -125.864
vt 4955.29 1421.1
v 256.304 32.867 -122.293
vt 4814.7 1293.98
v 256.304 28.9645 -119.474
vt 4703.7 1140.34
v 256.304 24.56 -117.53
vt 4627.18 966.929
vt 4627.18 1.10637e-13
vt 4627.26 1.13699e-13
vt 4627.26 966.929
vt 4703.78 1140.34
vt 4814.78 1293.98
vt 4955.37 1421.1
vt 5119.37 1516.11
vt 5299.58 1574.85
f 61/144/24 78/145/24 79/146/24 80/147/24 81/148/24 82/149/24 83/150/24 84/151/24 33/152/24 34/153/24 73/154/24 74/155/24 75/156/24 76/157/24 77/158/24 62/159/24 

v 23.1175 40.5058 -139.395
vt 910.136 5624.94
vn -8.58523e-20 0.994491 0.104826
v 23.1175 40.0011 -134.607
vt 910.136 5435.39
vn -4.3164e-20 0.978023 0.208497
vt 10090.7 5435.39
vt 10090.7 5624.94
f 85/160/25 86/161/26 79/162/26 78/163/25 

vt -4627.26 966.929
vn -1 -6.22977e-14 -6.65011e-14
v 23.1175 24.56 -117.53
vt -4627.18 966.929
v 23.1175 28.9645 -119.474
vt -4703.7 1140.34
v 23.1175 32.867 -122.293
vt -4814.7 1293.98
v 23.1175 36.0959 -125.864
vt -4955.29 1421.1
v 23.1175 38.5093 -130.03
vt -5119.3 1516.11
vt -5299.51 1574.85
vt -5488 1594.72
vt -5488.04 1594.71
vt -5299.58 1574.85
vt -5119.37 1516.11
vt -4955.37 1421.1
vt -4814.78 1293.98
vt -4703.78 1140.34
f 50/164/27 87/165/27 88/166/27 89/167/27 90/168/27 91/169/27 86/170/27 85/171/27 44/172/27 45/173/27 46/174/27 47/175/27 48/176/27 49/177/27 

vt -4627.26 6.05892e-15
vt -4627.18 2.99672e-15
vt -4627.18 966.929
vt -4627.26 966.929
f 23/178/20 24/179/20 87/180/20 50/181/20 

vn -1.65003e-19 -1 -4.03835e-14
v 33.9515 1.52109e-16 -117.532
vt -1336.67 4627.26
f 25/27/28 24/26/28 23/25/28 92/182/28 

v 33.9515 24.56 -117.53
vt 1336.67 966.929
vn 0 0 1
vt 910.136 966.929
vt 910.136 2.99672e-15
vt 1336.67 2.92634e-15
f 93/183/29 87/184/29 24/185/29 25/186/29 

v 251.862 24.56 -117.53
vt 9915.83 2752.75
vn 1.44317e-18 0.403729 0.914878
vt 10090.7 2752.75
vt 10090.7 2942.29
vn 7.25583e-19 0.497408 0.867517
vt 910.136 2942.29
vt 910.136 2752.75
vt 1336.67 2752.75
v 80.751 24.56 -117.53
vt 3179.17 2752.75
v 88.0315 24.56 -117.53
vt 3465.81 2752.75
v 134.831 24.56 -117.53
vt 5308.31 2752.75
v 142.111 24.56 -117.53
vt 5594.94 2752.75
v 188.911 24.56 -117.53
vt 7437.44 2752.75
v 196.191 24.56 -117.53
vt 7724.07 2752.75
v 242.991 24.56 -117.53
vt 9566.58 2752.75
f 94/187/30 84/188/30 83/189/31 88/190/31 87/191/30 93/192/30 95/193/30 96/194/30 97/195/30 98/196/30 99/197/30 100/198/30 101/199/30 

vt 9566.58 3.02908e-15
vt 10090.7 3.12765e-15
vt 10090.7 966.929
vt 9915.83 966.929
vt 9566.58 966.929
f 32/200/29 33/201/29 84/202/29 94/203/29 101/204/29 

v 242.991 1.54719e-16 -117.532
vt -9566.58 4627.26
vn 1.88067e-19 -1 -4.03835e-14
f 102/205/32 34/38/32 33/37/32 32/36/32 

vt -10090.7 6.18985e-15
vt -9566.58 6.09128e-15
v 242.991 24.56 -117.532
vt -9566.58 966.929
v 251.862 24.56 -117.532
vt -9915.83 966.929
f 34/206/19 102/207/19 103/208/19 104/209/19 73/107/19 

vt 4627.18 3.02908e-15
vn 1 0 -7.67628e-10
vt 4627.26 6.09128e-15
vt 4627.26 966.929
vt 4627.18 966.929
f 32/210/33 102/211/33 103/212/33 101/213/33 

v 242.991 24.56 -103.801
vt -4086.65 966.929
vn -1 0 -1.07686e-13
vt -4627.18 966.929
vt -4627.18 3.02908e-15
vt -4086.65 6.1244e-15
f 105/214/34 101/215/34 32/216/34 31/217/34 

v 242.991 24.56 -103.799
vn 0 -1 -0
v 196.191 24.56 -103.799
vt -7724.07 4086.57
v 196.191 24.56 -103.801
vt -7724.07 4086.65
vt -7724.07 4627.18
f 106/34/35 107/218/35 108/219/35 100/220/35 101/36/35 105/35/35 

v 142.111 24.56 -103.799
vt 5594.94 966.929
vn -3.04197e-32 5.4369e-32 1
v 188.911 24.56 -103.799
vt 7437.44 966.929
v 188.911 7.77799e-17 -103.799
vt 7437.44 3.0622e-15
v 196.191 7.77799e-17 -103.799
vt 7724.07 3.0622e-15
vt 7724.07 966.929
vt 9566.58 3.0622e-15
vt 10640.8 6.47703e-12
v 270.275 25.515 -103.799
vt 10640.8 1004.53
vt -1.24312e-28 1004.53
vt -1.24312e-28 3.54984e-15
vt 1336.67 3.0622e-15
v 33.9515 24.56 -103.799
v 80.751 24.56 -103.799
vt 3179.17 966.929
v 80.751 7.77799e-17 -103.799
vt 3179.17 3.0622e-15
v 88.0315 7.77799e-17 -103.799
vt 3465.81 3.0622e-15
v 88.0315 24.56 -103.799
vt 3465.81 966.929
v 134.831 24.56 -103.799
vt 5308.31 966.929
v 134.831 7.77799e-17 -103.799
vt 5308.31 3.0622e-15
v 142.111 7.77799e-17 -103.799
vt 5594.94 3.0622e-15
f 109/221/36 110/222/36 111/223/36 112/224/36 107/225/36 106/204/36 30/226/36 29/227/36 113/228/36 6/229/36 19/230/36 27/231/36 114/183/36 115/232/36 116/233/36 117/234/36 118/235/36 119/236/36 120/237/36 121/238/36 

vt -7437.44 4086.57
vt -5594.94 4086.57
v 142.111 24.56 -103.801
vt -5594.94 4086.65
vt -5594.94 4627.18
vt -7437.44 4627.18
v 188.911 24.56 -103.801
vt -7437.44 4086.65
f 110/239/35 109/240/35 122/241/35 98/242/35 99/243/35 123/244/35 

v 142.111 1.5556e-16 -103.801
vt -4086.65 6.1244e-15
vt -4086.57 3.0622e-15
vt -4086.57 966.929
vt -4086.65 966.929
f 124/245/20 121/246/20 109/247/20 122/248/20 

vt -5308.31 4086.57
vn -2.15308e-34 -1 -4.03835e-14
v 134.831 1.5556e-16 -103.801
vt -5308.31 4086.65
f 120/249/37 125/250/37 124/241/37 121/240/37 

v 134.831 24.56 -103.801
vt 4086.65 966.929
vt 4086.57 966.929
vt 4086.57 3.0622e-15
vt 4086.65 6.1244e-15
f 126/251/33 119/252/33 120/253/33 125/254/33 

vt -3465.81 4086.57
v 88.0315 24.56 -103.801
vt -3465.81 4086.65
vt -3465.81 4627.18
vt -5308.31 4627.18
f 119/249/35 118/255/35 127/256/35 96/257/35 97/258/35 126/250/35 

v 88.0315 1.5556e-16 -103.801
vt -4086.65 6.1244e-15
vt -4086.57 3.0622e-15
vt -4086.57 966.929
vt -4086.65 966.929
f 128/259/20 117/260/20 118/261/20 127/262/20 

vt -3179.17 4086.57
v 80.751 1.5556e-16 -103.801
vt -3179.17 4086.65
f 128/256/37 117/255/37 116/263/37 129/264/37 

v 80.751 24.56 -103.801
vt 4086.65 966.929
vt 4086.57 966.929
vt 4086.57 3.0622e-15
vt 4086.65 6.1244e-15
f 130/265/33 115/266/33 116/267/33 129/268/33 

v 33.9515 24.56 -103.801
vt -3179.17 4627.18
f 115/263/35 114/29/35 131/28/35 93/27/35 95/269/35 130/264/35 

vt -4086.65 6.1244e-15
vt -4086.57 3.0622e-15
vt -4086.57 966.929
vt -4086.65 966.929
f 26/270/20 27/271/20 114/272/20 131/273/20 

vt 4086.65 6.1244e-15
vn 1 0 1.07686e-13
vt 4627.18 2.92634e-15
vt 4627.18 966.929
vt 4086.65 966.929
f 26/274/38 25/275/38 93/276/38 131/277/38 

vt -4627.18 966.929
v 33.9515 24.56 -117.532
vt -4627.26 966.929
vt -4627.26 5.98854e-15
vt -4627.18 2.92634e-15
f 93/278/20 132/279/20 92/280/20 25/281/20 

vt -1336.67 966.929
vt -1336.67 5.98854e-15
vt -910.136 6.05892e-15
f 50/106/19 132/282/19 92/283/19 23/284/19 

vt -10090.7 2752.78
vn -1.38766e-18 -0.403729 -0.914878
vt -9915.83 2752.78
vt -9566.58 2752.78
v 196.191 24.56 -117.532
vt -7724.07 2752.78
v 188.911 24.56 -117.532
vt -7437.44 2752.78
v 142.111 24.56 -117.532
vt -5594.94 2752.78
v 134.831 24.56 -117.532
vt -5308.31 2752.78
v 88.0315 24.56 -117.532
vt -3465.81 2752.78
v 80.751 24.56 -117.532
vt -3179.17 2752.78
vt -1336.67 2752.78
vt -910.136 2752.78
vt -910.136 2942.32
vn -6.97676e-19 -0.497408 -0.867517
vt -10090.7 2942.32
f 73/285/39 104/286/39 103/287/39 133/288/39 134/289/39 135/290/39 136/291/39 137/292/39 138/293/39 132/294/39 50/295/39 49/296/40 74/297/40 

vt 7724.07 4627.18
vn 0 1 -0
vt 7724.07 4627.26
vt 7437.44 4627.26
vt 7437.44 4627.18
f 100/298/41 133/299/41 134/300/41 99/301/41 

vt -4627.18 966.929
vt -4627.26 966.929
v 196.191 1.52109e-16 -117.532
vt -4627.26 5.98854e-15
v 196.191 7.43291e-17 -117.53
vt -4627.18 2.92634e-15
f 100/302/20 133/303/20 139/304/20 140/305/20 

vt -7437.44 966.929
vt -7724.07 966.929
vt -7724.07 5.98854e-15
v 188.911 1.54719e-16 -117.532
vt -7437.44 6.09128e-15
f 134/306/19 133/307/19 139/308/19 141/309/19 

v 188.911 7.69387e-17 -117.53
vn -3.5844e-19 -1 -4.03835e-14
vt -7437.44 4627.26
vt -7724.07 4627.26
f 142/243/42 141/310/42 139/311/42 140/220/42 

vt 4627.18 3.02908e-15
vt 4627.26 6.09128e-15
vt 4627.26 966.929
vt 4627.18 966.929
f 142/312/33 141/313/33 134/314/33 99/315/33 

vt 7437.44 3.02908e-15
vt 7724.07 2.92634e-15
f 100/225/29 99/222/29 142/316/29 140/317/29 

vt -4086.65 966.929
vt -4627.18 966.929
vt -4627.18 3.02908e-15
v 188.911 1.5556e-16 -103.801
vt -4086.65 6.1244e-15
f 123/318/34 99/319/34 142/320/34 143/321/34 

v 196.191 1.5556e-16 -103.801
vn -1.7922e-19 -1 5.82148e-18
f 144/219/43 143/244/43 142/243/43 140/220/43 

f 144/219/37 112/218/37 111/239/37 143/244/37 

vt -4086.65 6.1244e-15
vt -4086.57 3.0622e-15
vt -4086.57 966.929
vt -4086.65 966.929
f 144/322/20 112/323/20 107/324/20 108/325/20 

vt 4086.65 6.1244e-15
vt 4627.18 2.92634e-15
vt 4627.18 966.929
vt 4086.65 966.929
f 144/326/38 140/327/38 100/328/38 108/329/38 

vt 4086.65 966.929
vt 4086.57 966.929
vt 4086.57 3.0622e-15
vt 4086.65 6.1244e-15
f 123/330/33 110/331/33 111/332/33 143/333/33 

vt 5594.94 4627.18
vt 5594.94 4627.26
vt 5308.31 4627.26
vt 5308.31 4627.18
f 98/334/41 135/335/41 136/336/41 97/337/41 

vt -4627.18 966.929
vt -4627.26 966.929
v 142.111 1.52109e-16 -117.532
vt -4627.26 5.98854e-15
v 142.111 7.43291e-17 -117.53
vt -4627.18 2.92634e-15
f 98/338/20 135/339/20 145/340/20 146/341/20 

vt -5308.31 966.929
vt -5594.94 966.929
vt -5594.94 5.98854e-15
v 134.831 1.54719e-16 -117.532
vt -5308.31 6.09128e-15
f 136/342/19 135/343/19 145/344/19 147/345/19 

v 134.831 7.69387e-17 -117.53
vt -5308.31 4627.26
vt -5594.94 4627.26
f 148/258/42 147/346/42 145/347/42 146/242/42 

vt 4627.18 3.02908e-15
vt 4627.26 6.09128e-15
vt 4627.26 966.929
vt 4627.18 966.929
f 148/348/33 147/349/33 136/350/33 97/351/33 

vt 5308.31 3.02908e-15
vt 5594.94 2.92634e-15
f 98/221/29 97/236/29 148/352/29 146/353/29 

vt -4086.65 966.929
vt -4627.18 966.929
vt -4627.18 3.02908e-15
vt -4086.65 6.1244e-15
f 126/354/34 97/355/34 148/356/34 125/357/34 

vn -1.7922e-19 -1 5.82148e-18
f 146/242/44 124/241/44 125/250/44 148/258/44 

vt 4086.65 6.1244e-15
vt 4627.18 2.92634e-15
vt 4627.18 966.929
vt 4086.65 966.929
f 124/358/38 146/359/38 98/360/38 122/361/38 

v 88.0315 1.52109e-16 -117.532
vt -3465.81 5.98854e-15
v 80.751 1.54719e-16 -117.532
vt -3179.17 6.09128e-15
vt -3179.17 966.929
vt -3465.81 966.929
f 149/362/19 150/363/19 138/364/19 137/365/19 

v 80.751 7.69387e-17 -117.53
vt -3179.17 4627.26
vt -3465.81 4627.26
v 88.0315 7.43291e-17 -117.53
f 151/269/42 150/366/42 149/367/42 152/257/42 

vt 4627.18 3.02908e-15
vt 4627.26 6.09128e-15
vt 4627.26 966.929
vt 4627.18 966.929
f 151/368/33 150/369/33 138/370/33 95/371/33 

vt 3465.81 4627.18
vt 3465.81 4627.26
vt 3179.17 4627.26
vt 3179.17 4627.18
f 96/372/41 137/373/41 138/374/41 95/375/41 

vt -4627.18 966.929
vt -4627.26 966.929
vt -4627.26 5.98854e-15
vt -4627.18 2.92634e-15
f 96/376/20 137/377/20 149/378/20 152/379/20 

vt 4086.65 6.1244e-15
vt 4627.18 2.92634e-15
vt 4627.18 966.929
vt 4086.65 966.929
f 128/380/38 152/381/38 96/382/38 127/383/38 

f 128/256/43 129/264/43 151/269/43 152/257/43 

vt -4627.18 3.02908e-15
vt -4086.65 6.1244e-15
vt -4086.65 966.929
vt -4627.18 966.929
f 151/384/34 129/385/34 130/386/34 95/387/34 

vt 3179.17 3.02908e-15
vt 3465.81 2.92634e-15
f 151/388/29 152/389/29 96/235/29 95/232/29 

vt -910.136 3678.91
vt -910.136 3868.45
vn -2.57551e-19 -0.667351 -0.744743
vt -10090.7 3868.45
vt -10090.7 3678.91
f 49/390/40 48/391/45 75/392/45 74/393/40 

vt -910.136 4439.17
vt -910.136 4628.72
vn -2.57551e-19 -0.807961 -0.589236
vt -10090.7 4628.72
vt -10090.7 4439.17
f 48/394/45 47/395/46 76/396/46 75/397/45 

vt -910.136 5000.15
vt -910.136 5189.69
vn 7.50638e-32 -0.913058 -0.407829
vt -10090.7 5189.69
vt -10090.7 5000.15
f 47/398/46 46/399/47 77/400/47 76/401/46 

vt -910.136 5337.19
vt -910.136 5526.73
vt -10090.7 5526.73
vt -10090.7 5337.19
f 46/402/47 45/403/12 62/404/12 77/405/47 

vt 4086.65 966.929
vt 4086.57 966.929
vt 4086.57 3.0622e-15
vt 4086.65 6.1244e-15
f 105/406/33 106/407/33 30/408/33 31/409/33 

vt 4086.57 -1.67564e-11
vn 1 2.18344e-15 6.9748e-15
vt 6963.62 -1.67584e-11
v 270.275 1.64504e-13 -176.878
vt 6963.7 -1.67569e-11
v 270.275 51.03 -176.878
vt 6963.7 2009.06
v 270.275 51.03 -0
vt 7.42171e-11 2009.06
v 270.275 1.64504e-13 -0
vt 7.42171e-11 -1.67569e-11
v 270.275 1.64505e-13 -1.78097
vt 70.1171 -1.67568e-11
v 270.275 0 -1.7829
vt 70.1929 -2.32334e-11
v 270.275 7.77799e-17 -74.8599
vt 2947.24 -2.32304e-11
v 270.275 25.515 -74.8599
vt 2947.24 1004.53
v 270.275 29.26 -75.353
vt 2966.65 1151.97
v 270.275 32.7498 -76.7985
vt 3023.56 1289.36
v 270.275 35.7465 -79.098
vt 3114.09 1407.34
v 270.275 38.046 -82.0947
vt 3232.07 1497.87
v 270.275 39.4915 -85.5845
vt 3369.47 1554.78
v 270.275 39.9845 -89.3295
vt 3516.91 1574.19
vt 3664.35 1554.78
vt 3801.74 1497.87
v 270.275 35.7465 -99.561
vt 3919.72 1407.34
v 270.275 32.7498 -101.86
vt 4010.25 1289.36
v 270.275 29.26 -103.306
vt 4067.16 1151.97
vt 4086.57 1004.53
f 29/410/48 28/411/48 153/412/48 154/413/48 155/414/48 156/415/48 157/416/48 158/417/48 159/418/48 160/419/48 161/420/48 162/421/48 163/422/48 164/423/48 165/424/48 166/425/48 4/426/48 3/427/48 167/428/48 168/429/48 169/430/48 113/431/48 

vt -5.82077e-11 6963.7
vn 7.3573e-20 -1 -3.02881e-14
vt -10640.8 6963.7
f 21/432/49 153/433/49 28/32/49 18/31/49 

vt -10640.8 6.47654e-12
vt -5.82077e-11 3.0622e-15
vt -5.82077e-11 2009.06
vt -10640.8 2009.06
f 153/434/19 21/435/19 20/436/19 154/437/19 

vt -10640.8 0
v 1.47847e-12 51.03 -0
vt -5.82077e-11 0
vt 0 2947.24
vt 0 4086.57
f 154/433/35 155/438/35 170/439/35 17/440/35 5/441/35 20/432/35 

v 1.47847e-12 6.33379e-16 -0
vt 5.82077e-11 2.49362e-14
vn 3.3018e-36 1.57057e-18 1
vt 10640.8 6.47654e-12
vt 10640.8 2009.06
vt 5.82077e-11 2009.06
f 171/442/50 156/443/50 155/444/50 170/445/50 

vt -5.82077e-11 -3.88277e-30
vn 6.07341e-16 -1 1.55708e-16
v 0 7.77799e-17 -1.78097
vt -1.8598e-30 70.1171
vt -10640.8 70.1171
vt -10640.8 -2.17681e-30
f 171/446/51 172/447/51 157/448/51 156/449/51 

vt 9.6783e-25 2009.06
vn -1 -4.74559e-15 1.66272e-14
v 0 1.59697e-16 -74.8599
vt -2947.24 6.28727e-15
v 1.47847e-12 0 -1.7829
vt -70.1929 -2.81768e-25
vt -70.1171 3.0622e-15
vt 9.6783e-25 2.49362e-14
f 170/450/52 17/19/52 16/18/52 173/451/52 174/452/52 172/453/52 171/454/52 

v 80.751 7.77799e-17 -74.8599
vt -3179.17 3.0622e-15
v 80.751 24.56 -74.8599
v 33.9515 24.56 -74.8599
v 33.9515 7.77799e-17 -74.8599
vt -1336.67 3.0622e-15
vt 0 6.28727e-15
vt 0 1004.53
vt -10640.8 1004.53
vt -10640.8 3.0622e-15
v 242.991 7.77799e-17 -74.8599
vt -9566.58 3.0622e-15
v 242.991 24.56 -74.8599
v 196.191 24.56 -74.8599
v 196.191 7.77799e-17 -74.8599
vt -7724.07 3.0622e-15
v 188.911 7.77799e-17 -74.8599
vt -7437.44 3.0622e-15
v 188.911 24.56 -74.8599
v 142.111 24.56 -74.8599
v 142.111 7.77799e-17 -74.8599
vt -5594.94 3.0622e-15
v 134.831 7.77799e-17 -74.8599
vt -5308.31 3.0622e-15
v 134.831 24.56 -74.8599
v 88.0315 24.56 -74.8599
v 88.0315 7.77799e-17 -74.8599
vt -3465.81 3.0622e-15
f 175/455/19 176/364/19 177/282/19 178/456/19 173/457/19 16/458/19 160/459/19 159/460/19 179/461/19 180/208/19 181/307/19 182/462/19 183/463/19 184/306/19 185/343/19 186/464/19 187/465/19 188/342/19 189/365/19 190/466/19 

vt 2947.24 966.929
vn 1 0 7.67628e-10
v 80.751 24.56 -74.858
vt 2947.17 966.929
v 80.751 1.5556e-16 -74.858
vt 2947.17 6.1244e-15
vt 2947.24 3.0622e-15
f 176/467/53 191/468/53 192/469/53 175/470/53 

vt -1336.67 2947.24
vt -3179.17 2947.24
vt -3179.17 2947.17
v 80.751 24.56 -61.1285
vt -3179.17 2406.63
v 33.9515 24.56 -61.1285
vt -1336.67 2406.63
v 33.9515 24.56 -74.858
vt -1336.67 2947.17
f 177/471/35 176/472/35 191/473/35 193/474/35 194/475/35 195/476/35 

vt -2947.17 6.1244e-15
vn -1 0 1.07686e-13
v 80.751 7.69387e-17 -61.1285
vt -2406.63 3.02908e-15
vt -2406.63 966.929
vt -2947.17 966.929
f 192/477/54 196/478/54 193/479/54 191/480/54 

v 88.0315 7.43291e-17 -61.1285
vt -3465.81 2406.63
vn -1.7922e-19 -1 -5.82148e-18
v 88.0315 1.5556e-16 -74.858
vt -3465.81 2947.17
f 197/481/55 196/474/55 192/473/55 198/482/55 

vt -3465.81 2.92634e-15
vt -3179.17 3.02908e-15
v 88.0315 24.56 -61.1285
f 197/483/19 196/484/19 193/364/19 199/365/19 

v 80.751 1.54719e-16 -61.1266
vt -3179.17 2406.56
vn -3.5844e-19 -1 4.03835e-14
v 88.0315 1.52109e-16 -61.1266
vt -3465.81 2406.56
f 200/485/56 196/474/56 197/481/56 201/486/56 

vt 2406.56 6.09128e-15
vt 2406.63 3.02908e-15
vt 2406.63 966.929
v 80.751 24.56 -61.1266
vt 2406.56 966.929
f 200/487/53 196/488/53 193/489/53 202/490/53 

v 88.0315 24.56 -61.1266
vt 3465.81 2406.56
vt 3465.81 2406.63
vt 3179.17 2406.63
vt 3179.17 2406.56
f 203/491/41 199/492/41 193/493/41 202/494/41 

vt -2406.56 966.929
vn -1 0 -7.67628e-10
vt -2406.63 966.929
vt -2406.63 2.92634e-15
vt -2406.56 5.98854e-15
f 203/495/57 199/496/57 197/497/57 201/498/57 

vt 2406.63 2.92634e-15
vn 1 0 -1.07686e-13
vt 2947.17 6.1244e-15
v 88.0315 24.56 -74.858
vt 2947.17 966.929
vt 2406.63 966.929
f 197/499/58 198/500/58 204/501/58 199/502/58 

vt -2947.24 3.0622e-15
vt -2947.17 6.1244e-15
vt -2947.17 966.929
vt -2947.24 966.929
f 190/503/57 198/504/57 204/505/57 189/506/57 

vt -3465.81 2947.24
vn -2.15308e-34 -1 4.03835e-14
f 190/507/59 198/482/59 192/473/59 175/472/59 

vt -5308.31 2947.24
v 134.831 24.56 -74.858
vt -5308.31 2947.17
v 134.831 24.56 -61.1285
vt -5308.31 2406.63
f 189/507/35 188/508/35 205/509/35 206/510/35 199/481/35 204/482/35 

vt 2947.24 966.929
vt 2947.17 966.929
v 134.831 1.5556e-16 -74.858
vt 2947.17 6.1244e-15
vt 2947.24 3.0622e-15
f 188/511/53 205/512/53 207/513/53 187/514/53 

vt -2406.63 966.929
vt -2947.17 966.929
vt -2947.17 6.1244e-15
v 134.831 7.69387e-17 -61.1285
vt -2406.63 3.02908e-15
f 206/515/54 205/516/54 207/517/54 208/518/54 

v 142.111 1.5556e-16 -74.858
vt -5594.94 2947.17
v 142.111 7.43291e-17 -61.1285
vt -5594.94 2406.63
f 209/519/55 210/520/55 208/510/55 207/509/55 

vt 2406.63 2.92634e-15
vt 2947.17 6.1244e-15
v 142.111 24.56 -74.858
vt 2947.17 966.929
v 142.111 24.56 -61.1285
vt 2406.63 966.929
f 210/521/58 209/522/58 211/523/58 212/524/58 

vt -2947.24 3.0622e-15
vt -2947.17 6.1244e-15
vt -2947.17 966.929
vt -2947.24 966.929
f 186/525/57 209/526/57 211/527/57 185/528/57 

vt -5594.94 2947.24
f 207/509/59 187/508/59 186/529/59 209/519/59 

vt -7437.44 2947.24
v 188.911 24.56 -74.858
vt -7437.44 2947.17
v 188.911 24.56 -61.1285
vt -7437.44 2406.63
f 185/529/35 184/530/35 213/531/35 214/532/35 212/520/35 211/519/35 

vt 2947.24 966.929
vt 2947.17 966.929
v 188.911 1.5556e-16 -74.858
vt 2947.17 6.1244e-15
vt 2947.24 3.0622e-15
f 184/533/53 213/534/53 215/535/53 183/536/53 

vt -2947.17 6.1244e-15
v 188.911 7.69387e-17 -61.1285
vt -2406.63 3.02908e-15
vt -2406.63 966.929
vt -2947.17 966.929
f 215/537/54 216/538/54 214/539/54 213/540/54 

vn -1.7922e-19 -1 -5.82148e-18
v 196.191 1.5556e-16 -74.858
vt -7724.07 2947.17
v 196.191 7.43291e-17 -61.1285
vt -7724.07 2406.63
f 216/532/60 215/531/60 217/541/60 218/542/60 

vt -7724.07 2947.24
f 182/543/59 217/541/59 215/531/59 183/530/59 

vt -2947.24 3.0622e-15
vt -2947.17 6.1244e-15
v 196.191 24.56 -74.858
vt -2947.17 966.929
vt -2947.24 966.929
f 182/544/57 217/545/57 219/546/57 181/547/57 

vt 2406.63 2.92634e-15
vt 2947.17 6.1244e-15
vt 2947.17 966.929
v 196.191 24.56 -61.1285
vt 2406.63 966.929
f 218/548/58 217/549/58 219/550/58 220/551/58 

vt -9566.58 2947.24
v 242.991 24.56 -74.858
vt -9566.58 2947.17
v 242.991 24.56 -61.1285
vt -9566.58 2406.63
f 181/543/35 180/552/35 221/553/35 222/554/35 220/542/35 219/541/35 

vt 2947.24 966.929
vt 2947.17 966.929
v 242.991 1.5556e-16 -74.858
vt 2947.17 6.1244e-15
vt 2947.24 3.0622e-15
f 180/555/53 221/556/53 223/557/53 179/558/53 

vt -2947.17 6.1244e-15
v 242.991 7.69387e-17 -61.1285
vt -2406.63 3.02908e-15
vt -2406.63 966.929
vt -2947.17 966.929
f 223/559/54 224/560/54 222/561/54 221/562/54 

vn -7.53093e-20 -1 -9.43818e-19
vt -10640.8 2947.24
vt -10640.8 70.1929
vt -5.82077e-11 70.1929
vt 4.7349e-34 2947.24
v 33.9515 1.5556e-16 -74.858
v 33.9515 7.43291e-17 -61.1285
v 23.1175 7.61167e-17 -61.1285
vt -910.136 2406.63
v 23.1175 1.53897e-16 -61.1266
vt -910.136 2406.56
v 23.1175 7.44535e-17 -17.3988
vt -910.136 684.99
v 23.1175 1.52233e-16 -17.3968
vt -910.136 684.914
v 256.304 1.55559e-16 -17.3968
vt -10090.7 684.914
v 256.304 7.77792e-17 -17.3988
vt -10090.7 684.99
v 256.304 1.57222e-16 -61.1266
vt -10090.7 2406.56
v 256.304 7.94424e-17 -61.1285
vt -10090.7 2406.63
f 179/552/61 159/563/61 158/564/61 174/565/61 173/566/61 178/471/61 225/476/61 226/475/61 227/567/61 228/568/61 229/569/61 230/570/61 231/571/61 232/572/61 233/573/61 234/574/61 224/554/61 223/553/61 

vn 3.04185e-16 -1 4.27259e-11
vt -9.31476e-31 70.1171
f 174/565/62 158/564/62 157/448/62 172/575/62 

vt -2947.24 3.0622e-15
vt -2947.17 6.1244e-15
vt -2947.17 966.929
vt -2947.24 966.929
f 178/576/57 225/577/57 195/578/57 177/579/57 

vt 2406.63 2.92634e-15
vt 2947.17 6.1244e-15
vt 2947.17 966.929
vt 2406.63 966.929
f 226/580/58 225/581/58 195/582/58 194/583/58 

v 33.9515 24.56 -61.1266
vt -2406.56 966.929
vt -2406.63 966.929
vt -2406.63 2.92634e-15
v 33.9515 1.52109e-16 -61.1266
vt -2406.56 5.98854e-15
f 235/584/57 194/585/57 226/586/57 236/587/57 

v 23.1175 24.56 -61.1285
vt -1336.67 2.92634e-15
vt -910.136 2.99672e-15
f 237/106/19 194/282/19 226/588/19 227/589/19 

vn -1.65003e-19 -1 4.03835e-14
vt -1336.67 2406.56
f 226/475/63 236/590/63 228/568/63 227/567/63 

v 23.1175 24.56 -61.1266
vt -910.136 966.929
vt -1336.67 966.929
vt -1336.67 5.98854e-15
vt -910.136 6.05892e-15
f 238/591/19 235/592/19 236/593/19 228/594/19 

v 251.862 24.56 -61.1266
vt 9915.83 -86.976
vn -1.11013e-18 -0.403729 0.914878
v 256.304 24.56 -61.1266
vt 10090.7 -86.976
v 256.304 28.9645 -59.1829
vt 10090.7 102.565
vn -5.58141e-19 -0.497408 0.867517
v 23.1175 28.9645 -59.1829
vt 910.136 102.565
vt 910.136 -86.976
vt 1336.67 -86.976
vt 3179.17 -86.976
vt 3465.81 -86.976
v 134.831 24.56 -61.1266
vt 5308.31 -86.976
v 142.111 24.56 -61.1266
vt 5594.94 -86.976
v 188.911 24.56 -61.1266
vt 7437.44 -86.976
v 196.191 24.56 -61.1266
vt 7724.07 -86.976
v 242.991 24.56 -61.1266
vt 9566.58 -86.976
f 239/595/64 240/596/64 241/597/65 242/598/65 238/599/64 235/600/64 202/601/64 203/602/64 243/603/64 244/604/64 245/605/64 246/606/64 247/607/64 

vt -10090.7 6.18985e-15
v 242.991 1.54719e-16 -61.1266
vt -9566.58 6.09128e-15
vt -9566.58 966.929
vt -9915.83 966.929
vt -10090.7 966.929
f 233/608/19 248/609/19 247/610/19 239/611/19 240/612/19 

vn 1.88067e-19 -1 4.03835e-14
vt -9566.58 2406.56
f 234/574/66 233/573/66 248/613/66 224/554/66 

v 256.304 40.5058 -39.2636
vt 1545.81 1594.72
vn 1 -1.06543e-17 2.40147e-17
v 256.304 40.5057 -39.2627
vt 1545.77 1594.71
v 256.304 40.0011 -44.0495
vt 1734.23 1574.85
v 256.304 38.5093 -48.6269
vt 1914.44 1516.11
v 256.304 36.0959 -52.7926
vt 2078.45 1421.1
v 256.304 32.867 -56.3636
vt 2219.04 1293.98
vt 2330.04 1140.34
vt 2406.56 966.929
vt 2406.56 1.13699e-13
vt 2406.63 1.10637e-13
v 256.304 24.56 -61.1285
vt 2406.63 966.929
v 256.304 28.9645 -59.1848
vt 2330.11 1140.34
v 256.304 32.867 -56.3655
vt 2219.12 1293.98
v 256.304 36.0959 -52.7945
vt 2078.53 1421.1
v 256.304 38.5093 -48.6288
vt 1914.52 1516.11
v 256.304 40.0011 -44.0514
vt 1734.31 1574.85
f 249/614/67 250/615/67 251/616/67 252/617/67 253/618/67 254/619/67 241/620/67 240/621/67 233/622/67 234/623/67 255/624/67 256/625/67 257/626/67 258/627/67 259/628/67 260/629/67 

vt -2406.56 -3.17238e-11
vn -1 -3.14448e-15 4.12524e-14
vt -684.99 -3.17269e-11
v 256.304 24.56 -17.3988
vt -684.99 966.929
v 256.304 28.9645 -19.3424
vt -761.513 1140.34
v 256.304 32.867 -22.1617
vt -872.509 1293.98
v 256.304 36.0959 -25.7327
vt -1013.1 1421.1
v 256.304 38.5093 -29.8985
vt -1177.1 1516.11
v 256.304 40.0011 -34.4758
vt -1357.32 1574.85
vt -1545.77 1594.71
vt -1734.23 1574.85
vt -1914.44 1516.11
vt -2078.45 1421.1
vt -2219.04 1293.98
vt -2330.04 1140.34
vt -2406.56 966.929
f 233/630/68 232/631/68 261/632/68 262/633/68 263/634/68 264/635/68 265/636/68 266/637/68 250/638/68 251/639/68 252/640/68 253/641/68 254/642/68 241/643/68 240/644/68 

vt 684.914 7.17739e-11
vn 1 -7.11227e-15 -2.97743e-14
vt 684.99 7.17708e-11
vt 684.99 966.929
vt 761.513 1140.34
vt 872.509 1293.98
vt 1013.1 1421.1
vt 1177.1 1516.11
vt 1357.32 1574.85
vt 1545.77 1594.71
v 256.304 40.5058 -39.2617
vt 1545.74 1594.72
v 256.304 40.0011 -34.4739
vt 1357.24 1574.85
v 256.304 38.5093 -29.8965
vt 1177.03 1516.11
v 256.304 36.0959 -25.7308
vt 1013.02 1421.1
v 256.304 32.867 -22.1598
vt 872.434 1293.98
v 256.304 28.9645 -19.3405
vt 761.438 1140.34
v 256.304 24.56 -17.3968
vt 684.914 966.929
f 231/645/69 232/646/69 261/647/69 262/648/69 263/649/69 264/650/69 265/651/69 266/652/69 250/653/69 267/654/69 268/655/69 269/656/69 270/657/69 271/658/69 272/659/69 273/660/69 

vt -910.136 2.93124e-15
v 23.1175 24.56 -17.3988
vt -10090.7 3.06217e-15
f 229/661/19 274/106/19 261/107/19 232/662/19 

vt 2406.56 966.929
vn 1 -3.38485e-15 -4.1339e-14
vt 2330.04 1140.34
v 23.1175 32.867 -56.3636
vt 2219.04 1293.98
v 23.1175 36.0959 -52.7926
vt 2078.45 1421.1
v 23.1175 38.5093 -48.6269
vt 1914.44 1516.11
v 23.1175 40.0011 -44.0495
vt 1734.23 1574.85
v 23.1175 40.5057 -39.2627
vt 1545.77 1594.71
v 23.1175 40.0011 -34.4758
vt 1357.32 1574.85
v 23.1175 38.5093 -29.8985
vt 1177.1 1516.11
v 23.1175 36.0959 -25.7327
vt 1013.1 1421.1
v 23.1175 32.867 -22.1617
vt 872.509 1293.98
v 23.1175 28.9645 -19.3424
vt 761.513 1140.34
vt 684.99 966.929
vt 684.99 3.08361e-12
vt 2406.56 3.08674e-12
f 238/663/70 242/664/70 275/665/70 276/666/70 277/667/70 278/668/70 279/669/70 280/670/70 281/671/70 282/672/70 283/673/70 284/674/70 274/675/70 229/676/70 228/677/70 

vt -2406.63 966.929
vn -1 -6.22977e-14 6.65011e-14
vt -2406.56 966.929
vt -2330.04 1140.34
vt -2219.04 1293.98
vt -2078.45 1421.1
vt -1914.44 1516.11
vt -1734.23 1574.85
vt -1545.77 1594.71
v 23.1175 40.5058 -39.2636
vt -1545.81 1594.72
v 23.1175 40.0011 -44.0514
vt -1734.31 1574.85
v 23.1175 38.5093 -48.6288
vt -1914.52 1516.11
v 23.1175 36.0959 -52.7945
vt -2078.53 1421.1
v 23.1175 32.867 -56.3655
vt -2219.12 1293.98
v 23.1175 28.9645 -59.1848
vt -2330.11 1140.34
f 237/678/71 238/679/71 242/680/71 275/681/71 276/682/71 277/683/71 278/684/71 279/685/71 285/686/71 286/687/71 287/688/71 288/689/71 289/690/71 290/691/71 

vt -2406.63 2.99672e-15
vt -2406.56 6.05892e-15
vt -2406.56 966.929
vt -2406.63 966.929
f 227/692/57 228/693/57 238/694/57 237/695/57 

vt 910.136 -250.59
vn 2.57551e-19 -0.667351 0.744743
vt 910.136 -440.131
vt 10090.7 -440.131
vt 10090.7 -250.59
f 275/696/72 242/697/65 241/698/65 254/699/72 

vt 910.136 -588.565
vn 2.57551e-19 -0.807961 0.589236
vt 910.136 -778.106
vt 10090.7 -778.106
vt 10090.7 -588.565
f 276/700/73 275/701/72 254/702/72 253/703/73 

vt 910.136 -896.505
vn -7.08297e-31 -0.913058 0.407829
vt 910.136 -1086.05
vt 10090.7 -1086.05
vt 10090.7 -896.505
f 277/704/74 276/705/73 253/706/73 252/707/74 

vt 910.136 -1160.87
vn -1.493e-31 -0.950779 0.30987
vt 910.136 -1350.41
vt 10090.7 -1350.41
vt 10090.7 -1160.87
f 278/708/75 277/709/74 252/710/74 251/711/75 

v 23.1175 40.5058 -39.2617
vt -1545.74 1594.72
vn -1 -1.07194e-16 -8.60075e-17
vt -1545.77 1594.71
vt -1357.32 1574.85
vt -1177.1 1516.11
vt -1013.1 1421.1
vt -872.509 1293.98
vt -761.513 1140.34
vt -684.99 966.929
v 23.1175 24.56 -17.3968
vt -684.914 966.929
v 23.1175 28.9645 -19.3405
vt -761.438 1140.34
v 23.1175 32.867 -22.1598
vt -872.434 1293.98
v 23.1175 36.0959 -25.7308
vt -1013.02 1421.1
v 23.1175 38.5093 -29.8965
vt -1177.03 1516.11
v 23.1175 40.0011 -34.4739
vt -1357.24 1574.85
f 291/712/76 279/713/76 280/714/76 281/715/76 282/716/76 283/717/76 284/718/76 274/719/76 292/720/76 293/721/76 294/722/76 295/723/76 296/724/76 297/725/76 

vt -684.914 966.929
vt -684.99 966.929
vt -684.99 2.93124e-15
vt -684.914 5.99344e-15
f 292/726/57 274/727/57 229/728/57 230/729/57 

vt 910.136 966.929
vt 910.136 5.99344e-15
vt 10090.7 6.12437e-15
vt 10090.7 966.929
f 292/730/29 230/731/29 231/732/29 273/733/29 

vt -910.136 1161.14
vn 6.33975e-32 -0.403729 -0.914878
vt -910.136 1350.68
vn 1.05582e-30 -0.497408 -0.867517
vt -10090.7 1350.68
vt -10090.7 1161.14
f 292/734/77 293/735/78 272/736/78 273/737/77 

vt -910.136 1370.25
vt -910.136 1559.79
vn 1.02394e-30 -0.667351 -0.744743
vt -10090.7 1559.79
vt -10090.7 1370.25
f 293/738/78 294/739/79 271/740/79 272/741/78 

vt -910.136 1514.97
vt -910.136 1704.51
vn -4.96606e-31 -0.807961 -0.589236
vt -10090.7 1704.51
vt -10090.7 1514.97
f 294/742/79 295/743/80 270/744/80 271/745/79 

vt -910.136 1588.93
vt -910.136 1778.48
vn -4.21542e-31 -0.913058 -0.407829
vt -10090.7 1778.48
vt -10090.7 1588.93
f 295/746/80 296/747/81 269/748/81 270/749/80 

vt -910.136 1588.89
vt -910.136 1778.43
vn -4.3164e-20 -0.978023 -0.208497
vt -10090.7 1778.43
vt -10090.7 1588.89
f 296/750/81 297/751/82 268/752/82 269/753/81 

vt -910.136 1514.85
vt -910.136 1704.39
vn -8.58523e-20 -0.994491 -0.104826
vt -10090.7 1704.39
vt -10090.7 1514.85
f 297/754/82 291/755/83 267/756/83 268/757/82 

vt -10090.7 3.12765e-15
vt -9566.58 3.02908e-15
v 251.862 24.56 -61.1285
f 234/758/19 224/759/19 222/208/19 298/209/19 255/107/19 

vt 2406.56 6.09128e-15
vt 2406.63 3.02908e-15
vt 2406.63 966.929
vt 2406.56 966.929
f 248/760/53 224/761/53 222/762/53 247/763/53 

vt -3465.81 5.98854e-15
vt -3179.17 6.09128e-15
vt -3179.17 966.929
vt -3465.81 966.929
f 201/764/19 200/765/19 202/766/19 203/767/19 

vt 5594.94 2406.56
vt 5594.94 2406.63
vt 5308.31 2406.63
vt 5308.31 2406.56
f 244/768/41 212/769/41 206/770/41 243/771/41 

vt -2406.56 966.929
vt -2406.63 966.929
vt -2406.63 2.92634e-15
v 142.111 1.52109e-16 -61.1266
vt -2406.56 5.98854e-15
f 244/772/57 212/773/57 210/774/57 299/775/57 

vt -5594.94 2.92634e-15
vt -5308.31 3.02908e-15
f 206/342/19 212/343/19 210/776/19 208/777/19 

v 134.831 1.54719e-16 -61.1266
vt -5308.31 2406.56
vt -5594.94 2406.56
f 300/778/56 208/510/56 210/520/56 299/779/56 

vt 2406.56 6.09128e-15
vt 2406.63 3.02908e-15
vt 2406.63 966.929
vt 2406.56 966.929
f 300/780/53 208/781/53 206/782/53 243/783/53 

vt -5308.31 966.929
vt -5594.94 966.929
vt -5594.94 5.98854e-15
vt -5308.31 6.09128e-15
f 243/784/19 244/785/19 299/786/19 300/787/19 

vt 7724.07 2406.56
vt 7724.07 2406.63
vt 7437.44 2406.63
vt 7437.44 2406.56
f 246/788/41 220/789/41 214/790/41 245/791/41 

vt -2406.56 966.929
vt -2406.63 966.929
vt -2406.63 2.92634e-15
v 196.191 1.52109e-16 -61.1266
vt -2406.56 5.98854e-15
f 246/792/57 220/793/57 218/794/57 301/795/57 

vt -7724.07 2.92634e-15
vt -7437.44 3.02908e-15
f 214/306/19 220/307/19 218/796/19 216/797/19 

v 188.911 1.54719e-16 -61.1266
vt -7437.44 2406.56
vt -7724.07 2406.56
f 302/798/56 216/532/56 218/542/56 301/799/56 

vt 2406.56 6.09128e-15
vt 2406.63 3.02908e-15
vt 2406.63 966.929
vt 2406.56 966.929
f 302/800/53 216/801/53 214/802/53 245/803/53 

vt -7437.44 966.929
vt -7724.07 966.929
vt -7724.07 5.98854e-15
vt -7437.44 6.09128e-15
f 245/804/19 246/805/19 301/806/19 302/807/19 

vt 0 1380.63
vn 0 -0.130526 -0.991445
vt 0 1529.34
vn 0 -0.258819 -0.965926
vt -10640.8 1529.34
vt -10640.8 1380.63
f 16/808/84 15/809/85 161/810/85 160/811/84 

vt 0 2199.57
vt 0 2348.28
vn 0 -0.5 -0.866025
vt -10640.8 2348.28
vt -10640.8 2199.57
f 15/812/85 14/813/86 162/814/86 161/815/85 

vt 0 2863.55
vt 0 3012.26
vn 0 -0.707107 -0.707107
vt -10640.8 3012.26
vt -10640.8 2863.55
f 14/816/86 13/817/87 163/818/87 162/819/86 

vt 0 3327.31
vt 0 3476.02
vn 0 -0.866025 -0.5
vt -10640.8 3476.02
vt -10640.8 3327.31
f 13/820/87 12/821/88 164/822/88 163/823/87 

vt 0 3559.26
vt 0 3707.97
vn 0 -0.965926 -0.258819
vt -10640.8 3707.97
vt -10640.8 3559.26
f 12/824/88 11/825/89 165/826/89 164/827/88 

vt 0 3543.58
vt 0 3692.29
vn 0 -1 7.69865e-16
vt -10640.8 3692.29
vt -10640.8 3543.58
f 11/828/89 10/829/90 166/830/90 165/831/89 

vt 0 -3281.35
vt 0 -3430.06
vt 10640.8 -3430.06
vt 10640.8 -3281.35
f 10/832/90 1/833/1 4/834/1 166/835/90 

vt 0 -2104.28
vt 0 -2252.99
vn 0 -0.707107 0.707107
vt 10640.8 -2252.99
vt 10640.8 -2104.28
f 2/836/2 9/837/91 167/838/91 3/839/2 

vt 0 -1269.66
vt 0 -1418.37
vn 0 -0.5 0.866025
vt 10640.8 -1418.37
vt 10640.8 -1269.66
f 9/840/91 8/841/92 168/842/92 167/843/91 

vt 0 -343.444
vt 0 -492.156
vn 0 -0.258819 0.965926
vt 10640.8 -492.156
vt 10640.8 -343.444
f 8/844/92 7/845/93 169/846/93 168/847/92 

vt 0 611.241
vt 0 462.529
vn 0 -0.130526 0.991445
vt 10640.8 462.529
vt 10640.8 611.241
f 7/848/93 6/849/94 113/850/94 169/851/93 

vt 910.136 3868.41
vn -2.57551e-19 0.667351 0.744743
vt 910.136 3678.87
vt 10090.7 3678.87
vt 10090.7 3868.41
f 89/852/95 88/853/31 83/854/31 82/855/95 

vt 910.136 4628.66
vn -2.57551e-19 0.807961 0.589236
vt 910.136 4439.12
vt 10090.7 4439.12
vt 10090.7 4628.66
f 90/856/96 89/857/95 82/858/95 81/859/96 

vt 910.136 5189.63
vn 7.50638e-32 0.913058 0.407829
vt 910.136 5000.09
vt 10090.7 5000.09
vt 10090.7 5189.63
f 91/860/97 90/861/96 81/862/96 80/863/97 

vt 910.136 5526.66
vt 910.136 5337.12
vt 10090.7 5337.12
vt 10090.7 5526.66
f 86/864/26 91/865/97 80/866/97 79/867/26 

vt 910.136 -4909.1
vn 1.493e-31 -0.950779 0.30987
vt 910.136 -5098.64
vn 7.50638e-32 -0.913058 0.407829
vt 10090.7 -5098.64
vt 10090.7 -4909.1
f 43/868/98 42/869/99 70/870/99 69/871/98 

vt 910.136 -4307.66
vt 910.136 -4497.2
vn 2.57551e-19 -0.807961 0.589236
vt 10090.7 -4497.2
vt 10090.7 -4307.66
f 42/872/99 41/873/100 71/874/100 70/875/99 

vt 910.136 -3512.71
vt 910.136 -3702.25
vn 2.57551e-19 -0.667351 0.744743
vt 10090.7 -3702.25
vt 10090.7 -3512.71
f 41/876/100 40/877/101 72/878/101 71/879/100 

vt 910.136 -2559.2
vt 910.136 -2748.74
vt 10090.7 -2748.74
vt 10090.7 -2559.2
f 40/880/101 39/881/7 52/882/7 72/883/101 

vt -910.136 2.93124e-15
vt -910.136 966.929
vt -10090.7 966.929
vt -10090.7 3.06217e-15
f 22/884/19 38/885/19 51/886/19 35/887/19 

