{

    "metadata" :
    {
        "formatVersion" : 3.1,
        "sourceFile"    : "7__Voutes.obj",
        "generatedBy"   : "OBJConverter",
        "vertices"      : 302,
        "faces"         : 185,
        "normals"       : 101,
        "colors"        : 0,
        "uvs"           : 887,
        "materials"     : 1
    },

    "scale" : 1.000000,

    "materials": [	{
	"DbgColor" : 15658734,
	"DbgIndex" : 0,
	"DbgName" : "FrontColor",
	"colorAmbient" : [0.0, 0.0, 0.0],
	"colorDiffuse" : [1.0, 1.0, 1.0],
	"colorSpecular" : [0.33, 0.33, 0.33]
	}],

    "vertices": [0.000000,39.491500,-93.074500,0.000000,38.046000,-96.564200,270.275000,38.046000,-96.564200,270.275000,39.491500,-93.074500,0.000000,51.030000,-103.799000,0.000000,25.515000,-103.799000,0.000000,29.260000,-103.306000,0.000000,32.749800,-101.860000,0.000000,35.746500,-99.561000,0.000000,39.984500,-89.329500,0.000000,39.491500,-85.584500,0.000000,38.046000,-82.094700,0.000000,35.746500,-79.098000,0.000000,32.749800,-76.798500,0.000000,29.260000,-75.353000,0.000000,25.515000,-74.859900,0.000000,51.030000,-74.859900,0.000000,0.000000,-176.876000,0.000000,0.000000,-103.799000,0.000000,51.030000,-176.878000,0.000000,0.000000,-176.878000,23.117500,0.000000,-161.260000,23.117500,0.000000,-117.532000,23.117500,0.000000,-117.530000,33.951500,0.000000,-117.530000,33.951500,0.000000,-103.801000,33.951500,0.000000,-103.799000,270.275000,0.000000,-176.876000,270.275000,0.000000,-103.799000,242.991000,0.000000,-103.799000,242.991000,0.000000,-103.801000,242.991000,0.000000,-117.530000,256.304000,0.000000,-117.530000,256.304000,0.000000,-117.532000,256.304000,0.000000,-161.260000,256.304000,0.000000,-161.262000,23.117500,0.000000,-161.262000,23.117500,24.560000,-161.260000,23.117500,28.964500,-159.316000,23.117500,32.867000,-156.497000,23.117500,36.095900,-152.926000,23.117500,38.509300,-148.760000,23.117500,40.001100,-144.183000,23.117500,40.505700,-139.396000,23.117500,40.001100,-134.609000,23.117500,38.509300,-130.032000,23.117500,36.095900,-125.866000,23.117500,32.867000,-122.295000,23.117500,28.964500,-119.476000,23.117500,24.560000,-117.532000,256.304000,24.560000,-161.260000,256.304000,28.964500,-159.316000,23.117500,40.505800,-139.397000,23.117500,40.001100,-144.185000,23.117500,38.509300,-148.762000,23.117500,36.095900,-152.928000,23.117500,32.867000,-156.499000,23.117500,28.964500,-159.318000,23.117500,24.560000,-161.262000,256.304000,40.505800,-139.397000,256.304000,40.505700,-139.396000,256.304000,40.001100,-134.609000,256.304000,40.001100,-144.185000,256.304000,38.509300,-148.762000,256.304000,36.095900,-152.928000,256.304000,32.867000,-156.499000,256.304000,28.964500,-159.318000,256.304000,24.560000,-161.262000,256.304000,40.001100,-144.183000,256.304000,38.509300,-148.760000,256.304000,36.095900,-152.926000,256.304000,32.867000,-156.497000,256.304000,24.560000,-117.532000,256.304000,28.964500,-119.476000,256.304000,32.867000,-122.295000,256.304000,36.095900,-125.866000,256.304000,38.509300,-130.032000,256.304000,40.505800,-139.395000,256.304000,40.001100,-134.607000,256.304000,38.509300,-130.030000,256.304000,36.095900,-125.864000,256.304000,32.867000,-122.293000,256.304000,28.964500,-119.474000,256.304000,24.560000,-117.530000,23.117500,40.505800,-139.395000,23.117500,40.001100,-134.607000,23.117500,24.560000,-117.530000,23.117500,28.964500,-119.474000,23.117500,32.867000,-122.293000,23.117500,36.095900,-125.864000,23.117500,38.509300,-130.030000,33.951500,0.000000,-117.532000,33.951500,24.560000,-117.530000,251.862000,24.560000,-117.530000,80.751000,24.560000,-117.530000,88.031500,24.560000,-117.530000,134.831000,24.560000,-117.530000,142.111000,24.560000,-117.530000,188.911000,24.560000,-117.530000,196.191000,24.560000,-117.530000,242.991000,24.560000,-117.530000,242.991000,0.000000,-117.532000,242.991000,24.560000,-117.532000,251.862000,24.560000,-117.532000,242.991000,24.560000,-103.801000,242.991000,24.560000,-103.799000,196.191000,24.560000,-103.799000,196.191000,24.560000,-103.801000,142.111000,24.560000,-103.799000,188.911000,24.560000,-103.799000,188.911000,0.000000,-103.799000,196.191000,0.000000,-103.799000,270.275000,25.515000,-103.799000,33.951500,24.560000,-103.799000,80.751000,24.560000,-103.799000,80.751000,0.000000,-103.799000,88.031500,0.000000,-103.799000,88.031500,24.560000,-103.799000,134.831000,24.560000,-103.799000,134.831000,0.000000,-103.799000,142.111000,0.000000,-103.799000,142.111000,24.560000,-103.801000,188.911000,24.560000,-103.801000,142.111000,0.000000,-103.801000,134.831000,0.000000,-103.801000,134.831000,24.560000,-103.801000,88.031500,24.560000,-103.801000,88.031500,0.000000,-103.801000,80.751000,0.000000,-103.801000,80.751000,24.560000,-103.801000,33.951500,24.560000,-103.801000,33.951500,24.560000,-117.532000,196.191000,24.560000,-117.532000,188.911000,24.560000,-117.532000,142.111000,24.560000,-117.532000,134.831000,24.560000,-117.532000,88.031500,24.560000,-117.532000,80.751000,24.560000,-117.532000,196.191000,0.000000,-117.532000,196.191000,0.000000,-117.530000,188.911000,0.000000,-117.532000,188.911000,0.000000,-117.530000,188.911000,0.000000,-103.801000,196.191000,0.000000,-103.801000,142.111000,0.000000,-117.532000,142.111000,0.000000,-117.530000,134.831000,0.000000,-117.532000,134.831000,0.000000,-117.530000,88.031500,0.000000,-117.532000,80.751000,0.000000,-117.532000,80.751000,0.000000,-117.530000,88.031500,0.000000,-117.530000,270.275000,0.000000,-176.878000,270.275000,51.030000,-176.878000,270.275000,51.030000,-0.000000,270.275000,0.000000,-0.000000,270.275000,0.000000,-1.780970,270.275000,0.000000,-1.782900,270.275000,0.000000,-74.859900,270.275000,25.515000,-74.859900,270.275000,29.260000,-75.353000,270.275000,32.749800,-76.798500,270.275000,35.746500,-79.098000,270.275000,38.046000,-82.094700,270.275000,39.491500,-85.584500,270.275000,39.984500,-89.329500,270.275000,35.746500,-99.561000,270.275000,32.749800,-101.860000,270.275000,29.260000,-103.306000,0.000000,51.030000,-0.000000,0.000000,0.000000,-0.000000,0.000000,0.000000,-1.780970,0.000000,0.000000,-74.859900,0.000000,0.000000,-1.782900,80.751000,0.000000,-74.859900,80.751000,24.560000,-74.859900,33.951500,24.560000,-74.859900,33.951500,0.000000,-74.859900,242.991000,0.000000,-74.859900,242.991000,24.560000,-74.859900,196.191000,24.560000,-74.859900,196.191000,0.000000,-74.859900,188.911000,0.000000,-74.859900,188.911000,24.560000,-74.859900,142.111000,24.560000,-74.859900,142.111000,0.000000,-74.859900,134.831000,0.000000,-74.859900,134.831000,24.560000,-74.859900,88.031500,24.560000,-74.859900,88.031500,0.000000,-74.859900,80.751000,24.560000,-74.858000,80.751000,0.000000,-74.858000,80.751000,24.560000,-61.128500,33.951500,24.560000,-61.128500,33.951500,24.560000,-74.858000,80.751000,0.000000,-61.128500,88.031500,0.000000,-61.128500,88.031500,0.000000,-74.858000,88.031500,24.560000,-61.128500,80.751000,0.000000,-61.126600,88.031500,0.000000,-61.126600,80.751000,24.560000,-61.126600,88.031500,24.560000,-61.126600,88.031500,24.560000,-74.858000,134.831000,24.560000,-74.858000,134.831000,24.560000,-61.128500,134.831000,0.000000,-74.858000,134.831000,0.000000,-61.128500,142.111000,0.000000,-74.858000,142.111000,0.000000,-61.128500,142.111000,24.560000,-74.858000,142.111000,24.560000,-61.128500,188.911000,24.560000,-74.858000,188.911000,24.560000,-61.128500,188.911000,0.000000,-74.858000,188.911000,0.000000,-61.128500,196.191000,0.000000,-74.858000,196.191000,0.000000,-61.128500,196.191000,24.560000,-74.858000,196.191000,24.560000,-61.128500,242.991000,24.560000,-74.858000,242.991000,24.560000,-61.128500,242.991000,0.000000,-74.858000,242.991000,0.000000,-61.128500,33.951500,0.000000,-74.858000,33.951500,0.000000,-61.128500,23.117500,0.000000,-61.128500,23.117500,0.000000,-61.126600,23.117500,0.000000,-17.398800,23.117500,0.000000,-17.396800,256.304000,0.000000,-17.396800,256.304000,0.000000,-17.398800,256.304000,0.000000,-61.126600,256.304000,0.000000,-61.128500,33.951500,24.560000,-61.126600,33.951500,0.000000,-61.126600,23.117500,24.560000,-61.128500,23.117500,24.560000,-61.126600,251.862000,24.560000,-61.126600,256.304000,24.560000,-61.126600,256.304000,28.964500,-59.182900,23.117500,28.964500,-59.182900,134.831000,24.560000,-61.126600,142.111000,24.560000,-61.126600,188.911000,24.560000,-61.126600,196.191000,24.560000,-61.126600,242.991000,24.560000,-61.126600,242.991000,0.000000,-61.126600,256.304000,40.505800,-39.263600,256.304000,40.505700,-39.262700,256.304000,40.001100,-44.049500,256.304000,38.509300,-48.626900,256.304000,36.095900,-52.792600,256.304000,32.867000,-56.363600,256.304000,24.560000,-61.128500,256.304000,28.964500,-59.184800,256.304000,32.867000,-56.365500,256.304000,36.095900,-52.794500,256.304000,38.509300,-48.628800,256.304000,40.001100,-44.051400,256.304000,24.560000,-17.398800,256.304000,28.964500,-19.342400,256.304000,32.867000,-22.161700,256.304000,36.095900,-25.732700,256.304000,38.509300,-29.898500,256.304000,40.001100,-34.475800,256.304000,40.505800,-39.261700,256.304000,40.001100,-34.473900,256.304000,38.509300,-29.896500,256.304000,36.095900,-25.730800,256.304000,32.867000,-22.159800,256.304000,28.964500,-19.340500,256.304000,24.560000,-17.396800,23.117500,24.560000,-17.398800,23.117500,32.867000,-56.363600,23.117500,36.095900,-52.792600,23.117500,38.509300,-48.626900,23.117500,40.001100,-44.049500,23.117500,40.505700,-39.262700,23.117500,40.001100,-34.475800,23.117500,38.509300,-29.898500,23.117500,36.095900,-25.732700,23.117500,32.867000,-22.161700,23.117500,28.964500,-19.342400,23.117500,40.505800,-39.263600,23.117500,40.001100,-44.051400,23.117500,38.509300,-48.628800,23.117500,36.095900,-52.794500,23.117500,32.867000,-56.365500,23.117500,28.964500,-59.184800,23.117500,40.505800,-39.261700,23.117500,24.560000,-17.396800,23.117500,28.964500,-19.340500,23.117500,32.867000,-22.159800,23.117500,36.095900,-25.730800,23.117500,38.509300,-29.896500,23.117500,40.001100,-34.473900,251.862000,24.560000,-61.128500,142.111000,0.000000,-61.126600,134.831000,0.000000,-61.126600,196.191000,0.000000,-61.126600,188.911000,0.000000,-61.126600],

    "morphTargets": [],

    "morphColors": [],

    "normals": [0,-0.96593,0.25882,0,-0.86603,0.5,-1,0,-0,-1,-1.7399e-15,-2.47e-14,1.78e-16,-1,-2.6231e-16,1,-3.3849e-15,4.1339e-14,-3.1874e-32,-0.49741,0.86752,-6.3398e-32,-0.40373,0.91488,-1,-1.0719e-16,8.6007e-17,-7.1499e-21,-0.99449,-0.10483,-4.6759e-20,-1,-8.931e-16,-3.5947e-21,-0.97802,-0.2085,-4.3164e-20,-0.97802,0.2085,-7.5064e-32,-0.91306,0.40783,-2.5755e-19,-0.80796,0.58924,-2.5755e-19,-0.66735,0.74474,3.1874e-32,-0.49741,0.86752,6.3398e-32,-0.40373,0.91488,0,0,-1,-1,0,7.6763e-10,1.4262e-20,-1,-4.0384e-14,1,-7.1123e-15,2.9774e-14,-1,-3.1445e-15,-4.1252e-14,1,-1.0654e-17,-2.4015e-17,-8.5852e-20,0.99449,0.10483,-4.3164e-20,0.97802,0.2085,-1,-6.2298e-14,-6.6501e-14,-1.65e-19,-1,-4.0384e-14,0,0,1,1.4432e-18,0.40373,0.91488,7.2558e-19,0.49741,0.86752,1.8807e-19,-1,-4.0384e-14,1,0,-7.6763e-10,-1,0,-1.0769e-13,0,-1,-0,-3.042e-32,5.4369e-32,1,-2.1531e-34,-1,-4.0384e-14,1,0,1.0769e-13,-1.3877e-18,-0.40373,-0.91488,-6.9768e-19,-0.49741,-0.86752,0,1,-0,-3.5844e-19,-1,-4.0384e-14,-1.7922e-19,-1,5.8215e-18,-1.7922e-19,-1,5.8215e-18,-2.5755e-19,-0.66735,-0.74474,-2.5755e-19,-0.80796,-0.58924,7.5064e-32,-0.91306,-0.40783,1,2.1834e-15,6.9748e-15,7.3573e-20,-1,-3.0288e-14,3.3018e-36,1.5706e-18,1,6.0734e-16,-1,1.5571e-16,-1,-4.7456e-15,1.6627e-14,1,0,7.6763e-10,-1,0,1.0769e-13,-1.7922e-19,-1,-5.8215e-18,-3.5844e-19,-1,4.0384e-14,-1,0,-7.6763e-10,1,0,-1.0769e-13,-2.1531e-34,-1,4.0384e-14,-1.7922e-19,-1,-5.8215e-18,-7.5309e-20,-1,-9.4382e-19,3.0418e-16,-1,4.2726e-11,-1.65e-19,-1,4.0384e-14,-1.1101e-18,-0.40373,0.91488,-5.5814e-19,-0.49741,0.86752,1.8807e-19,-1,4.0384e-14,1,-1.0654e-17,2.4015e-17,-1,-3.1445e-15,4.1252e-14,1,-7.1123e-15,-2.9774e-14,1,-3.3849e-15,-4.1339e-14,-1,-6.2298e-14,6.6501e-14,2.5755e-19,-0.66735,0.74474,2.5755e-19,-0.80796,0.58924,-7.083e-31,-0.91306,0.40783,-1.493e-31,-0.95078,0.30987,-1,-1.0719e-16,-8.6007e-17,6.3398e-32,-0.40373,-0.91488,1.0558e-30,-0.49741,-0.86752,1.0239e-30,-0.66735,-0.74474,-4.9661e-31,-0.80796,-0.58924,-4.2154e-31,-0.91306,-0.40783,-4.3164e-20,-0.97802,-0.2085,-8.5852e-20,-0.99449,-0.10483,0,-0.13053,-0.99145,0,-0.25882,-0.96593,0,-0.5,-0.86603,0,-0.70711,-0.70711,0,-0.86603,-0.5,0,-0.96593,-0.25882,0,-1,7.6987e-16,0,-0.70711,0.70711,0,-0.5,0.86603,0,-0.25882,0.96593,0,-0.13053,0.99145,-2.5755e-19,0.66735,0.74474,-2.5755e-19,0.80796,0.58924,7.5064e-32,0.91306,0.40783,1.493e-31,-0.95078,0.30987,7.5064e-32,-0.91306,0.40783,2.5755e-19,-0.80796,0.58924,2.5755e-19,-0.66735,0.74474],

    "colors": [],

    "uvs": [[0,-2790.4,0,-2939.1,10641,-2939.1,10641,-2790.4,-4086.6,2009.1,-4086.6,1004.5,-4067.2,1152,-4010.2,1289.4,-3919.7,1407.3,-3801.7,1497.9,-3664.3,1554.8,-3516.9,1574.2,-3369.5,1554.8,-3232.1,1497.9,-3114.1,1407.3,-3023.6,1289.4,-2966.7,1152,-2947.2,1004.5,-2947.2,2009.1,-6963.6,9.672e-26,-4086.6,3.5498e-15,-6963.7,2009.1,-6963.7,3.0622e-15,-910.14,6348.8,-910.14,4627.3,-910.14,4627.2,-1336.7,4627.2,-1336.7,4086.7,-1336.7,4086.6,-6.3187e-31,4086.6,-1.1642e-10,6963.6,-10641,6963.6,-10641,4086.6,-9566.6,4086.6,-9566.6,4086.7,-9566.6,4627.2,-10091,4627.2,-10091,4627.3,-10091,6348.8,-10091,6348.9,-910.14,6348.9,6348.8,966.93,6272.3,1140.3,6161.3,1294,6020.7,1421.1,5856.7,1516.1,5676.5,1574.8,5488,1594.7,5299.6,1574.8,5119.4,1516.1,4955.4,1421.1,4814.8,1294,4703.8,1140.3,4627.3,966.93,4627.3,3.0867e-12,6348.8,3.0836e-12,910.14,-1489,910.14,-1678.6,10091,-1678.6,10091,-1489,-5488,1594.7,-5488.1,1594.7,-5676.6,1574.8,-5856.8,1516.1,-6020.8,1421.1,-6161.4,1294,-6272.4,1140.3,-6348.9,966.93,-6348.8,966.93,-6272.3,1140.3,-6161.3,1294,-6020.7,1421.1,-5856.7,1516.1,-5676.5,1574.8,-910.14,5625,-910.14,5625,-10091,5625,-10091,5625,-10091,5435.5,-910.14,5435.5,910.14,-5290.7,910.14,-5480.2,10091,-5480.2,10091,-5290.7,910.14,-4909.2,910.14,-5098.7,10091,-5098.7,10091,-4909.2,910.14,-4307.7,910.14,-4497.3,10091,-4497.3,10091,-4307.7,910.14,-3512.8,910.14,-3702.3,10091,-3702.3,10091,-3512.8,910.14,-2559.2,910.14,-2748.8,10091,-2748.8,10091,-2559.2,910.14,-1489.1,910.14,-1678.6,10091,-1678.6,10091,-1489.1,-910.14,5.9934e-15,-910.14,966.93,-10091,966.93,-10091,6.1244e-15,-6348.8,966.93,-6348.9,966.93,-6348.9,5.9934e-15,-6348.8,2.9312e-15,6348.8,7.1771e-11,6348.9,7.1774e-11,6348.9,966.93,6272.4,1140.3,6161.4,1294,6020.8,1421.1,5856.8,1516.1,5676.6,1574.8,5488.1,1594.7,5488,1594.7,5676.5,1574.8,5856.7,1516.1,6020.7,1421.1,6161.3,1294,6272.3,1140.3,6348.8,966.93,-6348.8,-3.1727e-11,-4627.3,-3.1724e-11,-4627.3,966.93,-4703.8,1140.3,-4814.8,1294,-4955.4,1421.1,-5119.4,1516.1,-5299.6,1574.8,-5488,1594.7,-5676.5,1574.8,-5856.7,1516.1,-6020.7,1421.1,-6161.3,1294,-6272.3,1140.3,-6348.8,966.93,5488,1594.7,5488,1594.7,5299.5,1574.8,5119.3,1516.1,4955.3,1421.1,4814.7,1294,4703.7,1140.3,4627.2,966.93,4627.2,1.1064e-13,4627.3,1.137e-13,4627.3,966.93,4703.8,1140.3,4814.8,1294,4955.4,1421.1,5119.4,1516.1,5299.6,1574.8,910.14,5624.9,910.14,5435.4,10091,5435.4,10091,5624.9,-4627.3,966.93,-4627.2,966.93,-4703.7,1140.3,-4814.7,1294,-4955.3,1421.1,-5119.3,1516.1,-5299.5,1574.8,-5488,1594.7,-5488,1594.7,-5299.6,1574.8,-5119.4,1516.1,-4955.4,1421.1,-4814.8,1294,-4703.8,1140.3,-4627.3,6.0589e-15,-4627.2,2.9967e-15,-4627.2,966.93,-4627.3,966.93,-1336.7,4627.3,1336.7,966.93,910.14,966.93,910.14,2.9967e-15,1336.7,2.9263e-15,9915.8,2752.8,10091,2752.8,10091,2942.3,910.14,2942.3,910.14,2752.8,1336.7,2752.8,3179.2,2752.8,3465.8,2752.8,5308.3,2752.8,5594.9,2752.8,7437.4,2752.8,7724.1,2752.8,9566.6,2752.8,9566.6,3.0291e-15,10091,3.1276e-15,10091,966.93,9915.8,966.93,9566.6,966.93,-9566.6,4627.3,-10091,6.1899e-15,-9566.6,6.0913e-15,-9566.6,966.93,-9915.8,966.93,4627.2,3.0291e-15,4627.3,6.0913e-15,4627.3,966.93,4627.2,966.93,-4086.7,966.93,-4627.2,966.93,-4627.2,3.0291e-15,-4086.7,6.1244e-15,-7724.1,4086.6,-7724.1,4086.7,-7724.1,4627.2,5594.9,966.93,7437.4,966.93,7437.4,3.0622e-15,7724.1,3.0622e-15,7724.1,966.93,9566.6,3.0622e-15,10641,6.477e-12,10641,1004.5,-1.2431e-28,1004.5,-1.2431e-28,3.5498e-15,1336.7,3.0622e-15,3179.2,966.93,3179.2,3.0622e-15,3465.8,3.0622e-15,3465.8,966.93,5308.3,966.93,5308.3,3.0622e-15,5594.9,3.0622e-15,-7437.4,4086.6,-5594.9,4086.6,-5594.9,4086.7,-5594.9,4627.2,-7437.4,4627.2,-7437.4,4086.7,-4086.7,6.1244e-15,-4086.6,3.0622e-15,-4086.6,966.93,-4086.7,966.93,-5308.3,4086.6,-5308.3,4086.7,4086.7,966.93,4086.6,966.93,4086.6,3.0622e-15,4086.7,6.1244e-15,-3465.8,4086.6,-3465.8,4086.7,-3465.8,4627.2,-5308.3,4627.2,-4086.7,6.1244e-15,-4086.6,3.0622e-15,-4086.6,966.93,-4086.7,966.93,-3179.2,4086.6,-3179.2,4086.7,4086.7,966.93,4086.6,966.93,4086.6,3.0622e-15,4086.7,6.1244e-15,-3179.2,4627.2,-4086.7,6.1244e-15,-4086.6,3.0622e-15,-4086.6,966.93,-4086.7,966.93,4086.7,6.1244e-15,4627.2,2.9263e-15,4627.2,966.93,4086.7,966.93,-4627.2,966.93,-4627.3,966.93,-4627.3,5.9885e-15,-4627.2,2.9263e-15,-1336.7,966.93,-1336.7,5.9885e-15,-910.14,6.0589e-15,-10091,2752.8,-9915.8,2752.8,-9566.6,2752.8,-7724.1,2752.8,-7437.4,2752.8,-5594.9,2752.8,-5308.3,2752.8,-3465.8,2752.8,-3179.2,2752.8,-1336.7,2752.8,-910.14,2752.8,-910.14,2942.3,-10091,2942.3,7724.1,4627.2,7724.1,4627.3,7437.4,4627.3,7437.4,4627.2,-4627.2,966.93,-4627.3,966.93,-4627.3,5.9885e-15,-4627.2,2.9263e-15,-7437.4,966.93,-7724.1,966.93,-7724.1,5.9885e-15,-7437.4,6.0913e-15,-7437.4,4627.3,-7724.1,4627.3,4627.2,3.0291e-15,4627.3,6.0913e-15,4627.3,966.93,4627.2,966.93,7437.4,3.0291e-15,7724.1,2.9263e-15,-4086.7,966.93,-4627.2,966.93,-4627.2,3.0291e-15,-4086.7,6.1244e-15,-4086.7,6.1244e-15,-4086.6,3.0622e-15,-4086.6,966.93,-4086.7,966.93,4086.7,6.1244e-15,4627.2,2.9263e-15,4627.2,966.93,4086.7,966.93,4086.7,966.93,4086.6,966.93,4086.6,3.0622e-15,4086.7,6.1244e-15,5594.9,4627.2,5594.9,4627.3,5308.3,4627.3,5308.3,4627.2,-4627.2,966.93,-4627.3,966.93,-4627.3,5.9885e-15,-4627.2,2.9263e-15,-5308.3,966.93,-5594.9,966.93,-5594.9,5.9885e-15,-5308.3,6.0913e-15,-5308.3,4627.3,-5594.9,4627.3,4627.2,3.0291e-15,4627.3,6.0913e-15,4627.3,966.93,4627.2,966.93,5308.3,3.0291e-15,5594.9,2.9263e-15,-4086.7,966.93,-4627.2,966.93,-4627.2,3.0291e-15,-4086.7,6.1244e-15,4086.7,6.1244e-15,4627.2,2.9263e-15,4627.2,966.93,4086.7,966.93,-3465.8,5.9885e-15,-3179.2,6.0913e-15,-3179.2,966.93,-3465.8,966.93,-3179.2,4627.3,-3465.8,4627.3,4627.2,3.0291e-15,4627.3,6.0913e-15,4627.3,966.93,4627.2,966.93,3465.8,4627.2,3465.8,4627.3,3179.2,4627.3,3179.2,4627.2,-4627.2,966.93,-4627.3,966.93,-4627.3,5.9885e-15,-4627.2,2.9263e-15,4086.7,6.1244e-15,4627.2,2.9263e-15,4627.2,966.93,4086.7,966.93,-4627.2,3.0291e-15,-4086.7,6.1244e-15,-4086.7,966.93,-4627.2,966.93,3179.2,3.0291e-15,3465.8,2.9263e-15,-910.14,3678.9,-910.14,3868.4,-10091,3868.4,-10091,3678.9,-910.14,4439.2,-910.14,4628.7,-10091,4628.7,-10091,4439.2,-910.14,5000.1,-910.14,5189.7,-10091,5189.7,-10091,5000.1,-910.14,5337.2,-910.14,5526.7,-10091,5526.7,-10091,5337.2,4086.7,966.93,4086.6,966.93,4086.6,3.0622e-15,4086.7,6.1244e-15,4086.6,-1.6756e-11,6963.6,-1.6758e-11,6963.7,-1.6757e-11,6963.7,2009.1,7.4217e-11,2009.1,7.4217e-11,-1.6757e-11,70.117,-1.6757e-11,70.193,-2.3233e-11,2947.2,-2.323e-11,2947.2,1004.5,2966.7,1152,3023.6,1289.4,3114.1,1407.3,3232.1,1497.9,3369.5,1554.8,3516.9,1574.2,3664.3,1554.8,3801.7,1497.9,3919.7,1407.3,4010.2,1289.4,4067.2,1152,4086.6,1004.5,-5.8208e-11,6963.7,-10641,6963.7,-10641,6.4765e-12,-5.8208e-11,3.0622e-15,-5.8208e-11,2009.1,-10641,2009.1,-10641,0,-5.8208e-11,0,0,2947.2,0,4086.6,5.8208e-11,2.4936e-14,10641,6.4765e-12,10641,2009.1,5.8208e-11,2009.1,-5.8208e-11,-3.8828e-30,-1.8598e-30,70.117,-10641,70.117,-10641,-2.1768e-30,9.6783e-25,2009.1,-2947.2,6.2873e-15,-70.193,-2.8177e-25,-70.117,3.0622e-15,9.6783e-25,2.4936e-14,-3179.2,3.0622e-15,-1336.7,3.0622e-15,0,6.2873e-15,0,1004.5,-10641,1004.5,-10641,3.0622e-15,-9566.6,3.0622e-15,-7724.1,3.0622e-15,-7437.4,3.0622e-15,-5594.9,3.0622e-15,-5308.3,3.0622e-15,-3465.8,3.0622e-15,2947.2,966.93,2947.2,966.93,2947.2,6.1244e-15,2947.2,3.0622e-15,-1336.7,2947.2,-3179.2,2947.2,-3179.2,2947.2,-3179.2,2406.6,-1336.7,2406.6,-1336.7,2947.2,-2947.2,6.1244e-15,-2406.6,3.0291e-15,-2406.6,966.93,-2947.2,966.93,-3465.8,2406.6,-3465.8,2947.2,-3465.8,2.9263e-15,-3179.2,3.0291e-15,-3179.2,2406.6,-3465.8,2406.6,2406.6,6.0913e-15,2406.6,3.0291e-15,2406.6,966.93,2406.6,966.93,3465.8,2406.6,3465.8,2406.6,3179.2,2406.6,3179.2,2406.6,-2406.6,966.93,-2406.6,966.93,-2406.6,2.9263e-15,-2406.6,5.9885e-15,2406.6,2.9263e-15,2947.2,6.1244e-15,2947.2,966.93,2406.6,966.93,-2947.2,3.0622e-15,-2947.2,6.1244e-15,-2947.2,966.93,-2947.2,966.93,-3465.8,2947.2,-5308.3,2947.2,-5308.3,2947.2,-5308.3,2406.6,2947.2,966.93,2947.2,966.93,2947.2,6.1244e-15,2947.2,3.0622e-15,-2406.6,966.93,-2947.2,966.93,-2947.2,6.1244e-15,-2406.6,3.0291e-15,-5594.9,2947.2,-5594.9,2406.6,2406.6,2.9263e-15,2947.2,6.1244e-15,2947.2,966.93,2406.6,966.93,-2947.2,3.0622e-15,-2947.2,6.1244e-15,-2947.2,966.93,-2947.2,966.93,-5594.9,2947.2,-7437.4,2947.2,-7437.4,2947.2,-7437.4,2406.6,2947.2,966.93,2947.2,966.93,2947.2,6.1244e-15,2947.2,3.0622e-15,-2947.2,6.1244e-15,-2406.6,3.0291e-15,-2406.6,966.93,-2947.2,966.93,-7724.1,2947.2,-7724.1,2406.6,-7724.1,2947.2,-2947.2,3.0622e-15,-2947.2,6.1244e-15,-2947.2,966.93,-2947.2,966.93,2406.6,2.9263e-15,2947.2,6.1244e-15,2947.2,966.93,2406.6,966.93,-9566.6,2947.2,-9566.6,2947.2,-9566.6,2406.6,2947.2,966.93,2947.2,966.93,2947.2,6.1244e-15,2947.2,3.0622e-15,-2947.2,6.1244e-15,-2406.6,3.0291e-15,-2406.6,966.93,-2947.2,966.93,-10641,2947.2,-10641,70.193,-5.8208e-11,70.193,4.7349e-34,2947.2,-910.14,2406.6,-910.14,2406.6,-910.14,684.99,-910.14,684.91,-10091,684.91,-10091,684.99,-10091,2406.6,-10091,2406.6,-9.3148e-31,70.117,-2947.2,3.0622e-15,-2947.2,6.1244e-15,-2947.2,966.93,-2947.2,966.93,2406.6,2.9263e-15,2947.2,6.1244e-15,2947.2,966.93,2406.6,966.93,-2406.6,966.93,-2406.6,966.93,-2406.6,2.9263e-15,-2406.6,5.9885e-15,-1336.7,2.9263e-15,-910.14,2.9967e-15,-1336.7,2406.6,-910.14,966.93,-1336.7,966.93,-1336.7,5.9885e-15,-910.14,6.0589e-15,9915.8,-86.976,10091,-86.976,10091,102.56,910.14,102.56,910.14,-86.976,1336.7,-86.976,3179.2,-86.976,3465.8,-86.976,5308.3,-86.976,5594.9,-86.976,7437.4,-86.976,7724.1,-86.976,9566.6,-86.976,-10091,6.1899e-15,-9566.6,6.0913e-15,-9566.6,966.93,-9915.8,966.93,-10091,966.93,-9566.6,2406.6,1545.8,1594.7,1545.8,1594.7,1734.2,1574.8,1914.4,1516.1,2078.4,1421.1,2219,1294,2330,1140.3,2406.6,966.93,2406.6,1.137e-13,2406.6,1.1064e-13,2406.6,966.93,2330.1,1140.3,2219.1,1294,2078.5,1421.1,1914.5,1516.1,1734.3,1574.8,-2406.6,-3.1724e-11,-684.99,-3.1727e-11,-684.99,966.93,-761.51,1140.3,-872.51,1294,-1013.1,1421.1,-1177.1,1516.1,-1357.3,1574.8,-1545.8,1594.7,-1734.2,1574.8,-1914.4,1516.1,-2078.4,1421.1,-2219,1294,-2330,1140.3,-2406.6,966.93,684.91,7.1774e-11,684.99,7.1771e-11,684.99,966.93,761.51,1140.3,872.51,1294,1013.1,1421.1,1177.1,1516.1,1357.3,1574.8,1545.8,1594.7,1545.7,1594.7,1357.2,1574.8,1177,1516.1,1013,1421.1,872.43,1294,761.44,1140.3,684.91,966.93,-910.14,2.9312e-15,-10091,3.0622e-15,2406.6,966.93,2330,1140.3,2219,1294,2078.4,1421.1,1914.4,1516.1,1734.2,1574.8,1545.8,1594.7,1357.3,1574.8,1177.1,1516.1,1013.1,1421.1,872.51,1294,761.51,1140.3,684.99,966.93,684.99,3.0836e-12,2406.6,3.0867e-12,-2406.6,966.93,-2406.6,966.93,-2330,1140.3,-2219,1294,-2078.4,1421.1,-1914.4,1516.1,-1734.2,1574.8,-1545.8,1594.7,-1545.8,1594.7,-1734.3,1574.8,-1914.5,1516.1,-2078.5,1421.1,-2219.1,1294,-2330.1,1140.3,-2406.6,2.9967e-15,-2406.6,6.0589e-15,-2406.6,966.93,-2406.6,966.93,910.14,-250.59,910.14,-440.13,10091,-440.13,10091,-250.59,910.14,-588.57,910.14,-778.11,10091,-778.11,10091,-588.57,910.14,-896.5,910.14,-1086,10091,-1086,10091,-896.5,910.14,-1160.9,910.14,-1350.4,10091,-1350.4,10091,-1160.9,-1545.7,1594.7,-1545.8,1594.7,-1357.3,1574.8,-1177.1,1516.1,-1013.1,1421.1,-872.51,1294,-761.51,1140.3,-684.99,966.93,-684.91,966.93,-761.44,1140.3,-872.43,1294,-1013,1421.1,-1177,1516.1,-1357.2,1574.8,-684.91,966.93,-684.99,966.93,-684.99,2.9312e-15,-684.91,5.9934e-15,910.14,966.93,910.14,5.9934e-15,10091,6.1244e-15,10091,966.93,-910.14,1161.1,-910.14,1350.7,-10091,1350.7,-10091,1161.1,-910.14,1370.2,-910.14,1559.8,-10091,1559.8,-10091,1370.2,-910.14,1515,-910.14,1704.5,-10091,1704.5,-10091,1515,-910.14,1588.9,-910.14,1778.5,-10091,1778.5,-10091,1588.9,-910.14,1588.9,-910.14,1778.4,-10091,1778.4,-10091,1588.9,-910.14,1514.8,-910.14,1704.4,-10091,1704.4,-10091,1514.8,-10091,3.1276e-15,-9566.6,3.0291e-15,2406.6,6.0913e-15,2406.6,3.0291e-15,2406.6,966.93,2406.6,966.93,-3465.8,5.9885e-15,-3179.2,6.0913e-15,-3179.2,966.93,-3465.8,966.93,5594.9,2406.6,5594.9,2406.6,5308.3,2406.6,5308.3,2406.6,-2406.6,966.93,-2406.6,966.93,-2406.6,2.9263e-15,-2406.6,5.9885e-15,-5594.9,2.9263e-15,-5308.3,3.0291e-15,-5308.3,2406.6,-5594.9,2406.6,2406.6,6.0913e-15,2406.6,3.0291e-15,2406.6,966.93,2406.6,966.93,-5308.3,966.93,-5594.9,966.93,-5594.9,5.9885e-15,-5308.3,6.0913e-15,7724.1,2406.6,7724.1,2406.6,7437.4,2406.6,7437.4,2406.6,-2406.6,966.93,-2406.6,966.93,-2406.6,2.9263e-15,-2406.6,5.9885e-15,-7724.1,2.9263e-15,-7437.4,3.0291e-15,-7437.4,2406.6,-7724.1,2406.6,2406.6,6.0913e-15,2406.6,3.0291e-15,2406.6,966.93,2406.6,966.93,-7437.4,966.93,-7724.1,966.93,-7724.1,5.9885e-15,-7437.4,6.0913e-15,0,1380.6,0,1529.3,-10641,1529.3,-10641,1380.6,0,2199.6,0,2348.3,-10641,2348.3,-10641,2199.6,0,2863.6,0,3012.3,-10641,3012.3,-10641,2863.6,0,3327.3,0,3476,-10641,3476,-10641,3327.3,0,3559.3,0,3708,-10641,3708,-10641,3559.3,0,3543.6,0,3692.3,-10641,3692.3,-10641,3543.6,0,-3281.3,0,-3430.1,10641,-3430.1,10641,-3281.3,0,-2104.3,0,-2253,10641,-2253,10641,-2104.3,0,-1269.7,0,-1418.4,10641,-1418.4,10641,-1269.7,0,-343.44,0,-492.16,10641,-492.16,10641,-343.44,0,611.24,0,462.53,10641,462.53,10641,611.24,910.14,3868.4,910.14,3678.9,10091,3678.9,10091,3868.4,910.14,4628.7,910.14,4439.1,10091,4439.1,10091,4628.7,910.14,5189.6,910.14,5000.1,10091,5000.1,10091,5189.6,910.14,5526.7,910.14,5337.1,10091,5337.1,10091,5526.7,910.14,-4909.1,910.14,-5098.6,10091,-5098.6,10091,-4909.1,910.14,-4307.7,910.14,-4497.2,10091,-4497.2,10091,-4307.7,910.14,-3512.7,910.14,-3702.2,10091,-3702.2,10091,-3512.7,910.14,-2559.2,910.14,-2748.7,10091,-2748.7,10091,-2559.2,-910.14,2.9312e-15,-910.14,966.93,-10091,966.93,-10091,3.0622e-15]],

    "faces": [43,0,1,2,3,0,0,1,2,3,0,1,1,0,43,4,5,6,7,0,4,5,6,7,2,2,2,2,43,17,18,5,4,0,19,20,5,4,3,3,3,3,43,21,22,23,24,0,23,24,25,26,4,4,4,4,43,37,38,39,40,0,41,42,43,44,5,5,5,5,43,38,37,50,51,0,56,57,58,59,6,7,7,6,43,43,52,53,54,0,60,61,62,63,8,8,8,8,43,43,52,59,60,0,74,75,76,77,9,10,10,9,43,52,53,62,59,0,80,81,82,83,10,12,12,10,43,53,54,63,62,0,84,85,86,87,12,13,13,12,43,54,55,64,63,0,88,89,90,91,13,14,14,13,43,55,56,65,64,0,92,93,94,95,14,15,15,14,43,56,57,66,65,0,96,97,98,99,15,16,16,15,43,57,58,67,66,0,100,101,102,103,16,17,17,16,43,36,58,67,35,0,104,105,106,107,18,18,18,18,43,37,58,36,21,0,108,109,110,111,19,19,19,19,43,35,34,21,36,0,39,38,23,40,20,20,20,20,43,34,35,67,66,0,112,113,114,115,21,21,21,21,43,34,33,72,73,0,128,129,130,131,22,22,22,22,43,60,77,78,79,0,143,144,145,146,23,23,23,23,43,84,85,78,77,0,159,160,161,162,24,25,25,24,43,49,86,87,88,0,163,164,165,166,26,26,26,26,43,22,23,86,49,0,177,178,179,180,19,19,19,19,43,24,23,22,91,0,26,25,24,181,27,27,27,27,43,92,86,23,24,0,182,183,184,185,28,28,28,28,43,93,83,82,87,0,186,187,188,189,29,29,30,30,43,31,32,83,93,0,199,200,201,202,28,28,28,28,43,101,33,32,31,0,204,37,36,35,31,31,31,31,43,33,101,102,103,0,205,206,207,208,18,18,18,18,43,31,101,102,100,0,209,210,211,212,32,32,32,32,43,104,100,31,30,0,213,214,215,216,33,33,33,33,43,105,106,107,99,0,33,217,218,219,34,34,34,34,43,108,109,110,111,0,220,221,222,223,35,35,35,35,43,109,108,121,97,0,238,239,240,241,34,34,34,34,43,123,120,108,121,0,244,245,246,247,19,19,19,19,43,119,124,123,120,0,248,249,240,239,36,36,36,36,43,125,118,119,124,0,250,251,252,253,32,32,32,32,43,118,117,126,95,0,248,254,255,256,34,34,34,34,43,127,116,117,126,0,258,259,260,261,19,19,19,19,43,127,116,115,128,0,255,254,262,263,36,36,36,36,43,129,114,115,128,0,264,265,266,267,32,32,32,32,43,114,113,130,92,0,262,28,27,26,34,34,34,34,43,25,26,113,130,0,269,270,271,272,19,19,19,19,43,25,24,92,130,0,273,274,275,276,37,37,37,37,43,92,131,91,24,0,277,278,279,280,19,19,19,19,43,49,131,91,22,0,105,281,282,283,18,18,18,18,43,72,103,102,132,0,284,285,286,287,38,38,38,38,43,99,132,133,98,0,297,298,299,300,40,40,40,40,43,99,132,138,139,0,301,302,303,304,19,19,19,19,43,133,132,138,140,0,305,306,307,308,18,18,18,18,43,141,140,138,139,0,242,309,310,219,41,41,41,41,43,141,140,133,98,0,311,312,313,314,32,32,32,32,43,99,98,141,139,0,224,221,315,316,28,28,28,28,43,122,98,141,142,0,317,318,319,320,33,33,33,33,43,143,142,141,139,0,218,243,242,219,42,42,42,42,43,143,111,110,142,0,218,217,238,243,36,36,36,36,43,143,111,106,107,0,321,322,323,324,19,19,19,19,43,143,139,99,107,0,325,326,327,328,37,37,37,37,43,122,109,110,142,0,329,330,331,332,32,32,32,32,43,97,134,135,96,0,333,334,335,336,40,40,40,40,43,97,134,144,145,0,337,338,339,340,19,19,19,19,43,135,134,144,146,0,341,342,343,344,18,18,18,18,43,147,146,144,145,0,257,345,346,241,41,41,41,41,43,147,146,135,96,0,347,348,349,350,32,32,32,32,43,97,96,147,145,0,220,235,351,352,28,28,28,28,43,125,96,147,124,0,353,354,355,356,33,33,33,33,43,145,123,124,147,0,241,240,249,257,43,43,43,43,43,123,145,97,121,0,357,358,359,360,37,37,37,37,43,148,149,137,136,0,361,362,363,364,18,18,18,18,43,150,149,148,151,0,268,365,366,256,41,41,41,41,43,150,149,137,94,0,367,368,369,370,32,32,32,32,43,95,136,137,94,0,371,372,373,374,40,40,40,40,43,95,136,148,151,0,375,376,377,378,19,19,19,19,43,127,151,95,126,0,379,380,381,382,37,37,37,37,43,127,128,150,151,0,255,263,268,256,42,42,42,42,43,150,128,129,94,0,383,384,385,386,33,33,33,33,43,150,151,95,94,0,387,388,234,231,28,28,28,28,43,48,47,74,73,0,389,390,391,392,39,44,44,39,43,47,46,75,74,0,393,394,395,396,44,45,45,44,43,46,45,76,75,0,397,398,399,400,45,46,46,45,43,45,44,61,76,0,401,402,403,404,46,11,11,46,43,104,105,29,30,0,405,406,407,408,32,32,32,32,43,28,27,152,153,0,409,410,411,412,47,47,47,47,43,20,152,27,17,0,431,432,31,30,48,48,48,48,43,152,20,19,153,0,433,434,435,436,18,18,18,18,43,153,154,169,16,0,432,437,438,439,34,34,34,34,43,170,155,154,169,0,441,442,443,444,49,49,49,49,43,170,171,156,155,0,445,446,447,448,50,50,50,50,43,169,16,15,172,0,449,18,17,450,51,51,51,51,43,174,175,176,177,0,454,363,281,455,18,18,18,18,43,175,190,191,174,0,466,467,468,469,52,52,52,52,43,176,175,190,192,0,470,471,472,473,34,34,34,34,43,191,195,192,190,0,476,477,478,479,53,53,53,53,43,196,195,191,197,0,480,473,472,481,54,54,54,54,43,196,195,192,198,0,482,483,363,364,18,18,18,18,43,199,195,196,200,0,484,473,480,485,55,55,55,55,43,199,195,192,201,0,486,487,488,489,52,52,52,52,43,202,198,192,201,0,490,491,492,493,40,40,40,40,43,202,198,196,200,0,494,495,496,497,56,56,56,56,43,196,197,203,198,0,498,499,500,501,57,57,57,57,43,189,197,203,188,0,502,503,504,505,56,56,56,56,43,189,197,191,174,0,506,481,472,471,58,58,58,58,43,188,187,204,205,0,506,507,508,509,34,34,34,34,43,187,204,206,186,0,510,511,512,513,52,52,52,52,43,205,204,206,207,0,514,515,516,517,53,53,53,53,43,208,209,207,206,0,518,519,509,508,54,54,54,54,43,209,208,210,211,0,520,521,522,523,57,57,57,57,43,185,208,210,184,0,524,525,526,527,56,56,56,56,43,206,186,185,208,0,508,507,528,518,58,58,58,58,43,184,183,212,213,0,528,529,530,531,34,34,34,34,43,183,212,214,182,0,532,533,534,535,52,52,52,52,43,214,215,213,212,0,536,537,538,539,53,53,53,53,43,215,214,216,217,0,531,530,540,541,59,59,59,59,43,181,216,214,182,0,542,540,530,529,58,58,58,58,43,181,216,218,180,0,543,544,545,546,56,56,56,56,43,217,216,218,219,0,547,548,549,550,57,57,57,57,43,180,179,220,221,0,542,551,552,553,34,34,34,34,43,179,220,222,178,0,554,555,556,557,52,52,52,52,43,222,223,221,220,0,558,559,560,561,53,53,53,53,43,178,158,157,173,0,551,562,563,564,60,60,60,60,43,173,157,156,171,0,564,563,447,574,61,61,61,61,43,177,224,194,176,0,575,576,577,578,56,56,56,56,43,225,224,194,193,0,579,580,581,582,57,57,57,57,43,234,193,225,235,0,583,584,585,586,56,56,56,56,43,236,193,225,226,0,105,281,587,588,18,18,18,18,43,225,235,227,226,0,474,589,567,566,62,62,62,62,43,237,234,235,227,0,590,591,592,593,18,18,18,18,43,238,239,240,241,0,594,595,596,597,63,63,64,64,43,232,247,246,238,0,607,608,609,610,18,18,18,18,43,233,232,247,223,0,573,572,612,553,65,65,65,65,43,248,249,250,251,0,613,614,615,616,66,66,66,66,43,232,231,260,261,0,629,630,631,632,67,67,67,67,43,230,231,260,261,0,644,645,646,647,68,68,68,68,43,228,273,260,231,0,660,105,106,661,18,18,18,18,43,237,241,274,275,0,662,663,664,665,69,69,69,69,43,236,237,241,274,0,677,678,679,680,70,70,70,70,43,226,227,237,236,0,691,692,693,694,56,56,56,56,43,274,241,240,253,0,695,696,697,698,71,64,64,71,43,275,274,253,252,0,699,700,701,702,72,71,71,72,43,276,275,252,251,0,703,704,705,706,73,72,72,73,43,277,276,251,250,0,707,708,709,710,74,73,73,74,43,290,278,279,280,0,711,712,713,714,75,75,75,75,43,291,273,228,229,0,725,726,727,728,56,56,56,56,43,291,229,230,272,0,729,730,731,732,28,28,28,28,43,291,292,271,272,0,733,734,735,736,76,77,77,76,43,292,293,270,271,0,737,738,739,740,77,78,78,77,43,293,294,269,270,0,741,742,743,744,78,79,79,78,43,294,295,268,269,0,745,746,747,748,79,80,80,79,43,295,296,267,268,0,749,750,751,752,80,81,81,80,43,296,290,266,267,0,753,754,755,756,81,82,82,81,43,233,223,221,297,0,757,758,207,208,18,18,18,18,43,247,223,221,246,0,759,760,761,762,52,52,52,52,43,200,199,201,202,0,763,764,765,766,18,18,18,18,43,243,211,205,242,0,767,768,769,770,40,40,40,40,43,243,211,209,298,0,771,772,773,774,56,56,56,56,43,205,211,209,207,0,341,342,775,776,18,18,18,18,43,299,207,209,298,0,777,509,519,778,55,55,55,55,43,299,207,205,242,0,779,780,781,782,52,52,52,52,43,242,243,298,299,0,783,784,785,786,18,18,18,18,43,245,219,213,244,0,787,788,789,790,40,40,40,40,43,245,219,217,300,0,791,792,793,794,56,56,56,56,43,213,219,217,215,0,305,306,795,796,18,18,18,18,43,301,215,217,300,0,797,531,541,798,55,55,55,55,43,301,215,213,244,0,799,800,801,802,52,52,52,52,43,244,245,300,301,0,803,804,805,806,18,18,18,18,43,15,14,160,159,0,807,808,809,810,83,84,84,83,43,14,13,161,160,0,811,812,813,814,84,85,85,84,43,13,12,162,161,0,815,816,817,818,85,86,86,85,43,12,11,163,162,0,819,820,821,822,86,87,87,86,43,11,10,164,163,0,823,824,825,826,87,88,88,87,43,10,9,165,164,0,827,828,829,830,88,89,89,88,43,9,0,3,165,0,831,832,833,834,89,0,0,89,43,1,8,166,2,0,835,836,837,838,1,90,90,1,43,8,7,167,166,0,839,840,841,842,90,91,91,90,43,7,6,168,167,0,843,844,845,846,91,92,92,91,43,6,5,112,168,0,847,848,849,850,92,93,93,92,43,88,87,82,81,0,851,852,853,854,94,30,30,94,43,89,88,81,80,0,855,856,857,858,95,94,94,95,43,90,89,80,79,0,859,860,861,862,96,95,95,96,43,85,90,79,78,0,863,864,865,866,25,96,96,25,43,42,41,69,68,0,867,868,869,870,97,98,98,97,43,41,40,70,69,0,871,872,873,874,98,99,99,98,43,40,39,71,70,0,875,876,877,878,99,100,100,99,43,39,38,51,71,0,879,880,881,882,100,6,6,100,43,21,37,50,34,0,883,884,885,886,18,18,18,18]

}
